2395,74125
=======================================================
Method: LELA
-------------------------------------------------------
# Threads:            1
- - - - - - - - - - - - - - - - - - - - - - - - - - - -
Real time:            178.673 sec
=======================================================
Method: LELA
-------------------------------------------------------
# Threads:            2
- - - - - - - - - - - - - - - - - - - - - - - - - - - -
Real time:            90.431 sec
=======================================================
Method: LELA
-------------------------------------------------------
# Threads:            4
- - - - - - - - - - - - - - - - - - - - - - - - - - - -
Real time:            45.570 sec
=======================================================
Method: LELA
-------------------------------------------------------
# Threads:            8
- - - - - - - - - - - - - - - - - - - - - - - - - - - -
Real time:            23.58 sec
=======================================================
Method: LELA
-------------------------------------------------------
# Threads:            16
- - - - - - - - - - - - - - - - - - - - - - - - - - - -
Real time:            15.142 sec
=======================================================
Method: LELA
-------------------------------------------------------
# Threads:            32
- - - - - - - - - - - - - - - - - - - - - - - - - - - -
Real time:            17.463 sec
=======================================================
Method: LELA
-------------------------------------------------------
# Threads:            64
- - - - - - - - - - - - - - - - - - - - - - - - - - - -
Real time:            26.231 sec

