3614,60539
=======================================================
Method: LELA
-------------------------------------------------------
# Threads:            1
- - - - - - - - - - - - - - - - - - - - - - - - - - - -
Real time:            680.117 sec
=======================================================
Method: LELA
-------------------------------------------------------
# Threads:            2
- - - - - - - - - - - - - - - - - - - - - - - - - - - -
Real time:            339.913 sec
=======================================================
Method: LELA
-------------------------------------------------------
# Threads:            4
- - - - - - - - - - - - - - - - - - - - - - - - - - - -
Real time:            168.711 sec
=======================================================
Method: LELA
-------------------------------------------------------
# Threads:            8
- - - - - - - - - - - - - - - - - - - - - - - - - - - -
Real time:            85.089 sec
=======================================================
Method: LELA
-------------------------------------------------------
# Threads:            16
- - - - - - - - - - - - - - - - - - - - - - - - - - - -
Real time:            50.321 sec
=======================================================
Method: LELA
-------------------------------------------------------
# Threads:            32
- - - - - - - - - - - - - - - - - - - - - - - - - - - -
Real time:            58.096 sec
=======================================================
Method: LELA
-------------------------------------------------------
# Threads:            64
- - - - - - - - - - - - - - - - - - - - - - - - - - - -
Real time:            90.991 sec

