2395,74125
=======================================================
Method: StarPU
-------------------------------------------------------
# Threads:            1
- - - - - - - - - - - - - - - - - - - - - - - - - - - -
Real time:            325.789 sec
=======================================================
Method: StarPU
-------------------------------------------------------
# Threads:            2
- - - - - - - - - - - - - - - - - - - - - - - - - - - -
Real time:            162.921 sec
=======================================================
Method: StarPU
-------------------------------------------------------
# Threads:            4
- - - - - - - - - - - - - - - - - - - - - - - - - - - -
Real time:            79.321 sec
=======================================================
Method: StarPU
-------------------------------------------------------
# Threads:            8
- - - - - - - - - - - - - - - - - - - - - - - - - - - -
Real time:            38.144 sec
=======================================================
Method: StarPU
-------------------------------------------------------
# Threads:            16
- - - - - - - - - - - - - - - - - - - - - - - - - - - -
Real time:            20.615 sec
=======================================================
Method: StarPU
-------------------------------------------------------
# Threads:            32
- - - - - - - - - - - - - - - - - - - - - - - - - - - -
Real time:            14.355 sec
=======================================================
Method: StarPU
-------------------------------------------------------
# Threads:            64
- - - - - - - - - - - - - - - - - - - - - - - - - - - -
Real time:            17.016 sec
=======================================================

