2395,74125
=======================================================
Method: StarPU
-------------------------------------------------------
# Threads:            1
- - - - - - - - - - - - - - - - - - - - - - - - - - - -
Real time:            202.102 sec
=======================================================
Method: StarPU
-------------------------------------------------------
# Threads:            2
- - - - - - - - - - - - - - - - - - - - - - - - - - - -
Real time:            98.332 sec
=======================================================
Method: StarPU
-------------------------------------------------------
# Threads:            4
- - - - - - - - - - - - - - - - - - - - - - - - - - - -
Real time:            46.118 sec
=======================================================
Method: StarPU
-------------------------------------------------------
# Threads:            8
- - - - - - - - - - - - - - - - - - - - - - - - - - - -
Real time:            22.988 sec
=======================================================
Method: StarPU
-------------------------------------------------------
# Threads:            16
- - - - - - - - - - - - - - - - - - - - - - - - - - - -
Real time:            13.178 sec
=======================================================
Method: StarPU
-------------------------------------------------------
# Threads:            32
- - - - - - - - - - - - - - - - - - - - - - - - - - - -
Real time:            9.785 sec
=======================================================
Method: StarPU
-------------------------------------------------------
# Threads:            64
- - - - - - - - - - - - - - - - - - - - - - - - - - - -
Real time:            11.032 sec
=======================================================

