\beamer@endinputifotherversion {3.27pt}
\beamer@sectionintoc {1}{What is \textsc {Singular}?}{2}{0}{1}
\beamer@sectionintoc {2}{How to get \textsc {Singular}?}{18}{0}{2}
\beamer@sectionintoc {3}{\textsc {Singular} community}{21}{0}{3}
\beamer@sectionintoc {4}{Recent developments in \textsc {Singular}}{25}{0}{4}
