\relax 
\providecommand\hyper@newdestlabel[2]{}
\providecommand\HyperFirstAtBeginDocument{\AtBeginDocument}
\HyperFirstAtBeginDocument{\ifx\hyper@anchor\@undefined
\global\let\oldcontentsline\contentsline
\gdef\contentsline#1#2#3#4{\oldcontentsline{#1}{#2}{#3}}
\global\let\oldnewlabel\newlabel
\gdef\newlabel#1#2{\newlabelxx{#1}#2}
\gdef\newlabelxx#1#2#3#4#5#6{\oldnewlabel{#1}{{#2}{#3}}}
\AtEndDocument{\ifx\hyper@anchor\@undefined
\let\contentsline\oldcontentsline
\let\newlabel\oldnewlabel
\fi}
\fi}
\global\let\hyper@last\relax 
\gdef\HyperFirstAtBeginDocument#1{#1}
\providecommand\HyField@AuxAddToFields[1]{}
\providecommand\HyField@AuxAddToCoFields[2]{}
\@writefile{toc}{\beamer@endinputifotherversion {3.27pt}}
\@writefile{nav}{\beamer@endinputifotherversion {3.27pt}}
\@writefile{nav}{\headcommand {\slideentry {0}{0}{1}{1/1}{}{0}}}
\@writefile{nav}{\headcommand {\beamer@framepages {1}{1}}}
\@writefile{toc}{\beamer@sectionintoc {1}{What is \textsc  {Singular}?}{2}{0}{1}}
\@writefile{nav}{\headcommand {\sectionentry {1}{What is \textsc  {Singular}?}{2}{What is \textsc  {Singular}?}{0}}}
\@writefile{nav}{\headcommand {\beamer@sectionpages {1}{1}}}
\@writefile{nav}{\headcommand {\beamer@subsectionpages {1}{1}}}
\@writefile{nav}{\headcommand {\slideentry {1}{0}{2}{2/2}{}{0}}}
\@writefile{nav}{\headcommand {\beamer@framepages {2}{2}}}
\@writefile{nav}{\headcommand {\slideentry {1}{0}{3}{3/5}{}{0}}}
\@writefile{nav}{\headcommand {\beamer@framepages {3}{5}}}
\@writefile{nav}{\headcommand {\slideentry {1}{0}{4}{6/9}{}{0}}}
\@writefile{nav}{\headcommand {\beamer@framepages {6}{9}}}
\@writefile{nav}{\headcommand {\slideentry {1}{0}{5}{10/17}{}{0}}}
\@writefile{nav}{\headcommand {\beamer@framepages {10}{17}}}
\@writefile{toc}{\beamer@sectionintoc {2}{How to get \textsc  {Singular}?}{18}{0}{2}}
\@writefile{nav}{\headcommand {\sectionentry {2}{How to get \textsc  {Singular}?}{18}{How to get \textsc  {Singular}?}{0}}}
\@writefile{nav}{\headcommand {\beamer@sectionpages {2}{17}}}
\@writefile{nav}{\headcommand {\beamer@subsectionpages {2}{17}}}
\@writefile{nav}{\headcommand {\slideentry {2}{0}{6}{18/18}{}{0}}}
\@writefile{nav}{\headcommand {\beamer@framepages {18}{18}}}
\@writefile{nav}{\headcommand {\slideentry {2}{0}{7}{19/20}{}{0}}}
\@writefile{nav}{\headcommand {\beamer@framepages {19}{20}}}
\@writefile{toc}{\beamer@sectionintoc {3}{\textsc  {Singular} community}{21}{0}{3}}
\@writefile{nav}{\headcommand {\sectionentry {3}{\textsc  {Singular} community}{21}{\textsc  {Singular} community}{0}}}
\@writefile{nav}{\headcommand {\beamer@sectionpages {18}{20}}}
\@writefile{nav}{\headcommand {\beamer@subsectionpages {18}{20}}}
\@writefile{nav}{\headcommand {\slideentry {3}{0}{8}{21/21}{}{0}}}
\@writefile{nav}{\headcommand {\beamer@framepages {21}{21}}}
\@writefile{nav}{\headcommand {\slideentry {3}{0}{9}{22/24}{}{0}}}
\@writefile{nav}{\headcommand {\beamer@framepages {22}{24}}}
\@writefile{toc}{\beamer@sectionintoc {4}{Recent developments in \textsc  {Singular}}{25}{0}{4}}
\@writefile{nav}{\headcommand {\sectionentry {4}{Recent developments in \textsc  {Singular}}{25}{Recent developments in \textsc  {Singular}}{0}}}
\@writefile{nav}{\headcommand {\beamer@sectionpages {21}{24}}}
\@writefile{nav}{\headcommand {\beamer@subsectionpages {21}{24}}}
\@writefile{nav}{\headcommand {\slideentry {4}{0}{10}{25/25}{}{0}}}
\@writefile{nav}{\headcommand {\beamer@framepages {25}{25}}}
\@writefile{nav}{\headcommand {\slideentry {4}{0}{11}{26/27}{}{0}}}
\@writefile{nav}{\headcommand {\beamer@framepages {26}{27}}}
\@writefile{nav}{\headcommand {\slideentry {4}{0}{12}{28/29}{}{0}}}
\@writefile{nav}{\headcommand {\beamer@framepages {28}{29}}}
\@writefile{nav}{\headcommand {\slideentry {4}{0}{13}{30/32}{}{0}}}
\@writefile{nav}{\headcommand {\beamer@framepages {30}{32}}}
\@writefile{nav}{\headcommand {\slideentry {4}{0}{14}{33/34}{}{0}}}
\@writefile{nav}{\headcommand {\beamer@framepages {33}{34}}}
\@writefile{nav}{\headcommand {\slideentry {4}{0}{15}{35/35}{}{0}}}
\@writefile{nav}{\headcommand {\beamer@framepages {35}{35}}}
\@writefile{nav}{\headcommand {\slideentry {4}{0}{16}{36/36}{}{0}}}
\@writefile{nav}{\headcommand {\beamer@framepages {36}{36}}}
\@writefile{nav}{\headcommand {\beamer@partpages {1}{36}}}
\@writefile{nav}{\headcommand {\beamer@subsectionpages {25}{36}}}
\@writefile{nav}{\headcommand {\beamer@sectionpages {25}{36}}}
\@writefile{nav}{\headcommand {\beamer@documentpages {36}}}
\@writefile{nav}{\headcommand {\def \inserttotalframenumber {16}}}
