\relax 
\ifx\hyper@anchor\@undefined
\global \let \oldcontentsline\contentsline
\gdef \contentsline#1#2#3#4{\oldcontentsline{#1}{#2}{#3}}
\global \let \oldnewlabel\newlabel
\gdef \newlabel#1#2{\newlabelxx{#1}#2}
\gdef \newlabelxx#1#2#3#4#5#6{\oldnewlabel{#1}{{#2}{#3}}}
\AtEndDocument{\let \contentsline\oldcontentsline
\let \newlabel\oldnewlabel}
\else
\global \let \hyper@last\relax 
\fi

\providecommand*\HyPL@Entry[1]{}
\catcode`"\active
\HyPL@Entry{0<</P(1)>>}
\@writefile{toc}{\beamer@endinputifotherversion {3.10pt}}
\@writefile{nav}{\beamer@endinputifotherversion {3.10pt}}
\select@language{ngerman}
\@writefile{toc}{\select@language{ngerman}}
\@writefile{lof}{\select@language{ngerman}}
\@writefile{lot}{\select@language{ngerman}}
\@writefile{nav}{\headcommand {\slideentry {0}{0}{1}{1/1}{}{0}}}
\@writefile{nav}{\headcommand {\beamer@framepages {1}{1}}}
\HyPL@Entry{1<</P(2)>>}
\@writefile{nav}{\headcommand {\sectionentry {1}{\"Ubersicht}{2}{\"Ubersicht}{0}}}
\@writefile{nav}{\headcommand {\beamer@sectionpages {1}{1}}}
\@writefile{nav}{\headcommand {\beamer@subsectionpages {1}{1}}}
\@writefile{nav}{\headcommand {\slideentry {1}{0}{2}{2/4}{}{0}}}
\@writefile{nav}{\headcommand {\beamer@framepages {2}{4}}}
\HyPL@Entry{4<</P(3)>>}
\@writefile{toc}{\beamer@sectionintoc {2}{Eine kleine Einf\"uhrung in die Theorie der Gr\"obner Basen}{5}{0}{1}}
\@writefile{nav}{\headcommand {\sectionentry {2}{Eine kleine Einf\"uhrung in die Theorie der Gr\"obner Basen}{5}{Eine kleine Einf\"uhrung in die Theorie der Gr\"obner Basen}{0}}}
\@writefile{nav}{\headcommand {\beamer@sectionpages {2}{4}}}
\@writefile{nav}{\headcommand {\beamer@subsectionpages {2}{4}}}
\@writefile{nav}{\headcommand {\slideentry {2}{0}{3}{5/5}{}{0}}}
\@writefile{nav}{\headcommand {\beamer@framepages {5}{5}}}
\HyPL@Entry{5<</P(4)>>}
\@writefile{toc}{\beamer@subsectionintoc {2}{1}{Grunds\"atzliches zu Gr\"obner Basen}{6}{0}{1}}
\@writefile{nav}{\headcommand {\beamer@subsectionentry {0}{2}{1}{6}{Grunds\"atzliches zu Gr\"obner Basen}}\headcommand {\beamer@subsectionpages {5}{5}}}
\@writefile{nav}{\headcommand {\slideentry {2}{1}{1}{6/7}{Grunds\"atzliches zu Gr\"obner Basen}{0}}}
\@writefile{nav}{\headcommand {\beamer@framepages {6}{7}}}
\HyPL@Entry{7<</P(5)>>}
\@writefile{nav}{\headcommand {\slideentry {2}{1}{2}{8/8}{Grunds\"atzliches zu Gr\"obner Basen}{0}}}
\@writefile{nav}{\headcommand {\beamer@framepages {8}{8}}}
\HyPL@Entry{8<</P(6)>>}
\@writefile{toc}{\beamer@subsectionintoc {2}{2}{Berechnung von Gr\"obner Basen}{9}{0}{1}}
\@writefile{nav}{\headcommand {\beamer@subsectionentry {0}{2}{2}{9}{Berechnung von Gr\"obner Basen}}\headcommand {\beamer@subsectionpages {6}{8}}}
\@writefile{nav}{\headcommand {\slideentry {2}{2}{1}{9/14}{Berechnung von Gr\"obner Basen}{0}}}
\@writefile{nav}{\headcommand {\beamer@framepages {9}{14}}}
\HyPL@Entry{14<</P(7)>>}
\@writefile{toc}{\beamer@subsectionintoc {2}{3}{Das Problem der Nullreduktion}{15}{0}{1}}
\@writefile{nav}{\headcommand {\beamer@subsectionentry {0}{2}{3}{15}{Das Problem der Nullreduktion}}\headcommand {\beamer@subsectionpages {9}{14}}}
\@writefile{nav}{\headcommand {\slideentry {2}{3}{1}{15/18}{Das Problem der Nullreduktion}{0}}}
\@writefile{nav}{\headcommand {\beamer@framepages {15}{18}}}
\HyPL@Entry{18<</P(8)>>}
\@writefile{toc}{\beamer@sectionintoc {3}{Signaturbasierter Ansatz}{19}{0}{2}}
\@writefile{nav}{\headcommand {\sectionentry {3}{Signaturbasierter Ansatz}{19}{Signaturbasierter Ansatz}{0}}}
\@writefile{nav}{\headcommand {\beamer@sectionpages {5}{18}}}
\@writefile{nav}{\headcommand {\beamer@subsectionpages {15}{18}}}
\@writefile{nav}{\headcommand {\slideentry {3}{0}{2}{19/19}{}{0}}}
\@writefile{nav}{\headcommand {\beamer@framepages {19}{19}}}
\HyPL@Entry{19<</P(9)>>}
\@writefile{toc}{\beamer@subsectionintoc {3}{1}{Die grundlegende Idee}{20}{0}{2}}
\@writefile{nav}{\headcommand {\beamer@subsectionentry {0}{3}{1}{20}{Die grundlegende Idee}}\headcommand {\beamer@subsectionpages {19}{19}}}
\@writefile{nav}{\headcommand {\slideentry {3}{1}{1}{20/24}{Die grundlegende Idee}{0}}}
\@writefile{nav}{\headcommand {\beamer@framepages {20}{24}}}
\HyPL@Entry{24<</P(10)>>}
\@writefile{nav}{\headcommand {\slideentry {3}{1}{2}{25/28}{Die grundlegende Idee}{0}}}
\@writefile{nav}{\headcommand {\beamer@framepages {25}{28}}}
\HyPL@Entry{28<</P(11)>>}
\@writefile{nav}{\headcommand {\slideentry {3}{1}{3}{29/32}{Die grundlegende Idee}{0}}}
\@writefile{nav}{\headcommand {\beamer@framepages {29}{32}}}
\HyPL@Entry{32<</P(12)>>}
\@writefile{toc}{\beamer@subsectionintoc {3}{2}{Signaturbasierte Berechnungen von Gr\"obner Basen}{33}{0}{2}}
\@writefile{nav}{\headcommand {\beamer@subsectionentry {0}{3}{2}{33}{Signaturbasierte Berechnungen von Gr\"obner Basen}}\headcommand {\beamer@subsectionpages {20}{32}}}
\@writefile{nav}{\headcommand {\slideentry {3}{2}{1}{33/37}{Signaturbasierte Berechnungen von Gr\"obner Basen}{0}}}
\@writefile{nav}{\headcommand {\beamer@framepages {33}{37}}}
\HyPL@Entry{37<</P(13)>>}
\@writefile{nav}{\headcommand {\slideentry {3}{2}{2}{38/41}{Signaturbasierte Berechnungen von Gr\"obner Basen}{0}}}
\@writefile{nav}{\headcommand {\beamer@framepages {38}{41}}}
\HyPL@Entry{41<</P(14)>>}
\@writefile{nav}{\headcommand {\slideentry {3}{2}{3}{42/43}{Signaturbasierte Berechnungen von Gr\"obner Basen}{0}}}
\@writefile{nav}{\headcommand {\beamer@framepages {42}{43}}}
\HyPL@Entry{43<</P(15)>>}
\@writefile{toc}{\beamer@subsectionintoc {3}{3}{Signaturbasierte Kriterien}{44}{0}{2}}
\@writefile{nav}{\headcommand {\beamer@subsectionentry {0}{3}{3}{44}{Signaturbasierte Kriterien}}\headcommand {\beamer@subsectionpages {33}{43}}}
\@writefile{nav}{\headcommand {\slideentry {3}{3}{1}{44/46}{Signaturbasierte Kriterien}{0}}}
\@writefile{nav}{\headcommand {\beamer@framepages {44}{46}}}
\HyPL@Entry{46<</P(16)>>}
\@writefile{nav}{\headcommand {\slideentry {3}{3}{2}{47/48}{Signaturbasierte Kriterien}{0}}}
\@writefile{nav}{\headcommand {\beamer@framepages {47}{48}}}
\HyPL@Entry{48<</P(17)>>}
\@writefile{toc}{\beamer@sectionintoc {4}{Implementierungen \& Ausblick}{49}{0}{3}}
\@writefile{nav}{\headcommand {\sectionentry {4}{Implementierungen \& Ausblick}{49}{Implementierungen \& Ausblick}{0}}}
\@writefile{nav}{\headcommand {\beamer@sectionpages {19}{48}}}
\@writefile{nav}{\headcommand {\beamer@subsectionpages {44}{48}}}
\@writefile{nav}{\headcommand {\slideentry {4}{0}{3}{49/49}{}{0}}}
\@writefile{nav}{\headcommand {\beamer@framepages {49}{49}}}
\HyPL@Entry{49<</P(18)>>}
\@writefile{toc}{\beamer@subsectionintoc {4}{1}{Effiziente Varianten}{50}{0}{3}}
\@writefile{nav}{\headcommand {\beamer@subsectionentry {0}{4}{1}{50}{Effiziente Varianten}}\headcommand {\beamer@subsectionpages {49}{49}}}
\@writefile{nav}{\headcommand {\slideentry {4}{1}{1}{50/50}{Effiziente Varianten}{0}}}
\@writefile{nav}{\headcommand {\beamer@framepages {50}{50}}}
\@writefile{nav}{\headcommand {\slideentry {4}{1}{2}{51/51}{Effiziente Varianten}{0}}}
\@writefile{nav}{\headcommand {\beamer@framepages {51}{51}}}
\@writefile{nav}{\headcommand {\slideentry {4}{1}{3}{52/52}{Effiziente Varianten}{0}}}
\@writefile{nav}{\headcommand {\beamer@framepages {52}{52}}}
\@writefile{nav}{\headcommand {\slideentry {4}{1}{4}{53/53}{Effiziente Varianten}{0}}}
\@writefile{nav}{\headcommand {\beamer@framepages {53}{53}}}
\@writefile{nav}{\headcommand {\slideentry {4}{1}{5}{54/54}{Effiziente Varianten}{0}}}
\@writefile{nav}{\headcommand {\beamer@framepages {54}{54}}}
\@writefile{nav}{\headcommand {\slideentry {4}{1}{6}{55/55}{Effiziente Varianten}{0}}}
\@writefile{nav}{\headcommand {\beamer@framepages {55}{55}}}
\HyPL@Entry{55<</P(19)>>}
\@writefile{toc}{\beamer@subsectionintoc {4}{2}{Zeiten}{56}{0}{3}}
\@writefile{nav}{\headcommand {\beamer@subsectionentry {0}{4}{2}{56}{Zeiten}}\headcommand {\beamer@subsectionpages {50}{55}}}
\@writefile{nav}{\headcommand {\slideentry {4}{2}{1}{56/57}{Zeiten}{0}}}
\@writefile{nav}{\headcommand {\beamer@framepages {56}{57}}}
\HyPL@Entry{57<</P(20)>>}
\@writefile{toc}{\beamer@subsectionintoc {4}{3}{Ausblick}{58}{0}{3}}
\@writefile{nav}{\headcommand {\beamer@subsectionentry {0}{4}{3}{58}{Ausblick}}\headcommand {\beamer@subsectionpages {56}{57}}}
\@writefile{nav}{\headcommand {\slideentry {4}{3}{1}{58/58}{Ausblick}{0}}}
\@writefile{nav}{\headcommand {\beamer@framepages {58}{58}}}
\bibcite{arshashemi}{\hyperlink {beamerbibarshashemi}{AH09}}
\bibcite{ap}{\hyperlink {beamerbibap}{AP11}}
\bibcite{f5cc}{\hyperlink {beamerbibf5cc}{E12a}}
\bibcite{f5h}{\hyperlink {beamerbibf5h}{E12b}}
\bibcite{f5r}{\hyperlink {beamerbibf5r}{EGP11}}
\bibcite{f5c}{\hyperlink {beamerbibf5c}{EP10}}
\bibcite{f5e}{\hyperlink {beamerbibf5e}{EP11}}
\bibcite{f5}{\hyperlink {beamerbibf5}{Fa02}}
\bibcite{ggv}{\hyperlink {beamerbibggv}{GGV10}}
\bibcite{gvw}{\hyperlink {beamerbibgvw}{GVW11}}
\bibcite{hs}{\hyperlink {beamerbibhs}{HS12}}
\bibcite{singular}{\hyperlink {beamerbibsingular}{SIN11}}
\bibcite{sunwang1}{\hyperlink {beamerbibsunwang1}{SW10}}
\bibcite{sunwang2}{\hyperlink {beamerbibsunwang2}{SW11}}
\HyPL@Entry{58<</P(21)>>}
\@writefile{nav}{\headcommand {\slideentry {4}{3}{2}{59/59}{Ausblick}{0}}}
\@writefile{nav}{\headcommand {\beamer@framepages {59}{59}}}
\@writefile{nav}{\headcommand {\beamer@partpages {1}{59}}}
\@writefile{nav}{\headcommand {\beamer@subsectionpages {58}{59}}}
\@writefile{nav}{\headcommand {\beamer@sectionpages {49}{59}}}
\@writefile{nav}{\headcommand {\beamer@documentpages {59}}}
\@writefile{nav}{\headcommand {\def \inserttotalframenumber {21}}}
