    |\^/|     Maple 2016 (X86 64 LINUX)
._|\|   |/|_. Copyright (c) Maplesoft, a division of Waterloo Maple Inc. 2016
 \  MAPLE  /  All rights reserved. Maple is a trademark of
 <____ ____>  Waterloo Maple Inc.
      |       Type ? for help.
# cyclic-8-affine
> vcyc8a:=[x1,x2,x3,x4,x5,x6,x7,x8]:
> cyc8a:=[
> x1+x2+x3+x4+x5+x6+x7+x8,
> x1*x2+x2*x3+x3*x4+x4*x5+x5*x6+x6*x7+x1*x8+x7*x8,
> x1*x2*x3+x2*x3*x4+x3*x4*x5+x4*x5*x6+x5*x6*x7+x1*x2*x8+x1*x7*x8+x6*x7*x8,
> x1*x2*x3*x4+x2*x3*x4*x5+x3*x4*x5*x6+x4*x5*x6*x7+x1*x2*x3*x8+x1*x2*x7*x8+x1*x6*x7*x8+x5*x6*x7*x8,
> x1*x2*x3*x4*x5+x2*x3*x4*x5*x6+x3*x4*x5*x6*x7+x1*x2*x3*x4*x8+x1*x2*x3*x7*x8+x1*x2*x6*x7*x8+x1*x5*x6*x7*x8+x4*x5*x6*x7*x8,
> x1*x2*x3*x4*x5*x6+x2*x3*x4*x5*x6*x7+x1*x2*x3*x4*x5*x8+x1*x2*x3*x4*x7*x8+x1*x2*x3*x6*x7*x8+x1*x2*x5*x6*x7*x8+x1*x4*x5*x6*x7*x8+x3*x4*x5*x6*x7*x8,
> x1*x2*x3*x4*x5*x6*x7+x1*x2*x3*x4*x5*x6*x8+x1*x2*x3*x4*x5*x7*x8+x1*x2*x3*x4*x6*x7*x8+x1*x2*x3*x5*x6*x7*x8+x1*x2*x4*x5*x6*x7*x8+x1*x3*x4*x5*x6*x7*x8+x2*x3*x4*x5*x6*x7*x8,
> x1*x2*x3*x4*x5*x6*x7*x8-1^8]:
> 
# cyclic-8-homog
> vcyc8h:=[x1,x2,x3,x4,x5,x6,x7,x8,x9]:
> cyc8h:=[
> x1+x2+x3+x4+x5+x6+x7+x8,
> x1*x2+x2*x3+x3*x4+x4*x5+x5*x6+x6*x7+x1*x8+x7*x8,
> x1*x2*x3+x2*x3*x4+x3*x4*x5+x4*x5*x6+x5*x6*x7+x1*x2*x8+x1*x7*x8+x6*x7*x8,
> x1*x2*x3*x4+x2*x3*x4*x5+x3*x4*x5*x6+x4*x5*x6*x7+x1*x2*x3*x8+x1*x2*x7*x8+x1*x6*x7*x8+x5*x6*x7*x8,
> x1*x2*x3*x4*x5+x2*x3*x4*x5*x6+x3*x4*x5*x6*x7+x1*x2*x3*x4*x8+x1*x2*x3*x7*x8+x1*x2*x6*x7*x8+x1*x5*x6*x7*x8+x4*x5*x6*x7*x8,
> x1*x2*x3*x4*x5*x6+x2*x3*x4*x5*x6*x7+x1*x2*x3*x4*x5*x8+x1*x2*x3*x4*x7*x8+x1*x2*x3*x6*x7*x8+x1*x2*x5*x6*x7*x8+x1*x4*x5*x6*x7*x8+x3*x4*x5*x6*x7*x8,
> x1*x2*x3*x4*x5*x6*x7+x1*x2*x3*x4*x5*x6*x8+x1*x2*x3*x4*x5*x7*x8+x1*x2*x3*x4*x6*x7*x8+x1*x2*x3*x5*x6*x7*x8+x1*x2*x4*x5*x6*x7*x8+x1*x3*x4*x5*x6*x7*x8+x2*x3*x4*x5*x6*x7*x8,
> x1*x2*x3*x4*x5*x6*x7*x8-x9^8]:
> 
# cyclic-9-affine
> vcyc9a:=[x1,x2,x3,x4,x5,x6,x7,x8,x9]:
> cyc9a:=[
> x1+x2+x3+x4+x5+x6+x7+x8+x9,
> x1*x2+x2*x3+x3*x4+x4*x5+x5*x6+x6*x7+x7*x8+x1*x9+x8*x9,
> x1*x2*x3+x2*x3*x4+x3*x4*x5+x4*x5*x6+x5*x6*x7+x6*x7*x8+x1*x2*x9+x1*x8*x9+x7*x8*x9,
> x1*x2*x3*x4+x2*x3*x4*x5+x3*x4*x5*x6+x4*x5*x6*x7+x5*x6*x7*x8+x1*x2*x3*x9+x1*x2*x8*x9+x1*x7*x8*x9+x6*x7*x8*x9,
> x1*x2*x3*x4*x5+x2*x3*x4*x5*x6+x3*x4*x5*x6*x7+x4*x5*x6*x7*x8+x1*x2*x3*x4*x9+x1*x2*x3*x8*x9+x1*x2*x7*x8*x9+x1*x6*x7*x8*x9+x5*x6*x7*x8*x9,
> x1*x2*x3*x4*x5*x6+x2*x3*x4*x5*x6*x7+x3*x4*x5*x6*x7*x8+x1*x2*x3*x4*x5*x9+x1*x2*x3*x4*x8*x9+x1*x2*x3*x7*x8*x9+x1*x2*x6*x7*x8*x9+x1*x5*x6*x7*x8*x9+x4*x5*x6*x7*x8*x9,
> x1*x2*x3*x4*x5*x6*x7+x2*x3*x4*x5*x6*x7*x8+x1*x2*x3*x4*x5*x6*x9+x1*x2*x3*x4*x5*x8*x9+x1*x2*x3*x4*x7*x8*x9+x1*x2*x3*x6*x7*x8*x9+x1*x2*x5*x6*x7*x8*x9+x1*x4*x5*x6*x7*x8*x9+x3*x4*x5*x6*x7*x8*x9,
> x1*x2*x3*x4*x5*x6*x7*x8+x1*x2*x3*x4*x5*x6*x7*x9+x1*x2*x3*x4*x5*x6*x8*x9+x1*x2*x3*x4*x5*x7*x8*x9+x1*x2*x3*x4*x6*x7*x8*x9+x1*x2*x3*x5*x6*x7*x8*x9+x1*x2*x4*x5*x6*x7*x8*x9+x1*x3*x4*x5*x6*x7*x8*x9+x2*x3*x4*x5*x6*x7*x8*x9,
> x1*x2*x3*x4*x5*x6*x7*x8*x9-1
> ]:
> 
# cyclic-10-affine
> vcyc10a:=[x1,x2,x3,x4,x5,x6,x7,x8,x9,x10]:
> cyc10a:=[
> x1+x2+x3+x4+x5+x6+x7+x8+x9+x10,
> x1*x2+x2*x3+x3*x4+x4*x5+x5*x6+x6*x7+x7*x8+x8*x9+x1*x10+x9*x10,
> x1*x2*x3+x2*x3*x4+x3*x4*x5+x4*x5*x6+x5*x6*x7+x6*x7*x8+x7*x8*x9+x1*x2*x10+x1*x9*x10+x8*x9*x10,
> x1*x2*x3*x4+x2*x3*x4*x5+x3*x4*x5*x6+x4*x5*x6*x7+x5*x6*x7*x8+x6*x7*x8*x9+x1*x2*x3*x10+x1*x2*x9*x10+x1*x8*x9*x10+x7*x8*x9*x10,
> x1*x2*x3*x4*x5+x2*x3*x4*x5*x6+x3*x4*x5*x6*x7+x4*x5*x6*x7*x8+x5*x6*x7*x8*x9+x1*x2*x3*x4*x10+x1*x2*x3*x9*x10+x1*x2*x8*x9*x10+x1*x7*x8*x9*x10+x6*x7*x8*x9*x10,
> x1*x2*x3*x4*x5*x6+x2*x3*x4*x5*x6*x7+x3*x4*x5*x6*x7*x8+x4*x5*x6*x7*x8*x9+x1*x2*x3*x4*x5*x10+x1*x2*x3*x4*x9*x10+x1*x2*x3*x8*x9*x10+x1*x2*x7*x8*x9*x10+x1*x6*x7*x8*x9*x10+x5*x6*x7*x8*x9*x10,
> x1*x2*x3*x4*x5*x6*x7+x2*x3*x4*x5*x6*x7*x8+x3*x4*x5*x6*x7*x8*x9+x1*x2*x3*x4*x5*x6*x10+x1*x2*x3*x4*x5*x9*x10+x1*x2*x3*x4*x8*x9*x10+x1*x2*x3*x7*x8*x9*x10+x1*x2*x6*x7*x8*x9*x10+x1*x5*x6*x7*x8*x9*x10+x4*x5*x6*x7*x8*x9*x10,
> x1*x2*x3*x4*x5*x6*x7*x8+x2*x3*x4*x5*x6*x7*x8*x9+x1*x2*x3*x4*x5*x6*x7*x10+x1*x2*x3*x4*x5*x6*x9*x10+x1*x2*x3*x4*x5*x8*x9*x10+x1*x2*x3*x4*x7*x8*x9*x10+x1*x2*x3*x6*x7*x8*x9*x10+x1*x2*x5*x6*x7*x8*x9*x10+x1*x4*x5*x6*x7*x8*x9*x10+x3*x4*x5*x6*x7*x8*x9*x10,
> x1*x2*x3*x4*x5*x6*x7*x8*x9+x1*x2*x3*x4*x5*x6*x7*x8*x10+x1*x2*x3*x4*x5*x6*x7*x9*x10+x1*x2*x3*x4*x5*x6*x8*x9*x10+x1*x2*x3*x4*x5*x7*x8*x9*x10+x1*x2*x3*x4*x6*x7*x8*x9*x10+x1*x2*x3*x5*x6*x7*x8*x9*x10+x1*x2*x4*x5*x6*x7*x8*x9*x10+x1*x3*x4*x5*x6*x7*x8*x9*x10+x2*x3*x4*x5*x6*x7*x8*x9*x10,
> x1*x2*x3*x4*x5*x6*x7*x8*x9*x10-1
> ]:
> 
# katsura-12-affine
> vkat12a:=[x1,x2,x3,x4,x5,x6,x7,x8,x9,x10,x11,x12]:
> kat12a:=[
> x1+2*x2+2*x3+2*x4+2*x5+2*x6+2*x7+2*x8+2*x9+2*x10+2*x11+2*x12-1,
> x1^2+2*x2^2+2*x3^2+2*x4^2+2*x5^2+2*x6^2+2*x7^2+2*x8^2+2*x9^2+2*x10^2+2*x11^2+2*x12^2-x1,
> 2*x1*x2+2*x2*x3+2*x3*x4+2*x4*x5+2*x5*x6+2*x6*x7+2*x7*x8+2*x8*x9+2*x9*x10+2*x10*x11+2*x11*x12-x2,
> x2^2+2*x1*x3+2*x2*x4+2*x3*x5+2*x4*x6+2*x5*x7+2*x6*x8+2*x7*x9+2*x8*x10+2*x9*x11+2*x10*x12-x3,
> 2*x2*x3+2*x1*x4+2*x2*x5+2*x3*x6+2*x4*x7+2*x5*x8+2*x6*x9+2*x7*x10+2*x8*x11+2*x9*x12-x4,
> x3^2+2*x2*x4+2*x1*x5+2*x2*x6+2*x3*x7+2*x4*x8+2*x5*x9+2*x6*x10+2*x7*x11+2*x8*x12-x5,
> 2*x3*x4+2*x2*x5+2*x1*x6+2*x2*x7+2*x3*x8+2*x4*x9+2*x5*x10+2*x6*x11+2*x7*x12-x6,
> x4^2+2*x3*x5+2*x2*x6+2*x1*x7+2*x2*x8+2*x3*x9+2*x4*x10+2*x5*x11+2*x6*x12-x7,
> 2*x4*x5+2*x3*x6+2*x2*x7+2*x1*x8+2*x2*x9+2*x3*x10+2*x4*x11+2*x5*x12-x8,
> x5^2+2*x4*x6+2*x3*x7+2*x2*x8+2*x1*x9+2*x2*x10+2*x3*x11+2*x4*x12-x9,
> 2*x5*x6+2*x4*x7+2*x3*x8+2*x2*x9+2*x1*x10+2*x2*x11+2*x3*x12-x10,
> x6^2+2*x5*x7+2*x4*x8+2*x3*x9+2*x2*x10+2*x1*x11+2*x2*x12-x11
> ]:
> 
# katsura-13-affine
> vkat13a:=[x1,x2,x3,x4,x5,x6,x7,x8,x9,x10,x11,x12,x13]:
> kat13a:=[
> x1+2*x2+2*x3+2*x4+2*x5+2*x6+2*x7+2*x8+2*x9+2*x10+2*x11+2*x12+2*x13-1,
> x1^2+2*x2^2+2*x3^2+2*x4^2+2*x5^2+2*x6^2+2*x7^2+2*x8^2+2*x9^2+2*x10^2+2*x11^2+2*x12^2+2*x13^2-x1,
> 2*x1*x2+2*x2*x3+2*x3*x4+2*x4*x5+2*x5*x6+2*x6*x7+2*x7*x8+2*x8*x9+2*x9*x10+2*x10*x11+2*x11*x12+2*x12*x13-x2,
> x2^2+2*x1*x3+2*x2*x4+2*x3*x5+2*x4*x6+2*x5*x7+2*x6*x8+2*x7*x9+2*x8*x10+2*x9*x11+2*x10*x12+2*x11*x13-x3,
> 2*x2*x3+2*x1*x4+2*x2*x5+2*x3*x6+2*x4*x7+2*x5*x8+2*x6*x9+2*x7*x10+2*x8*x11+2*x9*x12+2*x10*x13-x4,
> x3^2+2*x2*x4+2*x1*x5+2*x2*x6+2*x3*x7+2*x4*x8+2*x5*x9+2*x6*x10+2*x7*x11+2*x8*x12+2*x9*x13-x5,
> 2*x3*x4+2*x2*x5+2*x1*x6+2*x2*x7+2*x3*x8+2*x4*x9+2*x5*x10+2*x6*x11+2*x7*x12+2*x8*x13-x6,
> x4^2+2*x3*x5+2*x2*x6+2*x1*x7+2*x2*x8+2*x3*x9+2*x4*x10+2*x5*x11+2*x6*x12+2*x7*x13-x7,
> 2*x4*x5+2*x3*x6+2*x2*x7+2*x1*x8+2*x2*x9+2*x3*x10+2*x4*x11+2*x5*x12+2*x6*x13-x8,
> x5^2+2*x4*x6+2*x3*x7+2*x2*x8+2*x1*x9+2*x2*x10+2*x3*x11+2*x4*x12+2*x5*x13-x9,
> 2*x5*x6+2*x4*x7+2*x3*x8+2*x2*x9+2*x1*x10+2*x2*x11+2*x3*x12+2*x4*x13-x10,
> x6^2+2*x5*x7+2*x4*x8+2*x3*x9+2*x2*x10+2*x1*x11+2*x2*x12+2*x3*x13-x11,
> 2*x6*x7+2*x5*x8+2*x4*x9+2*x3*x10+2*x2*x11+2*x1*x12+2*x2*x13-x12
> ]:
> 
# katsura-14-affine
> vkat14a:=[x1,x2,x3,x4,x5,x6,x7,x8,x9,x10,x11,x12,x13,x14]:
> kat14a:=[
> x1+2*x2+2*x3+2*x4+2*x5+2*x6+2*x7+2*x8+2*x9+2*x10+2*x11+2*x12+2*x13+2*x14-1,
> x1^2+2*x2^2+2*x3^2+2*x4^2+2*x5^2+2*x6^2+2*x7^2+2*x8^2+2*x9^2+2*x10^2+2*x11^2+2*x12^2+2*x13^2+2*x14^2-x1,
> 2*x1*x2+2*x2*x3+2*x3*x4+2*x4*x5+2*x5*x6+2*x6*x7+2*x7*x8+2*x8*x9+2*x9*x10+2*x10*x11+2*x11*x12+2*x12*x13+2*x13*x14-x2,
> x2^2+2*x1*x3+2*x2*x4+2*x3*x5+2*x4*x6+2*x5*x7+2*x6*x8+2*x7*x9+2*x8*x10+2*x9*x11+2*x10*x12+2*x11*x13+2*x12*x14-x3,
> 2*x2*x3+2*x1*x4+2*x2*x5+2*x3*x6+2*x4*x7+2*x5*x8+2*x6*x9+2*x7*x10+2*x8*x11+2*x9*x12+2*x10*x13+2*x11*x14-x4,
> x3^2+2*x2*x4+2*x1*x5+2*x2*x6+2*x3*x7+2*x4*x8+2*x5*x9+2*x6*x10+2*x7*x11+2*x8*x12+2*x9*x13+2*x10*x14-x5,
> 2*x3*x4+2*x2*x5+2*x1*x6+2*x2*x7+2*x3*x8+2*x4*x9+2*x5*x10+2*x6*x11+2*x7*x12+2*x8*x13+2*x9*x14-x6,
> x4^2+2*x3*x5+2*x2*x6+2*x1*x7+2*x2*x8+2*x3*x9+2*x4*x10+2*x5*x11+2*x6*x12+2*x7*x13+2*x8*x14-x7,
> 2*x4*x5+2*x3*x6+2*x2*x7+2*x1*x8+2*x2*x9+2*x3*x10+2*x4*x11+2*x5*x12+2*x6*x13+2*x7*x14-x8,
> x5^2+2*x4*x6+2*x3*x7+2*x2*x8+2*x1*x9+2*x2*x10+2*x3*x11+2*x4*x12+2*x5*x13+2*x6*x14-x9,
> 2*x5*x6+2*x4*x7+2*x3*x8+2*x2*x9+2*x1*x10+2*x2*x11+2*x3*x12+2*x4*x13+2*x5*x14-x10,
> x6^2+2*x5*x7+2*x4*x8+2*x3*x9+2*x2*x10+2*x1*x11+2*x2*x12+2*x3*x13+2*x4*x14-x11,
> 2*x6*x7+2*x5*x8+2*x4*x9+2*x3*x10+2*x2*x11+2*x1*x12+2*x2*x13+2*x3*x14-x12,
> x7^2+2*x6*x8+2*x5*x9+2*x4*x10+2*x3*x11+2*x2*x12+2*x1*x13+2*x2*x14-x13
> ]:
> 
#katsura-16-affine
> vkat16a:=[x1,x2,x3,x4,x5,x6,x7,x8,x9,x10,x11,x12,x13,x14,x15,x16]:
> kat16a:=[
> x1+2*x2+2*x3+2*x4+2*x5+2*x6+2*x7+2*x8+2*x9+2*x10+2*x11+2*x12+2*x13+2*x14+2*x15+2*x16-1,
> x1^2+2*x2^2+2*x3^2+2*x4^2+2*x5^2+2*x6^2+2*x7^2+2*x8^2+2*x9^2+2*x10^2+2*x11^2+2*x12^2+2*x13^2+2*x14^2+2*x15^2+2*x16^2-x1,
> 2*x1*x2+2*x2*x3+2*x3*x4+2*x4*x5+2*x5*x6+2*x6*x7+2*x7*x8+2*x8*x9+2*x9*x10+2*x10*x11+2*x11*x12+2*x12*x13+2*x13*x14+2*x14*x15+2*x15*x16-x2,
> x2^2+2*x1*x3+2*x2*x4+2*x3*x5+2*x4*x6+2*x5*x7+2*x6*x8+2*x7*x9+2*x8*x10+2*x9*x11+2*x10*x12+2*x11*x13+2*x12*x14+2*x13*x15+2*x14*x16-x3,
> 2*x2*x3+2*x1*x4+2*x2*x5+2*x3*x6+2*x4*x7+2*x5*x8+2*x6*x9+2*x7*x10+2*x8*x11+2*x9*x12+2*x10*x13+2*x11*x14+2*x12*x15+2*x13*x16-x4,
> x3^2+2*x2*x4+2*x1*x5+2*x2*x6+2*x3*x7+2*x4*x8+2*x5*x9+2*x6*x10+2*x7*x11+2*x8*x12+2*x9*x13+2*x10*x14+2*x11*x15+2*x12*x16-x5,
> 2*x3*x4+2*x2*x5+2*x1*x6+2*x2*x7+2*x3*x8+2*x4*x9+2*x5*x10+2*x6*x11+2*x7*x12+2*x8*x13+2*x9*x14+2*x10*x15+2*x11*x16-x6,
> x4^2+2*x3*x5+2*x2*x6+2*x1*x7+2*x2*x8+2*x3*x9+2*x4*x10+2*x5*x11+2*x6*x12+2*x7*x13+2*x8*x14+2*x9*x15+2*x10*x16-x7,
> 2*x4*x5+2*x3*x6+2*x2*x7+2*x1*x8+2*x2*x9+2*x3*x10+2*x4*x11+2*x5*x12+2*x6*x13+2*x7*x14+2*x8*x15+2*x9*x16-x8,
> x5^2+2*x4*x6+2*x3*x7+2*x2*x8+2*x1*x9+2*x2*x10+2*x3*x11+2*x4*x12+2*x5*x13+2*x6*x14+2*x7*x15+2*x8*x16-x9,
> 2*x5*x6+2*x4*x7+2*x3*x8+2*x2*x9+2*x1*x10+2*x2*x11+2*x3*x12+2*x4*x13+2*x5*x14+2*x6*x15+2*x7*x16-x10,
> x6^2+2*x5*x7+2*x4*x8+2*x3*x9+2*x2*x10+2*x1*x11+2*x2*x12+2*x3*x13+2*x4*x14+2*x5*x15+2*x6*x16-x11,
> 2*x6*x7+2*x5*x8+2*x4*x9+2*x3*x10+2*x2*x11+2*x1*x12+2*x2*x13+2*x3*x14+2*x4*x15+2*x5*x16-x12,
> x7^2+2*x6*x8+2*x5*x9+2*x4*x10+2*x3*x11+2*x2*x12+2*x1*x13+2*x2*x14+2*x3*x15+2*x4*x16-x13,
> 2*x7*x8+2*x6*x9+2*x5*x10+2*x4*x11+2*x3*x12+2*x2*x13+2*x1*x14+2*x2*x15+2*x3*x16-x14,
> x8^2+2*x7*x9+2*x6*x10+2*x5*x11+2*x4*x12+2*x3*x13+2*x2*x14+2*x1*x15+2*x2*x16-x15
> ]:
> 
# alea6
# large coefficients, easy images
> var := [x0,x1,x2,x3,x4,x5]:
> sys := [5*x0^2*x3+37*x1*x3*x4+32*x1*x3*x5+21*x3*x5+55*x4*x5,
> 39*x0*x1*x5+23*x1^2*x4+57*x1*x2*x4+56*x1*x4^2+10*x2^2+52*x3*x4*x5,
> 33*x0^2*x3+51*x0^2+42*x0*x3*x5+51*x1^2*x4+32*x1*x3^2+x5^3,
> 44*x0*x3^2+42*x1*x3+47*x1*x4^2+12*x2*x3+2*x2*x4*x5+43*x3*x4^2,
> 49*x0^2*x2+11*x0*x1*x2+39*x0*x3*x4+44*x0*x3*x4+54*x0*x3+45*x1^2*x4,
> 48*x0*x2*x3+2*x2^2*x3+59*x2^2*x5+17*x2+36*x3^3+45*x4]:
> 
# bayes148
# sparse with many monomial divisions
> vbayes148 := [x1, x2, x3, x4, x5, x6, x7, x8, x9, x10, x11, x12, x13, x14, x15, x16, x17, x18, x19, x20, x21, x22, x23, x24, x25, x26, x27, x28, x29, x30, x31, x32]:
> bayes148 := [-x23*x32+x24*x31, -x22*x32+x24*x30, -x22*x31+x23*x30, -x21*x32+x24*x29, -x21*x31+x23*x29, -x21*x30+x22*x29, -x12*x32+x16*x28,  -x19*x28+x20*x27,
> -x11*x31+x15*x27, -x18*x28+x20*x26, -x18*x27+x19*x26, -x10*x30+x14*x26, -x17*x28+x20*x25, -x17*x27+x19*x25, -x17*x26+x18*x25, -x9*x29+x13*x25, x20*x8-x24*x4,
> -x17*x20-x17*x24-2*x17*x28-x17*x32+x18*x19+x18*x23+2*x18*x27+x18*x31+x19*x22+x19*x30-x20*x21-x20*x29-x21*x24-x21*x28-2*x21*x32+x22*x23+x22*x27+2*x22*x31+x23*x26-x24*x25-x25*x28-x25*x32+x26*x27+x26*x31+x27*x30-x28*x29-x29*x32+x30*x31,
> x19*x7-x23*x3, x18*x6-x2*x22, -x1*x21+x17*x5]:
> 
#alea6
# large coefficients, easy images
> vaalea6 := [x0,x1,x2,x3,x4,x5]:
> alea6 := [5*x0^2*x3+37*x1*x3*x4+32*x1*x3*x5+21*x3*x5+55*x4*x5,
> 39*x0*x1*x5+23*x1^2*x4+57*x1*x2*x4+56*x1*x4^2+10*x2^2+52*x3*x4*x5,
> 33*x0^2*x3+51*x0^2+42*x0*x3*x5+51*x1^2*x4+32*x1*x3^2+x5^3,
> 44*x0*x3^2+42*x1*x3+47*x1*x4^2+12*x2*x3+2*x2*x4*x5+43*x3*x4^2,
> 49*x0^2*x2+11*x0*x1*x2+39*x0*x3*x4+44*x0*x3*x4+54*x0*x3+45*x1^2*x4,
> 48*x0*x2*x3+2*x2^2*x3+59*x2^2*x5+17*x2+36*x3^3+45*x4]:
> 
> 
# gametwo7
# dense linear algebra
> vgametwo7 := [p1,p2,p3,p4,p5,p6,p7]:
> gametwo7 := [
> 3821*p2*p3*p4*p5*p6*p7-7730*p2*p3*p4*p5*p6-164*p2*p3*p4*p5*p7-2536*p2*p3*p4*p6*p7-4321*p2*p3*p5*p6*p7-2161*p2*p4*p5*p6*p7-2188*p3*p4*p5*p6*p7-486*p2*p3*p4*p5+3491*p2*p3*p4*p6+4247*p2*p3*p5*p6+3528*p2*p4*p5*p6+2616*p3*p4*p5*p6-101*p2*p3*p4*p7+1765*p2*p3*p5*p7+258*p2*p4*p5*p7-378*p3*p4*p5*p7+1246*p2*p3*p6*p7+2320*p2*p4*p6*p7+1776*p3*p4*p6*p7+1715*p2*p5*p6*p7+728*p3*p5*p6*p7+842*p4*p5*p6*p7+69*p2*p3*p4-1660*p2*p3*p5+1863*p2*p4*p5+1520*p3*p4*p5-245*p2*p3*p6-804*p2*p4*p6-2552*p3*p4*p6-3152*p2*p5*p6+40*p3*p5*p6-1213*p4*p5*p6+270*p2*p3*p7-851*p2*p4*p7+327*p3*p4*p7-1151*p2*p5*p7+1035*p3*p5*p7-161*p4*p5*p7-230*p2*p6*p7-294*p3*p6*p7-973*p4*p6*p7-264*p5*p6*p7+874*p2*p3-2212*p2*p4+168*p3*p4+511*p2*p5-918*p3*p5-2017*p4*p5-76*p2*p6+465*p3*p6+1629*p4*p6+856*p5*p6-54*p2*p7-1355*p3*p7+227*p4*p7+77*p5*p7-220*p6*p7-696*p2+458*p3+486*p4+661*p5-650*p6+671*p7-439,
> -6157*p1*p3*p4*p5*p6*p7+13318*p1*p3*p4*p5*p6+5928*p1*p3*p4*p5*p7+1904*p1*p3*p4*p6*p7+2109*p1*p3*p5*p6*p7+8475*p1*p4*p5*p6*p7+2878*p3*p4*p5*p6*p7-8339*p1*p3*p4*p5-2800*p1*p3*p4*p6-9649*p1*p3*p5*p6-10964*p1*p4*p5*p6-4481*p3*p4*p5*p6+251*p1*p3*p4*p7-4245*p1*p3*p5*p7-7707*p1*p4*p5*p7-2448*p3*p4*p5*p7+1057*p1*p3*p6*p7-3605*p1*p4*p6*p7+546*p3*p4*p6*p7-3633*p1*p5*p6*p7-699*p3*p5*p6*p7-4126*p4*p5*p6*p7-730*p1*p3*p4+5519*p1*p3*p5+8168*p1*p4*p5+4366*p3*p4*p5+2847*p1*p3*p6+2058*p1*p4*p6-1416*p3*p4*p6+8004*p1*p5*p6+4740*p3*p5*p6+5361*p4*p5*p6-677*p1*p3*p7+1755*p1*p4*p7-760*p3*p4*p7+3384*p1*p5*p7+2038*p3*p5*p7+4119*p4*p5*p7+812*p1*p6*p7+11*p3*p6*p7+2022*p4*p6*p7+2642*p5*p6*p7+1276*p1*p3-1723*p1*p4+121*p3*p4-6456*p1*p5-3710*p3*p5-4525*p4*p5-2187*p1*p6-1559*p3*p6-848*p4*p6-4041*p5*p6-83*p1*p7-12*p3*p7-1180*p4*p7-2747*p5*p7-1970*p6*p7+2575*p1-161*p3+2149*p4+4294*p5+1687*p6+958*p7-1950,
> 182*p1*p2*p4*p5*p6*p7-2824*p1*p2*p4*p5*p6-3513*p1*p2*p4*p5*p7-3386*p1*p2*p4*p6*p7-2330*p1*p2*p5*p6*p7-2838*p1*p4*p5*p6*p7+1294*p2*p4*p5*p6*p7+4764*p1*p2*p4*p5+1647*p1*p2*p4*p6+4221*p1*p2*p5*p6+814*p1*p4*p5*p6+2738*p2*p4*p5*p6+4057*p1*p2*p4*p7+2403*p1*p2*p5*p7+2552*p1*p4*p5*p7+471*p2*p4*p5*p7+448*p1*p2*p6*p7+2336*p1*p4*p6*p7+1617*p2*p4*p6*p7+2220*p1*p5*p6*p7-1543*p2*p5*p6*p7+402*p4*p5*p6*p7-5184*p1*p2*p4-3983*p1*p2*p5+44*p1*p4*p5-1327*p2*p4*p5-581*p1*p2*p6-389*p1*p4*p6-2722*p2*p4*p6+443*p1*p5*p6-2893*p2*p5*p6-154*p4*p5*p6-1277*p1*p2*p7-2018*p1*p4*p7-509*p2*p4*p7-1254*p1*p5*p7+602*p2*p5*p7-464*p4*p5*p7-647*p1*p6*p7+922*p2*p6*p7-1463*p4*p6*p7+729*p5*p6*p7+2665*p1*p2+591*p1*p4+981*p2*p4-444*p1*p5+1818*p2*p5-1985*p4*p5-1818*p1*p6+197*p2*p6+1038*p4*p6+340*p5*p6+399*p1*p7-835*p2*p7+787*p4*p7-753*p5*p7-221*p6*p7+481*p1+260*p2+1713*p4+1219*p5+794*p6+762*p7-1231,
> 2923*p1*p2*p3*p5*p6*p7-4328*p1*p2*p3*p5*p6-3674*p1*p2*p3*p5*p7-3291*p1*p2*p3*p6*p7-4955*p1*p2*p5*p6*p7-8*p1*p3*p5*p6*p7-135*p2*p3*p5*p6*p7+7784*p1*p2*p3*p5+3471*p1*p2*p3*p6+1544*p1*p2*p5*p6+1607*p1*p3*p5*p6+1710*p2*p3*p5*p6+2434*p1*p2*p3*p7+1408*p1*p2*p5*p7-215*p1*p3*p5*p7+507*p2*p3*p5*p7+2208*p1*p2*p6*p7+1920*p1*p3*p6*p7-389*p2*p3*p6*p7+1304*p1*p5*p6*p7+2480*p2*p5*p6*p7+102*p3*p5*p6*p7-2683*p1*p2*p3-3508*p1*p2*p5-3505*p1*p3*p5-2400*p2*p3*p5-2236*p1*p2*p6-1727*p1*p3*p6-1354*p2*p3*p6-1022*p1*p5*p6-2099*p2*p5*p6-918*p3*p5*p6-495*p1*p2*p7-109*p1*p3*p7+474*p2*p3*p7+268*p1*p5*p7+1084*p2*p5*p7-190*p3*p5*p7-666*p1*p6*p7-497*p2*p6*p7+615*p3*p6*p7-912*p5*p6*p7+473*p1*p2+742*p1*p3+186*p2*p3+1021*p1*p5+2556*p2*p5+2312*p3*p5+1075*p1*p6+920*p2*p6+164*p3*p6+80*p5*p6-199*p1*p7-1270*p2*p7-1050*p3*p7-724*p5*p7+136*p6*p7+740*p1-474*p2+37*p3-1056*p5+303*p6+833*p7+736,
> 4990*p1*p2*p3*p4*p6*p7-3067*p1*p2*p3*p4*p6-1661*p1*p2*p3*p4*p7-4064*p1*p2*p3*p6*p7-223*p1*p2*p4*p6*p7-5229*p1*p3*p4*p6*p7-4636*p2*p3*p4*p6*p7+5720*p1*p2*p3*p4+4872*p1*p2*p3*p6+1643*p1*p2*p4*p6+4536*p1*p3*p4*p6+2451*p2*p3*p4*p6+1264*p1*p2*p3*p7+70*p1*p2*p4*p7+2213*p1*p3*p4*p7+1734*p2*p3*p4*p7+1698*p1*p2*p6*p7+3799*p1*p3*p6*p7+1622*p2*p3*p6*p7+901*p1*p4*p6*p7-496*p2*p4*p6*p7+3782*p3*p4*p6*p7-5591*p1*p2*p3-1303*p1*p2*p4-6383*p1*p3*p4-2332*p2*p3*p4-3179*p1*p2*p6-6257*p1*p3*p6-3654*p2*p3*p6-1830*p1*p4*p6-1473*p2*p4*p6-3278*p3*p4*p6-1462*p1*p2*p7-1495*p1*p3*p7-468*p2*p3*p7-400*p1*p4*p7+431*p2*p4*p7-1907*p3*p4*p7-1547*p1*p6*p7-214*p2*p6*p7-1423*p3*p6*p7-1625*p4*p6*p7+5708*p1*p2+3809*p1*p3+2053*p2*p3+2824*p1*p4+1122*p2*p4+3653*p3*p4+3658*p1*p6+3001*p2*p6+3890*p3*p6+2371*p4*p6+602*p1*p7+185*p2*p7+899*p3*p7+963*p4*p7+560*p6*p7-4557*p1-3536*p2-1635*p3-2552*p4-2595*p6-207*p7+2740,
> -1407*p1*p2*p3*p4*p5*p7+4444*p1*p2*p3*p4*p5+2350*p1*p2*p3*p4*p7+5424*p1*p2*p3*p5*p7-2524*p1*p2*p4*p5*p7-985*p1*p3*p4*p5*p7-431*p2*p3*p4*p5*p7-2662*p1*p2*p3*p4-5342*p1*p2*p3*p5-39*p1*p2*p4*p5-2525*p1*p3*p4*p5-2650*p2*p3*p4*p5-3553*p1*p2*p3*p7-71*p1*p2*p4*p7-3268*p1*p3*p4*p7-1140*p2*p3*p4*p7-702*p1*p2*p5*p7-924*p1*p3*p5*p7-2198*p2*p3*p5*p7+4087*p1*p4*p5*p7+2709*p2*p4*p5*p7+587*p3*p4*p5*p7+968*p1*p2*p3-150*p1*p2*p4+909*p1*p3*p4+4587*p2*p3*p4+929*p1*p2*p5+1804*p1*p3*p5+2226*p2*p3*p5-916*p1*p4*p5+906*p2*p4*p5+2735*p3*p4*p5+1894*p1*p2*p7+2998*p1*p3*p7+1611*p2*p3*p7+304*p1*p4*p7-1601*p2*p4*p7+2066*p3*p4*p7-1971*p1*p5*p7-480*p2*p5*p7-500*p3*p5*p7-2617*p4*p5*p7-532*p1*p2+2016*p1*p3-2574*p2*p3+529*p1*p4-1251*p2*p4-2082*p3*p4+280*p1*p5-852*p2*p5-476*p3*p5-340*p4*p5-924*p1*p7+253*p2*p7-1090*p3*p7+170*p4*p7+1204*p5*p7-869*p1+1394*p2-264*p3+719*p4+219*p5-128*p7+506,
> -901*p1*p2*p3*p4*p5*p6+1805*p1*p2*p3*p4*p5-1103*p1*p2*p3*p4*p6-1746*p1*p2*p3*p5*p6-1968*p1*p2*p4*p5*p6+3957*p1*p3*p4*p5*p6+1293*p2*p3*p4*p5*p6-523*p1*p2*p3*p4-2498*p1*p2*p3*p5+693*p1*p2*p4*p5-2805*p1*p3*p4*p5-722*p2*p3*p4*p5-770*p1*p2*p3*p6+1088*p1*p2*p4*p6-232*p1*p3*p4*p6+2657*p2*p3*p4*p6+3281*p1*p2*p5*p6-1066*p1*p3*p5*p6+240*p2*p3*p5*p6-1174*p1*p4*p5*p6+1304*p2*p4*p5*p6-2070*p3*p4*p5*p6+2571*p1*p2*p3+115*p1*p2*p4+3899*p1*p3*p4-4641*p2*p3*p4-752*p1*p2*p5+1531*p1*p3*p5+1178*p2*p3*p5+11*p1*p4*p5-1144*p2*p4*p5-1701*p3*p4*p5+592*p1*p2*p6+1140*p1*p3*p6+130*p2*p3*p6+304*p1*p4*p6-2273*p2*p4*p6-1224*p3*p4*p6-2*p1*p5*p6-1090*p2*p5*p6+585*p3*p5*p6+670*p4*p5*p6-1867*p1*p2-4780*p1*p3+1079*p2*p3-2435*p1*p4+2901*p2*p4+2073*p3*p4+499*p1*p5+908*p2*p5+323*p3*p5+1631*p4*p5-966*p1*p6-315*p2*p6-481*p3*p6+759*p4*p6-595*p5*p6+3233*p1-1978*p2+729*p3-1184*p4-40*p5+446*p6+282
> ]:
> 
# jason210
# sparse with many monomial divisions
> vjason210 := [x1, x2, x3, x4, x5, x6, x7, x8]:
> jason210 := [x1^2*x3^4+x1*x2*x3^2*x5^2+x1*x2*x3*x4*x5*x7+x1*x2*x3*x4*x6*x8+x1*x2*x4^2*x6^2+x2^2*x4^4, x2^6, x1^6]:
> 
# mayr42 
# sparse with many pair updates
> vmayr42 := [x1,x2,x3,x4,x5,x6,x7,x8,x9,x10,x11,x12,x13,x14,x15,x16,x17,x18,x19,x20,x21,x22,x23,x24,x25,x26,x27,x28,x29,x30,x31,x32,x33,x34,x35,x36,x37,x38,x39,x40,x41,x42,x43,x44,x45,x46,x47,x48,x49,x50,x51]:
> mayr42 := [
> -x10*x51+x4*x49, x3*x48-x51*x9, x2*x47-x51*x8, x1*x46-x51*x7,
> x4*x44-x49*x9, x3*x43-x48*x8, x2*x42-x47*x7, x1*x41-x46*x6,
> x39*x4-x49*x9, x3*x38-x48*x8, x2*x37-x47*x7, x1*x36-x46*x6, x34*x9-x49*x9, x34*x4-x5*x51,
> x33*x8-x48*x8, x3*x33-x4*x51, x32*x7-x47*x7, x2*x32-x3*x51, x31*x6-x46*x6, x1*x31-x2*x51, 
> x14*x39*x9-x29*x44*x9, x13*x38*x8-x28*x43*x8, x12*x37*x7-x27*x42*x7, x11*x36*x6-x26*x41*x6,
> x26^2*x46*x6-x51^3*x7, x11^2*x46*x6-x2*x51^3, x21^2*x41*x6-x46*x51^2*x6, x16^2*x36*x6-x46*x51^2*x6,
> x24*x30*x39*x50*x9-x29*x44*x50*x51*x9, x23*x29*x38*x49*x8-x28*x43*x49*x51*x8, x22*x28*x37*x48*x7-x27*x42*x48*x51*x7,
> x21*x27*x36*x47*x6-x26*x41*x47*x51*x6, x24*x25*x39*x45*x9-x29*x44*x45*x51*x9, x23*x24*x38*x44*x8-x28*x43*x44*x51*x8,
> x22*x23*x37*x43*x7-x27*x42*x43*x51*x7, x21*x22*x36*x42*x6-x26*x41*x42*x51*x6, x20*x24*x39*x40*x9-x29*x40*x44*x51*x9,
> x19*x23*x38*x39*x8-x28*x39*x43*x51*x8, x15*x24*x35*x39*x9-x29*x35*x44*x51*x9, x18*x22*x37*x38*x7-x27*x38*x42*x51*x7, 
> x14*x23*x34*x38*x8-x28*x34*x43*x51*x8, x17*x21*x36*x37*x6-x26*x37*x41*x51*x6, x13*x22*x33*x37*x7-x27*x33*x42*x51*x7,
> x12*x21*x32*x36*x6-x26*x32*x41*x51*x6
> ]:
> 
# noon9
# sparse all-around challenge
> vnoon9 := [x1,x2,x3,x4,x5,x6,x7,x8,x9]:
> noon9 := [
> 10*x1^2*x9+10*x2^2*x9+10*x3^2*x9+10*x4^2*x9+10*x5^2*x9+10*x6^2*x9+10*x7^2*x9+10*x8^2*x9-11*x9+10,
> 10*x1^2*x8+10*x2^2*x8+10*x3^2*x8+10*x4^2*x8+10*x5^2*x8+10*x6^2*x8+10*x7^2*x8+10*x8*x9^2-11*x8+10,
> 10*x1^2*x7+10*x2^2*x7+10*x3^2*x7+10*x4^2*x7+10*x5^2*x7+10*x6^2*x7+10*x7*x8^2+10*x7*x9^2-11*x7+10,
> 10*x1^2*x6+10*x2^2*x6+10*x3^2*x6+10*x4^2*x6+10*x5^2*x6+10*x6*x7^2+10*x6*x8^2+10*x6*x9^2-11*x6+10,
> 10*x1^2*x5+10*x2^2*x5+10*x3^2*x5+10*x4^2*x5+10*x5*x6^2+10*x5*x7^2+10*x5*x8^2+10*x5*x9^2-11*x5+10,
> 10*x1^2*x4+10*x2^2*x4+10*x3^2*x4+10*x4*x5^2+10*x4*x6^2+10*x4*x7^2+10*x4*x8^2+10*x4*x9^2-11*x4+10,
> 10*x1^2*x3+10*x2^2*x3+10*x3*x4^2+10*x3*x5^2+10*x3*x6^2+10*x3*x7^2+10*x3*x8^2+10*x3*x9^2-11*x3+10,
> 10*x1*x2^2+10*x1*x3^2+10*x1*x4^2+10*x1*x5^2+10*x1*x6^2+10*x1*x7^2+10*x1*x8^2+10*x1*x9^2-11*x1+10,
> 10*x1^2*x2+10*x2*x3^2+10*x2*x4^2+10*x2*x5^2+10*x2*x6^2+10*x2*x7^2+10*x2*x8^2+10*x2*x9^2-11*x2+10
> ]:
> 
# yang1
# sparse with many pair updates
> vyang1 := [x1, x2, x3, x4, x5, x6, x7, x8, x9, x10, x11, x12, x13, x14, x15, x16, x17, x18, x19, x20, x21, x22, x23, x24, x25, x26, x27, x28, x29, x30, x31, x32, x33, x34, x35, x36, x37, x38, x39, x40, x41, x42, x43, x44, x45, x46, x47, x48]:
> yang1 := [
> x21*x45+x22*x46+x23*x47+x24*x48, x17*x45+x18*x46+x19*x47+x20*x48, x13*x45+x14*x46+x15*x47+x16*x48, x10*x46+x11*x47+x12*x48+x45*x9, x45*x5+x46*x6+x47*x7+x48*x8, x1*x45+x2*x46+x3*x47+x4*x48, x21*x41+x22*x42+x23*x43+x24*x44,
> x17*x41+x18*x42+x19*x43+x20*x44, x13*x41+x14*x42+x15*x43+x16*x44, x10*x42+x11*x43+x12*x44+x41*x9, x41*x5+x42*x6+x43*x7+x44*x8, x1*x41+x2*x42+x3*x43+x4*x44, x21*x37+x22*x38+x23*x39+x24*x40, x17*x37+x18*x38+x19*x39+x20*x40,
> x13*x37+x14*x38+x15*x39+x16*x40, x10*x38+x11*x39+x12*x40+x37*x9, x37*x5+x38*x6+x39*x7+x40*x8, x1*x37+x2*x38+x3*x39+x4*x40, x21*x33+x22*x34+x23*x35+x24*x36, x17*x33+x18*x34+x19*x35+x20*x36, x13*x33+x14*x34+x15*x35+x16*x36,
> x10*x34+x11*x35+x12*x36+x33*x9, x33*x5+x34*x6+x35*x7+x36*x8, x1*x33+x2*x34+x3*x35+x36*x4, x21*x29+x22*x30+x23*x31+x24*x32, x17*x29+x18*x30+x19*x31+x20*x32, x13*x29+x14*x30+x15*x31+x16*x32, x10*x30+x11*x31+x12*x32+x29*x9,
> x29*x5+x30*x6+x31*x7+x32*x8, x1*x29+x2*x30+x3*x31+x32*x4, x21*x25+x22*x26+x23*x27+x24*x28, x17*x25+x18*x26+x19*x27+x20*x28, x13*x25+x14*x26+x15*x27+x16*x28, x10*x26+x11*x27+x12*x28+x25*x9, x25*x5+x26*x6+x27*x7+x28*x8, x1*x25+x2*x26+x27*x3+x28*x4,
> x33*x38*x43*x48-x33*x38*x44*x47-x33*x39*x42*x48+x33*x39*x44*x46+x33*x40*x42*x47-x33*x40*x43*x46-x34*x37*x43*x48+x34*x37*x44*x47+x34*x39*x41*x48-x34*x39*x44*x45-x34*x40*x41*x47+x34*x40*x43*x45+x35*x37*x42*x48-x35*x37*x44*x46-x35*x38*x41*x48+x35*x38*x44*x45+x35*x40*x41*x46-x35*x40*x42*x45-x36*x37*x42*x47+x36*x37*x43*x46+x36*x38*x41*x47-x36*x38*x43*x45-x36*x39*x41*x46+x36*x39*x42*x45,
> x29*x38*x43*x48-x29*x38*x44*x47-x29*x39*x42*x48+x29*x39*x44*x46+x29*x40*x42*x47-x29*x40*x43*x46-x30*x37*x43*x48+x30*x37*x44*x47+x30*x39*x41*x48-x30*x39*x44*x45-x30*x40*x41*x47+x30*x40*x43*x45+x31*x37*x42*x48-x31*x37*x44*x46-x31*x38*x41*x48+x31*x38*x44*x45+x31*x40*x41*x46-x31*x40*x42*x45-x32*x37*x42*x47+x32*x37*x43*x46+x32*x38*x41*x47-x32*x38*x43*x45-x32*x39*x41*x46+x32*x39*x42*x45,
> x25*x38*x43*x48-x25*x38*x44*x47-x25*x39*x42*x48+x25*x39*x44*x46+x25*x40*x42*x47-x25*x40*x43*x46-x26*x37*x43*x48+x26*x37*x44*x47+x26*x39*x41*x48-x26*x39*x44*x45-x26*x40*x41*x47+x26*x40*x43*x45+x27*x37*x42*x48-x27*x37*x44*x46-x27*x38*x41*x48+x27*x38*x44*x45+x27*x40*x41*x46-x27*x40*x42*x45-x28*x37*x42*x47+x28*x37*x43*x46+x28*x38*x41*x47-x28*x38*x43*x45-x28*x39*x41*x46+x28*x39*x42*x45,
> x29*x34*x43*x48-x29*x34*x44*x47-x29*x35*x42*x48+x29*x35*x44*x46+x29*x36*x42*x47-x29*x36*x43*x46-x30*x33*x43*x48+x30*x33*x44*x47+x30*x35*x41*x48-x30*x35*x44*x45-x30*x36*x41*x47+x30*x36*x43*x45+x31*x33*x42*x48-x31*x33*x44*x46-x31*x34*x41*x48+x31*x34*x44*x45+x31*x36*x41*x46-x31*x36*x42*x45-x32*x33*x42*x47+x32*x33*x43*x46+x32*x34*x41*x47-x32*x34*x43*x45-x32*x35*x41*x46+x32*x35*x42*x45,
> x25*x34*x43*x48-x25*x34*x44*x47-x25*x35*x42*x48+x25*x35*x44*x46+x25*x36*x42*x47-x25*x36*x43*x46-x26*x33*x43*x48+x26*x33*x44*x47+x26*x35*x41*x48-x26*x35*x44*x45-x26*x36*x41*x47+x26*x36*x43*x45+x27*x33*x42*x48-x27*x33*x44*x46-x27*x34*x41*x48+x27*x34*x44*x45+x27*x36*x41*x46-x27*x36*x42*x45-x28*x33*x42*x47+x28*x33*x43*x46+x28*x34*x41*x47-x28*x34*x43*x45-x28*x35*x41*x46+x28*x35*x42*x45,
> x25*x30*x43*x48-x25*x30*x44*x47-x25*x31*x42*x48+x25*x31*x44*x46+x25*x32*x42*x47-x25*x32*x43*x46-x26*x29*x43*x48+x26*x29*x44*x47+x26*x31*x41*x48-x26*x31*x44*x45-x26*x32*x41*x47+x26*x32*x43*x45+x27*x29*x42*x48-x27*x29*x44*x46-x27*x30*x41*x48+x27*x30*x44*x45+x27*x32*x41*x46-x27*x32*x42*x45-x28*x29*x42*x47+x28*x29*x43*x46+x28*x30*x41*x47-x28*x30*x43*x45-x28*x31*x41*x46+x28*x31*x42*x45,
> x29*x34*x39*x48-x29*x34*x40*x47-x29*x35*x38*x48+x29*x35*x40*x46+x29*x36*x38*x47-x29*x36*x39*x46-x30*x33*x39*x48+x30*x33*x40*x47+x30*x35*x37*x48-x30*x35*x40*x45-x30*x36*x37*x47+x30*x36*x39*x45+x31*x33*x38*x48-x31*x33*x40*x46-x31*x34*x37*x48+x31*x34*x40*x45+x31*x36*x37*x46-x31*x36*x38*x45-x32*x33*x38*x47+x32*x33*x39*x46+x32*x34*x37*x47-x32*x34*x39*x45-x32*x35*x37*x46+x32*x35*x38*x45,
> x25*x34*x39*x48-x25*x34*x40*x47-x25*x35*x38*x48+x25*x35*x40*x46+x25*x36*x38*x47-x25*x36*x39*x46-x26*x33*x39*x48+x26*x33*x40*x47+x26*x35*x37*x48-x26*x35*x40*x45-x26*x36*x37*x47+x26*x36*x39*x45+x27*x33*x38*x48-x27*x33*x40*x46-x27*x34*x37*x48+x27*x34*x40*x45+x27*x36*x37*x46-x27*x36*x38*x45-x28*x33*x38*x47+x28*x33*x39*x46+x28*x34*x37*x47-x28*x34*x39*x45-x28*x35*x37*x46+x28*x35*x38*x45,
> x25*x30*x39*x48-x25*x30*x40*x47-x25*x31*x38*x48+x25*x31*x40*x46+x25*x32*x38*x47-x25*x32*x39*x46-x26*x29*x39*x48+x26*x29*x40*x47+x26*x31*x37*x48-x26*x31*x40*x45-x26*x32*x37*x47+x26*x32*x39*x45+x27*x29*x38*x48-x27*x29*x40*x46-x27*x30*x37*x48+x27*x30*x40*x45+x27*x32*x37*x46-x27*x32*x38*x45-x28*x29*x38*x47+x28*x29*x39*x46+x28*x30*x37*x47-x28*x30*x39*x45-x28*x31*x37*x46+x28*x31*x38*x45,
> x25*x30*x35*x48-x25*x30*x36*x47-x25*x31*x34*x48+x25*x31*x36*x46+x25*x32*x34*x47-x25*x32*x35*x46-x26*x29*x35*x48+x26*x29*x36*x47+x26*x31*x33*x48-x26*x31*x36*x45-x26*x32*x33*x47+x26*x32*x35*x45+x27*x29*x34*x48-x27*x29*x36*x46-x27*x30*x33*x48+x27*x30*x36*x45+x27*x32*x33*x46-x27*x32*x34*x45-x28*x29*x34*x47+x28*x29*x35*x46+x28*x30*x33*x47-x28*x30*x35*x45-x28*x31*x33*x46+x28*x31*x34*x45,
> x29*x34*x39*x44-x29*x34*x40*x43-x29*x35*x38*x44+x29*x35*x40*x42+x29*x36*x38*x43-x29*x36*x39*x42-x30*x33*x39*x44+x30*x33*x40*x43+x30*x35*x37*x44-x30*x35*x40*x41-x30*x36*x37*x43+x30*x36*x39*x41+x31*x33*x38*x44-x31*x33*x40*x42-x31*x34*x37*x44+x31*x34*x40*x41+x31*x36*x37*x42-x31*x36*x38*x41-x32*x33*x38*x43+x32*x33*x39*x42+x32*x34*x37*x43-x32*x34*x39*x41-x32*x35*x37*x42+x32*x35*x38*x41,
> x25*x34*x39*x44-x25*x34*x40*x43-x25*x35*x38*x44+x25*x35*x40*x42+x25*x36*x38*x43-x25*x36*x39*x42-x26*x33*x39*x44+x26*x33*x40*x43+x26*x35*x37*x44-x26*x35*x40*x41-x26*x36*x37*x43+x26*x36*x39*x41+x27*x33*x38*x44-x27*x33*x40*x42-x27*x34*x37*x44+x27*x34*x40*x41+x27*x36*x37*x42-x27*x36*x38*x41-x28*x33*x38*x43+x28*x33*x39*x42+x28*x34*x37*x43-x28*x34*x39*x41-x28*x35*x37*x42+x28*x35*x38*x41,
> x25*x30*x39*x44-x25*x30*x40*x43-x25*x31*x38*x44+x25*x31*x40*x42+x25*x32*x38*x43-x25*x32*x39*x42-x26*x29*x39*x44+x26*x29*x40*x43+x26*x31*x37*x44-x26*x31*x40*x41-x26*x32*x37*x43+x26*x32*x39*x41+x27*x29*x38*x44-x27*x29*x40*x42-x27*x30*x37*x44+x27*x30*x40*x41+x27*x32*x37*x42-x27*x32*x38*x41-x28*x29*x38*x43+x28*x29*x39*x42+x28*x30*x37*x43-x28*x30*x39*x41-x28*x31*x37*x42+x28*x31*x38*x41,
> x25*x30*x35*x44-x25*x30*x36*x43-x25*x31*x34*x44+x25*x31*x36*x42+x25*x32*x34*x43-x25*x32*x35*x42-x26*x29*x35*x44+x26*x29*x36*x43+x26*x31*x33*x44-x26*x31*x36*x41-x26*x32*x33*x43+x26*x32*x35*x41+x27*x29*x34*x44-x27*x29*x36*x42-x27*x30*x33*x44+x27*x30*x36*x41+x27*x32*x33*x42-x27*x32*x34*x41-x28*x29*x34*x43+x28*x29*x35*x42+x28*x30*x33*x43-x28*x30*x35*x41-x28*x31*x33*x42+x28*x31*x34*x41,
> x25*x30*x35*x40-x25*x30*x36*x39-x25*x31*x34*x40+x25*x31*x36*x38+x25*x32*x34*x39-x25*x32*x35*x38-x26*x29*x35*x40+x26*x29*x36*x39+x26*x31*x33*x40-x26*x31*x36*x37-x26*x32*x33*x39+x26*x32*x35*x37+x27*x29*x34*x40-x27*x29*x36*x38-x27*x30*x33*x40+x27*x30*x36*x37+x27*x32*x33*x38-x27*x32*x34*x37-x28*x29*x34*x39+x28*x29*x35*x38+x28*x30*x33*x39-x28*x30*x35*x37-x28*x31*x33*x38+x28*x31*x34*x37,
> -x10*x13*x19*x24+x10*x13*x20*x23+x10*x15*x17*x24-x10*x15*x20*x21-x10*x16*x17*x23+x10*x16*x19*x21+x11*x13*x18*x24-x11*x13*x20*x22-x11*x14*x17*x24+x11*x14*x20*x21+x11*x16*x17*x22-x11*x16*x18*x21-x12*x13*x18*x23+x12*x13*x19*x22+x12*x14*x17*x23-x12*x14*x19*x21-x12*x15*x17*x22+x12*x15*x18*x21+x14*x19*x24*x9-x14*x20*x23*x9-x15*x18*x24*x9+x15*x20*x22*x9+x16*x18*x23*x9-x16*x19*x22*x9,
> -x13*x18*x23*x8+x13*x18*x24*x7+x13*x19*x22*x8-x13*x19*x24*x6-x13*x20*x22*x7+x13*x20*x23*x6+x14*x17*x23*x8-x14*x17*x24*x7-x14*x19*x21*x8+x14*x19*x24*x5+x14*x20*x21*x7-x14*x20*x23*x5-x15*x17*x22*x8+x15*x17*x24*x6+x15*x18*x21*x8-x15*x18*x24*x5-x15*x20*x21*x6+x15*x20*x22*x5+x16*x17*x22*x7-x16*x17*x23*x6-x16*x18*x21*x7+x16*x18*x23*x5+x16*x19*x21*x6-x16*x19*x22*x5,
> x1*x14*x19*x24-x1*x14*x20*x23-x1*x15*x18*x24+x1*x15*x20*x22+x1*x16*x18*x23-x1*x16*x19*x22-x13*x18*x23*x4+x13*x18*x24*x3-x13*x19*x2*x24+x13*x19*x22*x4+x13*x2*x20*x23-x13*x20*x22*x3+x14*x17*x23*x4-x14*x17*x24*x3-x14*x19*x21*x4+x14*x20*x21*x3+x15*x17*x2*x24-x15*x17*x22*x4+x15*x18*x21*x4-x15*x2*x20*x21-x16*x17*x2*x23+x16*x17*x22*x3-x16*x18*x21*x3+x16*x19*x2*x21,
> x10*x17*x23*x8-x10*x17*x24*x7-x10*x19*x21*x8+x10*x19*x24*x5+x10*x20*x21*x7-x10*x20*x23*x5-x11*x17*x22*x8+x11*x17*x24*x6+x11*x18*x21*x8-x11*x18*x24*x5-x11*x20*x21*x6+x11*x20*x22*x5+x12*x17*x22*x7-x12*x17*x23*x6-x12*x18*x21*x7+x12*x18*x23*x5+x12*x19*x21*x6-x12*x19*x22*x5-x18*x23*x8*x9+x18*x24*x7*x9+x19*x22*x8*x9-x19*x24*x6*x9-x20*x22*x7*x9+x20*x23*x6*x9,
> x1*x10*x19*x24-x1*x10*x20*x23-x1*x11*x18*x24+x1*x11*x20*x22+x1*x12*x18*x23-x1*x12*x19*x22+x10*x17*x23*x4-x10*x17*x24*x3-x10*x19*x21*x4+x10*x20*x21*x3+x11*x17*x2*x24-x11*x17*x22*x4+x11*x18*x21*x4-x11*x2*x20*x21-x12*x17*x2*x23+x12*x17*x22*x3-x12*x18*x21*x3+x12*x19*x2*x21-x18*x23*x4*x9+x18*x24*x3*x9-x19*x2*x24*x9+x19*x22*x4*x9+x2*x20*x23*x9-x20*x22*x3*x9,
> x1*x18*x23*x8-x1*x18*x24*x7-x1*x19*x22*x8+x1*x19*x24*x6+x1*x20*x22*x7-x1*x20*x23*x6-x17*x2*x23*x8+x17*x2*x24*x7+x17*x22*x3*x8-x17*x22*x4*x7+x17*x23*x4*x6-x17*x24*x3*x6-x18*x21*x3*x8+x18*x21*x4*x7-x18*x23*x4*x5+x18*x24*x3*x5+x19*x2*x21*x8-x19*x2*x24*x5-x19*x21*x4*x6+x19*x22*x4*x5-x2*x20*x21*x7+x2*x20*x23*x5+x20*x21*x3*x6-x20*x22*x3*x5,
> x10*x13*x23*x8-x10*x13*x24*x7-x10*x15*x21*x8+x10*x15*x24*x5+x10*x16*x21*x7-x10*x16*x23*x5-x11*x13*x22*x8+x11*x13*x24*x6+x11*x14*x21*x8-x11*x14*x24*x5-x11*x16*x21*x6+x11*x16*x22*x5+x12*x13*x22*x7-x12*x13*x23*x6-x12*x14*x21*x7+x12*x14*x23*x5+x12*x15*x21*x6-x12*x15*x22*x5-x14*x23*x8*x9+x14*x24*x7*x9+x15*x22*x8*x9-x15*x24*x6*x9-x16*x22*x7*x9+x16*x23*x6*x9,
> x1*x10*x15*x24-x1*x10*x16*x23-x1*x11*x14*x24+x1*x11*x16*x22+x1*x12*x14*x23-x1*x12*x15*x22+x10*x13*x23*x4-x10*x13*x24*x3-x10*x15*x21*x4+x10*x16*x21*x3+x11*x13*x2*x24-x11*x13*x22*x4+x11*x14*x21*x4-x11*x16*x2*x21-x12*x13*x2*x23+x12*x13*x22*x3-x12*x14*x21*x3+x12*x15*x2*x21-x14*x23*x4*x9+x14*x24*x3*x9-x15*x2*x24*x9+x15*x22*x4*x9+x16*x2*x23*x9-x16*x22*x3*x9,
> x1*x14*x23*x8-x1*x14*x24*x7-x1*x15*x22*x8+x1*x15*x24*x6+x1*x16*x22*x7-x1*x16*x23*x6-x13*x2*x23*x8+x13*x2*x24*x7+x13*x22*x3*x8-x13*x22*x4*x7+x13*x23*x4*x6-x13*x24*x3*x6-x14*x21*x3*x8+x14*x21*x4*x7-x14*x23*x4*x5+x14*x24*x3*x5+x15*x2*x21*x8-x15*x2*x24*x5-x15*x21*x4*x6+x15*x22*x4*x5-x16*x2*x21*x7+x16*x2*x23*x5+x16*x21*x3*x6-x16*x22*x3*x5,
> x1*x10*x23*x8-x1*x10*x24*x7-x1*x11*x22*x8+x1*x11*x24*x6+x1*x12*x22*x7-x1*x12*x23*x6-x10*x21*x3*x8+x10*x21*x4*x7-x10*x23*x4*x5+x10*x24*x3*x5+x11*x2*x21*x8-x11*x2*x24*x5-x11*x21*x4*x6+x11*x22*x4*x5-x12*x2*x21*x7+x12*x2*x23*x5+x12*x21*x3*x6-x12*x22*x3*x5-x2*x23*x8*x9+x2*x24*x7*x9+x22*x3*x8*x9-x22*x4*x7*x9+x23*x4*x6*x9-x24*x3*x6*x9,
> x10*x13*x19*x8-x10*x13*x20*x7-x10*x15*x17*x8+x10*x15*x20*x5+x10*x16*x17*x7-x10*x16*x19*x5-x11*x13*x18*x8+x11*x13*x20*x6+x11*x14*x17*x8-x11*x14*x20*x5-x11*x16*x17*x6+x11*x16*x18*x5+x12*x13*x18*x7-x12*x13*x19*x6-x12*x14*x17*x7+x12*x14*x19*x5+x12*x15*x17*x6-x12*x15*x18*x5-x14*x19*x8*x9+x14*x20*x7*x9+x15*x18*x8*x9-x15*x20*x6*x9-x16*x18*x7*x9+x16*x19*x6*x9,
> x1*x10*x15*x20-x1*x10*x16*x19-x1*x11*x14*x20+x1*x11*x16*x18+x1*x12*x14*x19-x1*x12*x15*x18+x10*x13*x19*x4-x10*x13*x20*x3-x10*x15*x17*x4+x10*x16*x17*x3-x11*x13*x18*x4+x11*x13*x2*x20+x11*x14*x17*x4-x11*x16*x17*x2+x12*x13*x18*x3-x12*x13*x19*x2-x12*x14*x17*x3+x12*x15*x17*x2-x14*x19*x4*x9+x14*x20*x3*x9+x15*x18*x4*x9-x15*x2*x20*x9-x16*x18*x3*x9+x16*x19*x2*x9,
> x1*x14*x19*x8-x1*x14*x20*x7-x1*x15*x18*x8+x1*x15*x20*x6+x1*x16*x18*x7-x1*x16*x19*x6+x13*x18*x3*x8-x13*x18*x4*x7-x13*x19*x2*x8+x13*x19*x4*x6+x13*x2*x20*x7-x13*x20*x3*x6-x14*x17*x3*x8+x14*x17*x4*x7-x14*x19*x4*x5+x14*x20*x3*x5+x15*x17*x2*x8-x15*x17*x4*x6+x15*x18*x4*x5-x15*x2*x20*x5-x16*x17*x2*x7+x16*x17*x3*x6-x16*x18*x3*x5+x16*x19*x2*x5,
> x1*x10*x19*x8-x1*x10*x20*x7-x1*x11*x18*x8+x1*x11*x20*x6+x1*x12*x18*x7-x1*x12*x19*x6-x10*x17*x3*x8+x10*x17*x4*x7-x10*x19*x4*x5+x10*x20*x3*x5+x11*x17*x2*x8-x11*x17*x4*x6+x11*x18*x4*x5-x11*x2*x20*x5-x12*x17*x2*x7+x12*x17*x3*x6-x12*x18*x3*x5+x12*x19*x2*x5+x18*x3*x8*x9-x18*x4*x7*x9-x19*x2*x8*x9+x19*x4*x6*x9+x2*x20*x7*x9-x20*x3*x6*x9,
> x1*x10*x15*x8-x1*x10*x16*x7-x1*x11*x14*x8+x1*x11*x16*x6+x1*x12*x14*x7-x1*x12*x15*x6-x10*x13*x3*x8+x10*x13*x4*x7-x10*x15*x4*x5+x10*x16*x3*x5+x11*x13*x2*x8-x11*x13*x4*x6+x11*x14*x4*x5-x11*x16*x2*x5-x12*x13*x2*x7+x12*x13*x3*x6-x12*x14*x3*x5+x12*x15*x2*x5+x14*x3*x8*x9-x14*x4*x7*x9-x15*x2*x8*x9+x15*x4*x6*x9+x16*x2*x7*x9-x16*x3*x6*x9
> ]:
> 
#with(Groebner);
#G:=Basis(F, tdeg(x1,x2,x3,x4,x5,x6,x7,x8,x9), [x1,x2,x3,x4,x5,x6,x7,x8,x9],
#method=mgb,
#    characteristic=32003):
#numelems(G):
#done
> 
> infolevel['mgb'] := 5:  # print messages (optional)
> kernelopts(numcpus=1):  # set number of cores (optional)
> G := libmgb:-gbasis(65521,0,vcyc8a,cyc8a):
prime=65521
====  1
1/8 polynomials in basis, max lcm degree: 8
1/7 pairs of degree 2, 2/2 rows, 1 lcms
0.9 MB, max: 0.9 MB, mon: 0.0 MB, tab: 0.1 MB
         3 x 19          8.0 per row, 0.0 MB
1 new, 0 zero,  0.000 sec
====  2
2/9 polynomials in basis, max lcm degree: 8
1/6 pairs of degree 3, 2/2 rows, 1 lcms
0.9 MB, max: 0.9 MB, mon: 0.0 MB, tab: 0.1 MB
         6 x 36          9.2 per row, 0.0 MB
1 new, 0 zero,  0.000 sec
====  3
3/10 polynomials in basis, max lcm degree: 8
2/6 pairs of degree 4, 4/4 rows, 2 lcms
0.9 MB, max: 0.9 MB, mon: 0.0 MB, tab: 0.1 MB
        19 x 116        15.6 per row, 0.0 MB
2 new, 0 zero,  0.000 sec
         2 x 112        61.0 per row, 0.0 MB
         2 x 112        61.0 per row, 0.0 MB
====  4
5/12 polynomials in basis, max lcm degree: 8
4/7 pairs of degree 5, 8/8 rows, 4 lcms
0.9 MB, max: 0.9 MB, mon: 0.0 MB, tab: 0.1 MB
        53 x 235        23.1 per row, 0.0 MB
3 new, 1 zero,  0.000 sec
         3 x 230        82.7 per row, 0.0 MB
         3 x 230        82.7 per row, 0.0 MB
====  5
8/15 polynomials in basis, max lcm degree: 8
9/11 pairs of degree 6, 18/18 rows, 9 lcms
0.9 MB, max: 0.9 MB, mon: 0.0 MB, tab: 0.1 MB
        96 x 426        41.4 per row, 0.0 MB
7 new, 2 zero,  0.001 sec
         7 x 418       268.0 per row, 0.0 MB
         7 x 418       268.0 per row, 0.0 MB
====  6
15/22 polynomials in basis, max lcm degree: 8
22/23 pairs of degree 7, 44/44 rows, 22 lcms
1.0 MB, max: 1.0 MB, mon: 0.1 MB, tab: 0.1 MB
       245 x 822        67.2 per row, 0.1 MB
13 new, 9 zero,  0.002 sec
        13 x 800       432.5 per row, 0.0 MB
        13 x 800       432.5 per row, 0.0 MB
====  7
28/35 polynomials in basis, max lcm degree: 8
47/47 pairs of degree 8, 90/94 rows, 43 lcms
1.4 MB, max: 1.4 MB, mon: 0.1 MB, tab: 0.1 MB
       517 x 1424      115.5 per row, 0.5 MB
24 new, 23 zero,  0.007 sec
        24 x 1377      583.9 per row, 0.1 MB
        24 x 1377      583.9 per row, 0.1 MB
====  8
52/59 polynomials in basis, max lcm degree: 11
105/109 pairs of degree 9, 198/210 rows, 93 lcms
2.3 MB, max: 2.3 MB, mon: 0.2 MB, tab: 0.1 MB
       917 x 2138      175.5 per row, 1.2 MB
50 new, 55 zero,  0.023 sec
        50 x 2061      773.3 per row, 0.3 MB
        50 x 2061      773.3 per row, 0.3 MB
====  9
102/109 polynomials in basis, max lcm degree: 11
233/235 pairs of degree 10, 423/466 rows, 190 lcms
4.6 MB, max: 4.6 MB, mon: 0.3 MB, tab: 0.1 MB
      1592 x 2967      269.6 per row, 3.3 MB
85 new, 148 zero,  0.052 sec
        85 x 2854      981.6 per row, 0.6 MB
        85 x 2854      981.6 per row, 0.6 MB
==== 10
187/194 polynomials in basis, max lcm degree: 12
416/417 pairs of degree 11, 710/832 rows, 294 lcms
8.6 MB, max: 8.6 MB, mon: 0.4 MB, tab: 0.1 MB
      2100 x 3428      417.5 per row, 6.7 MB
122 new, 294 zero,  0.085 sec
       122 x 3096     1059.8 per row, 1.0 MB
       122 x 3096     1059.8 per row, 1.0 MB
==== 11
309/316 polynomials in basis, max lcm degree: 12
618/618 pairs of degree 12, 1114/1236 rows, 496 lcms
14.2 MB, max: 14.2 MB, mon: 0.5 MB, tab: 0.1 MB
      3269 x 4490      454.6 per row, 11.4 MB
160 new, 458 zero,  0.144 sec
       160 x 4450     1020.3 per row, 1.2 MB
       160 x 4450     1020.3 per row, 1.2 MB
==== 12
456/476 polynomials in basis, max lcm degree: 13
3/877 pairs of degree 5, 6/6 rows, 3 lcms
4.9 MB, max: 14.2 MB, mon: 0.4 MB, tab: 0.2 MB
        48 x 293        35.1 per row, 0.0 MB
3 new, 0 zero,  0.000 sec
         3 x 289       186.0 per row, 0.0 MB
         3 x 289       186.0 per row, 0.0 MB
==== 13
446/479 polynomials in basis, max lcm degree: 13
14/896 pairs of degree 6, 27/28 rows, 13 lcms
5.0 MB, max: 14.2 MB, mon: 0.4 MB, tab: 0.2 MB
       177 x 636        59.1 per row, 0.1 MB
10 new, 4 zero,  0.000 sec
        10 x 624       420.0 per row, 0.0 MB
        10 x 624       420.0 per row, 0.0 MB
==== 14
398/489 polynomials in basis, max lcm degree: 13
41/922 pairs of degree 7, 76/82 rows, 35 lcms
5.3 MB, max: 14.2 MB, mon: 0.4 MB, tab: 0.2 MB
       434 x 1145      116.9 per row, 0.4 MB
13 new, 28 zero,  0.002 sec
        13 x 1096      603.8 per row, 0.1 MB
        13 x 1096      603.8 per row, 0.1 MB
==== 15
372/502 polynomials in basis, max lcm degree: 13
69/935 pairs of degree 8, 131/138 rows, 62 lcms
5.9 MB, max: 14.2 MB, mon: 0.4 MB, tab: 0.2 MB
       719 x 1701      170.4 per row, 0.9 MB
21 new, 48 zero,  0.005 sec
        21 x 1650      788.0 per row, 0.1 MB
        21 x 1650      788.0 per row, 0.1 MB
==== 16
362/523 polynomials in basis, max lcm degree: 13
132/984 pairs of degree 9, 250/264 rows, 118 lcms
7.2 MB, max: 14.2 MB, mon: 0.4 MB, tab: 0.2 MB
      1169 x 2394      244.6 per row, 2.2 MB
36 new, 96 zero,  0.013 sec
        36 x 2230      897.3 per row, 0.2 MB
        36 x 2230      897.3 per row, 0.2 MB
==== 17
355/559 polynomials in basis, max lcm degree: 13
229/1056 pairs of degree 10, 421/458 rows, 192 lcms
9.9 MB, max: 14.2 MB, mon: 0.5 MB, tab: 0.2 MB
      1915 x 3288      318.6 per row, 4.7 MB
53 new, 176 zero,  0.032 sec
        53 x 3135      982.1 per row, 0.4 MB
        53 x 3135      982.1 per row, 0.4 MB
==== 18
352/612 polynomials in basis, max lcm degree: 13
342/1032 pairs of degree 11, 626/684 rows, 284 lcms
14.2 MB, max: 14.2 MB, mon: 0.6 MB, tab: 0.2 MB
      3177 x 4671      362.7 per row, 8.8 MB
80 new, 262 zero,  0.062 sec
        80 x 3520      983.9 per row, 0.6 MB
        80 x 3520      983.9 per row, 0.6 MB
==== 19
367/692 polynomials in basis, max lcm degree: 13
532/827 pairs of degree 12, 953/1064 rows, 421 lcms
16.7 MB, max: 16.7 MB, mon: 0.5 MB, tab: 0.2 MB
      3332 x 4402      451.4 per row, 11.5 MB
122 new, 410 zero,  0.101 sec
       122 x 4297      960.3 per row, 0.9 MB
       122 x 4297      960.3 per row, 0.9 MB
==== 20
489/814 polynomials in basis, max lcm degree: 13
961/961 pairs of degree 13, 1633/1922 rows, 671 lcms
25.0 MB, max: 25.0 MB, mon: 0.7 MB, tab: 0.2 MB
      5342 x 6095      477.7 per row, 19.5 MB
229 new, 733 zero,  0.202 sec
       229 x 5665      802.0 per row, 1.4 MB
       229 x 5665      802.0 per row, 1.4 MB
==== 21
332/1043 polynomials in basis, max lcm degree: 14
163/1104 pairs of degree 6, 257/326 rows, 94 lcms
8.7 MB, max: 25.0 MB, mon: 0.5 MB, tab: 0.5 MB
       533 x 799       183.1 per row, 0.7 MB
130 new, 33 zero,  0.013 sec
       130 x 682       338.9 per row, 0.3 MB
       130 x 682       338.9 per row, 0.3 MB
==== 22
186/1173 polynomials in basis, max lcm degree: 14
662/1303 pairs of degree 7, 1020/1324 rows, 358 lcms
10.7 MB, max: 25.0 MB, mon: 0.5 MB, tab: 0.5 MB
      1421 x 1084      228.1 per row, 2.5 MB
18 new, 644 zero,  0.012 sec
        18 x 780       267.4 per row, 0.0 MB
        18 x 780       267.4 per row, 0.0 MB
==== 23
202/1191 polynomials in basis, max lcm degree: 13
124/734 pairs of degree 8, 237/248 rows, 113 lcms
10.2 MB, max: 25.0 MB, mon: 0.4 MB, tab: 0.5 MB
      1126 x 1330      240.5 per row, 2.1 MB
6 new, 118 zero,  0.005 sec
         6 x 802       260.0 per row, 0.0 MB
         6 x 802       260.0 per row, 0.0 MB
==== 24
208/1197 polynomials in basis, max lcm degree: 13
75/641 pairs of degree 9, 149/150 rows, 74 lcms
10.8 MB, max: 25.0 MB, mon: 0.4 MB, tab: 0.5 MB
      1430 x 1691      249.8 per row, 2.7 MB
7 new, 68 zero,  0.007 sec
         7 x 523       262.7 per row, 0.0 MB
         7 x 523       262.7 per row, 0.0 MB
==== 25
215/1204 polynomials in basis, max lcm degree: 13
122/603 pairs of degree 10, 243/244 rows, 121 lcms
12.2 MB, max: 25.0 MB, mon: 0.4 MB, tab: 0.5 MB
      2317 x 2553      250.5 per row, 4.4 MB
16 new, 106 zero,  0.012 sec
        16 x 638       273.8 per row, 0.0 MB
        16 x 638       273.8 per row, 0.0 MB
==== 26
231/1220 polynomials in basis, max lcm degree: 13
211/571 pairs of degree 11, 407/422 rows, 196 lcms
11.4 MB, max: 25.0 MB, mon: 0.3 MB, tab: 0.5 MB
      2073 x 2221      267.6 per row, 4.2 MB
39 new, 172 zero,  0.015 sec
        39 x 362       289.0 per row, 0.1 MB
        39 x 362       289.0 per row, 0.1 MB
==== 27
270/1259 polynomials in basis, max lcm degree: 13
408/594 pairs of degree 12, 712/816 rows, 304 lcms
12.5 MB, max: 25.0 MB, mon: 0.3 MB, tab: 0.5 MB
      3041 x 3056      262.0 per row, 6.1 MB
87 new, 321 zero,  0.021 sec
        87 x 436       308.4 per row, 0.2 MB
        87 x 436       308.4 per row, 0.2 MB
==== 28
357/1346 polynomials in basis, max lcm degree: 14
706/707 pairs of degree 13, 1144/1412 rows, 438 lcms
13.6 MB, max: 25.0 MB, mon: 0.3 MB, tab: 0.5 MB
      4497 x 4247      238.5 per row, 8.2 MB
108 new, 598 zero,  0.028 sec
       108 x 633       318.4 per row, 0.3 MB
       108 x 633       318.4 per row, 0.3 MB
==== 29
361/1454 polynomials in basis, max lcm degree: 14
284/687 pairs of degree 6, 472/568 rows, 188 lcms
5.7 MB, max: 25.0 MB, mon: 0.2 MB, tab: 0.5 MB
       720 x 708       205.0 per row, 1.1 MB
10 new, 274 zero,  0.005 sec
        10 x 486       251.0 per row, 0.0 MB
        10 x 486       251.0 per row, 0.0 MB
==== 30
359/1464 polynomials in basis, max lcm degree: 14
70/464 pairs of degree 7, 129/140 rows, 59 lcms
5.2 MB, max: 25.0 MB, mon: 0.2 MB, tab: 0.5 MB
       531 x 727       198.8 per row, 0.8 MB
0 new, 70 zero,  0.002 sec
==== 31
359/1464 polynomials in basis, max lcm degree: 14
6/394 pairs of degree 8, 12/12 rows, 6 lcms
4.8 MB, max: 25.0 MB, mon: 0.2 MB, tab: 0.5 MB
       213 x 471       246.8 per row, 0.4 MB
1 new, 5 zero,  0.000 sec
==== 32
359/1465 polynomials in basis, max lcm degree: 14
9/395 pairs of degree 9, 18/18 rows, 9 lcms
4.8 MB, max: 25.0 MB, mon: 0.2 MB, tab: 0.5 MB
       349 x 599       179.6 per row, 0.5 MB
2 new, 7 zero,  0.001 sec
         2 x 299       244.0 per row, 0.0 MB
         2 x 299       244.0 per row, 0.0 MB
==== 33
358/1467 polynomials in basis, max lcm degree: 14
22/400 pairs of degree 10, 44/44 rows, 22 lcms
4.9 MB, max: 25.0 MB, mon: 0.2 MB, tab: 0.5 MB
       372 x 622       184.4 per row, 0.5 MB
10 new, 12 zero,  0.001 sec
        10 x 303       258.5 per row, 0.0 MB
        10 x 303       258.5 per row, 0.0 MB
==== 34
358/1477 polynomials in basis, max lcm degree: 14
73/448 pairs of degree 11, 131/146 rows, 58 lcms
5.1 MB, max: 25.0 MB, mon: 0.2 MB, tab: 0.5 MB
       457 x 669       195.8 per row, 0.7 MB
13 new, 60 zero,  0.002 sec
        13 x 316       270.0 per row, 0.0 MB
        13 x 316       270.0 per row, 0.0 MB
==== 35
358/1490 polynomials in basis, max lcm degree: 14
91/466 pairs of degree 12, 159/182 rows, 68 lcms
5.2 MB, max: 25.0 MB, mon: 0.2 MB, tab: 0.5 MB
       506 x 710       207.2 per row, 0.8 MB
13 new, 78 zero,  0.003 sec
        13 x 344       275.1 per row, 0.0 MB
        13 x 344       275.1 per row, 0.0 MB
==== 36
358/1503 polynomials in basis, max lcm degree: 14
91/388 pairs of degree 13, 153/182 rows, 62 lcms
5.2 MB, max: 25.0 MB, mon: 0.2 MB, tab: 0.5 MB
       515 x 724       210.3 per row, 0.8 MB
13 new, 78 zero,  0.003 sec
        13 x 564       268.8 per row, 0.0 MB
        13 x 564       268.8 per row, 0.0 MB
==== 37
371/1516 polynomials in basis, max lcm degree: 14
374/374 pairs of degree 14, 587/748 rows, 213 lcms
6.2 MB, max: 25.0 MB, mon: 0.2 MB, tab: 0.5 MB
      1030 x 955       234.4 per row, 1.8 MB
1 new, 373 zero,  0.008 sec
==== 38
372/1517 polynomials in basis, max lcm degree: 15
5/5 pairs of degree 15, 10/10 rows, 5 lcms
5.2 MB, max: 25.0 MB, mon: 0.2 MB, tab: 0.5 MB
       553 x 846       215.1 per row, 0.9 MB
0 new, 5 zero,  0.001 sec
==== IR
       408 x 2265      260.0 per row, 0.8 MB
       408 x 2265      260.0 per row, 0.8 MB
=======
gbasis:   7277 reduced, 502910 eliminated, 12620 rows, 5769 zero:  46%
gbasis:     1.432 sec
select:     0.144 sec
symbol:     0.221 sec
matrix:     0.922 sec
update:     0.104 sec
export:     0.009 sec
basis:       1.442
> 
#libname:= "/users/cip/users/ederc/fgb/FGblib", libname:
#with(FGb);
##fgbrs:-fgb_gbasis(cyc10a,vcyc10a,[],65521,{"verb"=2, "index"=2000000}): printf("\n"):
#fgbrs:-fgb_gbasis(cyc8a,vcyc8a,[],65521,"index"=2000000,"verb"=1): printf("\n"):
##fgbrs:-fgb_gbasis(kat12a,vkat12a,[],65521,"verb"=1): printf("\n"):
> done
memory used=3.5MB, alloc=8.3MB, time=1.51
