\relax 
\ifx\hyper@anchor\@undefined
\global \let \oldcontentsline\contentsline
\gdef \contentsline#1#2#3#4{\oldcontentsline{#1}{#2}{#3}}
\global \let \oldnewlabel\newlabel
\gdef \newlabel#1#2{\newlabelxx{#1}#2}
\gdef \newlabelxx#1#2#3#4#5#6{\oldnewlabel{#1}{{#2}{#3}}}
\AtEndDocument{\let \contentsline\oldcontentsline
\let \newlabel\oldnewlabel}
\else
\global \let \hyper@last\relax 
\fi

\providecommand*\HyPL@Entry[1]{}
\catcode`"\active
\HyPL@Entry{0<</P(1)>>}
\@writefile{toc}{\beamer@endinputifotherversion {3.10pt}}
\@writefile{nav}{\beamer@endinputifotherversion {3.10pt}}
\select@language{ngerman}
\@writefile{toc}{\select@language{ngerman}}
\@writefile{lof}{\select@language{ngerman}}
\@writefile{lot}{\select@language{ngerman}}
\@writefile{nav}{\headcommand {\slideentry {0}{0}{1}{1/1}{}{0}}}
\@writefile{nav}{\headcommand {\beamer@framepages {1}{1}}}
\HyPL@Entry{1<</P(2)>>}
\@writefile{nav}{\headcommand {\sectionentry {1}{\"Ubersicht}{2}{\"Ubersicht}{0}}}
\@writefile{nav}{\headcommand {\beamer@sectionpages {1}{1}}}
\@writefile{nav}{\headcommand {\beamer@subsectionpages {1}{1}}}
\@writefile{nav}{\headcommand {\slideentry {1}{0}{2}{2/5}{}{0}}}
\@writefile{nav}{\headcommand {\beamer@framepages {2}{5}}}
\HyPL@Entry{5<</P(3)>>}
\@writefile{toc}{\beamer@sectionintoc {2}{The basic problem}{6}{0}{1}}
\@writefile{nav}{\headcommand {\sectionentry {2}{The basic problem}{6}{The basic problem}{0}}}
\@writefile{nav}{\headcommand {\beamer@sectionpages {2}{5}}}
\@writefile{nav}{\headcommand {\beamer@subsectionpages {2}{5}}}
\@writefile{nav}{\headcommand {\slideentry {2}{0}{3}{6/6}{}{0}}}
\@writefile{nav}{\headcommand {\beamer@framepages {6}{6}}}
\HyPL@Entry{6<</P(4)>>}
\@writefile{nav}{\headcommand {\slideentry {2}{0}{4}{7/11}{}{0}}}
\@writefile{nav}{\headcommand {\beamer@framepages {7}{11}}}
\HyPL@Entry{11<</P(5)>>}
\@writefile{toc}{\beamer@sectionintoc {3}{Generic signature-based algorithms}{12}{0}{2}}
\@writefile{nav}{\headcommand {\sectionentry {3}{Generic signature-based algorithms}{12}{Generic signature-based algorithms}{0}}}
\@writefile{nav}{\headcommand {\beamer@sectionpages {6}{11}}}
\@writefile{nav}{\headcommand {\beamer@subsectionpages {6}{11}}}
\@writefile{nav}{\headcommand {\slideentry {3}{0}{5}{12/12}{}{0}}}
\@writefile{nav}{\headcommand {\beamer@framepages {12}{12}}}
\HyPL@Entry{12<</P(6)>>}
\@writefile{toc}{\beamer@subsectionintoc {3}{1}{The basic idea}{13}{0}{2}}
\@writefile{nav}{\headcommand {\beamer@subsectionentry {0}{3}{1}{13}{The basic idea}}\headcommand {\beamer@subsectionpages {12}{12}}}
\@writefile{nav}{\headcommand {\slideentry {3}{1}{1}{13/17}{The basic idea}{0}}}
\@writefile{nav}{\headcommand {\beamer@framepages {13}{17}}}
\HyPL@Entry{17<</P(7)>>}
\@writefile{nav}{\headcommand {\slideentry {3}{1}{2}{18/21}{The basic idea}{0}}}
\@writefile{nav}{\headcommand {\beamer@framepages {18}{21}}}
\HyPL@Entry{21<</P(8)>>}
\@writefile{nav}{\headcommand {\slideentry {3}{1}{3}{22/25}{The basic idea}{0}}}
\@writefile{nav}{\headcommand {\beamer@framepages {22}{25}}}
\HyPL@Entry{25<</P(9)>>}
\@writefile{toc}{\beamer@subsectionintoc {3}{2}{Generic signature-based Gr\"obner basis algorithm}{26}{0}{2}}
\@writefile{nav}{\headcommand {\beamer@subsectionentry {0}{3}{2}{26}{Generic signature-based Gr\"obner basis algorithm}}\headcommand {\beamer@subsectionpages {13}{25}}}
\@writefile{nav}{\headcommand {\slideentry {3}{2}{1}{26/30}{Generic signature-based Gr\"obner basis algorithm}{0}}}
\@writefile{nav}{\headcommand {\beamer@framepages {26}{30}}}
\HyPL@Entry{30<</P(10)>>}
\@writefile{nav}{\headcommand {\slideentry {3}{2}{2}{31/34}{Generic signature-based Gr\"obner basis algorithm}{0}}}
\@writefile{nav}{\headcommand {\beamer@framepages {31}{34}}}
\HyPL@Entry{34<</P(11)>>}
\@writefile{nav}{\headcommand {\slideentry {3}{2}{3}{35/36}{Generic signature-based Gr\"obner basis algorithm}{0}}}
\@writefile{nav}{\headcommand {\beamer@framepages {35}{36}}}
\HyPL@Entry{36<</P(12)>>}
\@writefile{toc}{\beamer@subsectionintoc {3}{3}{Signature-based criteria}{37}{0}{2}}
\@writefile{nav}{\headcommand {\beamer@subsectionentry {0}{3}{3}{37}{Signature-based criteria}}\headcommand {\beamer@subsectionpages {26}{36}}}
\@writefile{nav}{\headcommand {\slideentry {3}{3}{1}{37/39}{Signature-based criteria}{0}}}
\@writefile{nav}{\headcommand {\beamer@framepages {37}{39}}}
\HyPL@Entry{39<</P(13)>>}
\@writefile{nav}{\headcommand {\slideentry {3}{3}{2}{40/41}{Signature-based criteria}{0}}}
\@writefile{nav}{\headcommand {\beamer@framepages {40}{41}}}
\HyPL@Entry{41<</P(14)>>}
\@writefile{toc}{\beamer@sectionintoc {4}{Implementations and recent work}{42}{0}{3}}
\@writefile{nav}{\headcommand {\sectionentry {4}{Implementations and recent work}{42}{Implementations and recent work}{0}}}
\@writefile{nav}{\headcommand {\beamer@sectionpages {12}{41}}}
\@writefile{nav}{\headcommand {\beamer@subsectionpages {37}{41}}}
\@writefile{nav}{\headcommand {\slideentry {4}{0}{3}{42/42}{}{0}}}
\@writefile{nav}{\headcommand {\beamer@framepages {42}{42}}}
\HyPL@Entry{42<</P(15)>>}
\@writefile{toc}{\beamer@subsectionintoc {4}{1}{Efficient variants}{43}{0}{3}}
\@writefile{nav}{\headcommand {\beamer@subsectionentry {0}{4}{1}{43}{Efficient variants}}\headcommand {\beamer@subsectionpages {42}{42}}}
\@writefile{nav}{\headcommand {\slideentry {4}{1}{1}{43/43}{Efficient variants}{0}}}
\@writefile{nav}{\headcommand {\beamer@framepages {43}{43}}}
\@writefile{nav}{\headcommand {\slideentry {4}{1}{2}{44/44}{Efficient variants}{0}}}
\@writefile{nav}{\headcommand {\beamer@framepages {44}{44}}}
\@writefile{nav}{\headcommand {\slideentry {4}{1}{3}{45/45}{Efficient variants}{0}}}
\@writefile{nav}{\headcommand {\beamer@framepages {45}{45}}}
\@writefile{nav}{\headcommand {\slideentry {4}{1}{4}{46/46}{Efficient variants}{0}}}
\@writefile{nav}{\headcommand {\beamer@framepages {46}{46}}}
\@writefile{nav}{\headcommand {\slideentry {4}{1}{5}{47/47}{Efficient variants}{0}}}
\@writefile{nav}{\headcommand {\beamer@framepages {47}{47}}}
\@writefile{nav}{\headcommand {\slideentry {4}{1}{6}{48/48}{Efficient variants}{0}}}
\@writefile{nav}{\headcommand {\beamer@framepages {48}{48}}}
\HyPL@Entry{48<</P(16)>>}
\@writefile{toc}{\beamer@subsectionintoc {4}{2}{Timings}{49}{0}{3}}
\@writefile{nav}{\headcommand {\beamer@subsectionentry {0}{4}{2}{49}{Timings}}\headcommand {\beamer@subsectionpages {43}{48}}}
\@writefile{nav}{\headcommand {\slideentry {4}{2}{1}{49/50}{Timings}{0}}}
\@writefile{nav}{\headcommand {\beamer@framepages {49}{50}}}
\HyPL@Entry{50<</P(17)>>}
\@writefile{toc}{\beamer@subsectionintoc {4}{3}{Recent work}{51}{0}{3}}
\@writefile{nav}{\headcommand {\beamer@subsectionentry {0}{4}{3}{51}{Recent work}}\headcommand {\beamer@subsectionpages {49}{50}}}
\@writefile{nav}{\headcommand {\slideentry {4}{3}{1}{51/51}{Recent work}{0}}}
\@writefile{nav}{\headcommand {\beamer@framepages {51}{51}}}
\bibcite{arshashemi}{\hyperlink {beamerbibarshashemi}{AH09}}
\bibcite{ap}{\hyperlink {beamerbibap}{AP11}}
\bibcite{f5cc}{\hyperlink {beamerbibf5cc}{E12a}}
\bibcite{f5h}{\hyperlink {beamerbibf5h}{E12b}}
\bibcite{f5r}{\hyperlink {beamerbibf5r}{EGP11}}
\bibcite{f5c}{\hyperlink {beamerbibf5c}{EP10}}
\bibcite{f5e}{\hyperlink {beamerbibf5e}{EP11}}
\bibcite{f5}{\hyperlink {beamerbibf5}{Fa02}}
\bibcite{gal}{\hyperlink {beamerbibgal}{Ga12a}}
\bibcite{gal2}{\hyperlink {beamerbibgal2}{Ga12b}}
\bibcite{ggv}{\hyperlink {beamerbibggv}{GGV10}}
\bibcite{gvw}{\hyperlink {beamerbibgvw}{GVW11}}
\bibcite{hs}{\hyperlink {beamerbibhs}{HS12}}
\bibcite{singular}{\hyperlink {beamerbibsingular}{SIN11}}
\bibcite{sunwang1}{\hyperlink {beamerbibsunwang1}{SW10}}
\bibcite{sunwang2}{\hyperlink {beamerbibsunwang2}{SW11}}
\HyPL@Entry{51<</P(18)>>}
\@writefile{nav}{\headcommand {\slideentry {4}{3}{2}{52/52}{Recent work}{0}}}
\@writefile{nav}{\headcommand {\beamer@framepages {52}{52}}}
\@writefile{nav}{\headcommand {\beamer@partpages {1}{52}}}
\@writefile{nav}{\headcommand {\beamer@subsectionpages {51}{52}}}
\@writefile{nav}{\headcommand {\beamer@sectionpages {42}{52}}}
\@writefile{nav}{\headcommand {\beamer@documentpages {52}}}
\@writefile{nav}{\headcommand {\def \inserttotalframenumber {18}}}
