\BOOKMARK [2][]{Outline0.2}{The basic problem}{}% 1
\BOOKMARK [2][]{Outline0.3}{Generic signature-based algorithms}{}% 2
\BOOKMARK [3][]{Outline0.3.1.9}{The basic idea}{Outline0.3}% 3
\BOOKMARK [3][]{Outline0.3.2.22}{Generic signature-based Gr\366bner basis algorithm}{Outline0.3}% 4
\BOOKMARK [3][]{Outline0.3.3.33}{Signature-based criteria}{Outline0.3}% 5
\BOOKMARK [2][]{Outline0.4}{Implementations and recent work}{}% 6
\BOOKMARK [3][]{Outline0.4.1.39}{A good decade on signature-based algorithms}{Outline0.4}% 7
\BOOKMARK [3][]{Outline0.4.2.49}{Implementation in Singular}{Outline0.4}% 8
\BOOKMARK [2][]{Outline0.5}{And what has really happened?}{}% 9
\BOOKMARK [3][]{Outline0.5.1.64}{Ongoing work}{Outline0.5}% 10
