\relax 
\providecommand\HyperFirstAtBeginDocument{\AtBeginDocument}
\HyperFirstAtBeginDocument{\ifx\hyper@anchor\@undefined
\global\let\oldcontentsline\contentsline
\gdef\contentsline#1#2#3#4{\oldcontentsline{#1}{#2}{#3}}
\global\let\oldnewlabel\newlabel
\gdef\newlabel#1#2{\newlabelxx{#1}#2}
\gdef\newlabelxx#1#2#3#4#5#6{\oldnewlabel{#1}{{#2}{#3}}}
\AtEndDocument{\ifx\hyper@anchor\@undefined
\let\contentsline\oldcontentsline
\let\newlabel\oldnewlabel
\fi}
\fi}
\global\let\hyper@last\relax 
\gdef\HyperFirstAtBeginDocument#1{#1}
\providecommand\HyField@AuxAddToFields[1]{}
\catcode`"\active
\@writefile{toc}{\beamer@endinputifotherversion {3.10pt}}
\@writefile{nav}{\beamer@endinputifotherversion {3.10pt}}
\select@language{ngerman}
\@writefile{toc}{\select@language{ngerman}}
\@writefile{lof}{\select@language{ngerman}}
\@writefile{lot}{\select@language{ngerman}}
\@writefile{nav}{\headcommand {\slideentry {0}{0}{1}{1/1}{}{0}}}
\@writefile{nav}{\headcommand {\beamer@framepages {1}{1}}}
\@writefile{nav}{\headcommand {\sectionentry {1}{\"Ubersicht}{2}{\"Ubersicht}{0}}}
\@writefile{nav}{\headcommand {\beamer@sectionpages {1}{1}}}
\@writefile{nav}{\headcommand {\beamer@subsectionpages {1}{1}}}
\@writefile{toc}{\beamer@sectionintoc {2}{The basic problem}{2}{0}{1}}
\@writefile{nav}{\headcommand {\sectionentry {2}{The basic problem}{2}{The basic problem}{0}}}
\@writefile{nav}{\headcommand {\beamer@sectionpages {2}{1}}}
\@writefile{nav}{\headcommand {\beamer@subsectionpages {2}{1}}}
\@writefile{nav}{\headcommand {\slideentry {2}{0}{2}{2/2}{}{0}}}
\@writefile{nav}{\headcommand {\beamer@framepages {2}{2}}}
\@writefile{nav}{\headcommand {\slideentry {2}{0}{3}{3/7}{}{0}}}
\@writefile{nav}{\headcommand {\beamer@framepages {3}{7}}}
\@writefile{toc}{\beamer@sectionintoc {3}{Generic signature-based algorithms}{8}{0}{2}}
\@writefile{nav}{\headcommand {\sectionentry {3}{Generic signature-based algorithms}{8}{Generic signature-based algorithms}{0}}}
\@writefile{nav}{\headcommand {\beamer@sectionpages {2}{7}}}
\@writefile{nav}{\headcommand {\beamer@subsectionpages {2}{7}}}
\@writefile{nav}{\headcommand {\slideentry {3}{0}{4}{8/8}{}{0}}}
\@writefile{nav}{\headcommand {\beamer@framepages {8}{8}}}
\@writefile{toc}{\beamer@subsectionintoc {3}{1}{The basic idea}{9}{0}{2}}
\@writefile{nav}{\headcommand {\beamer@subsectionentry {0}{3}{1}{9}{The basic idea}}\headcommand {\beamer@subsectionpages {8}{8}}}
\@writefile{nav}{\headcommand {\slideentry {3}{1}{1}{9/13}{The basic idea}{0}}}
\@writefile{nav}{\headcommand {\beamer@framepages {9}{13}}}
\@writefile{nav}{\headcommand {\slideentry {3}{1}{2}{14/17}{The basic idea}{0}}}
\@writefile{nav}{\headcommand {\beamer@framepages {14}{17}}}
\@writefile{nav}{\headcommand {\slideentry {3}{1}{3}{18/21}{The basic idea}{0}}}
\@writefile{nav}{\headcommand {\beamer@framepages {18}{21}}}
\@writefile{toc}{\beamer@subsectionintoc {3}{2}{Generic signature-based Gr\"obner basis algorithm}{22}{0}{2}}
\@writefile{nav}{\headcommand {\beamer@subsectionentry {0}{3}{2}{22}{Generic signature-based Gr\"obner basis algorithm}}\headcommand {\beamer@subsectionpages {9}{21}}}
\@writefile{nav}{\headcommand {\slideentry {3}{2}{1}{22/26}{Generic signature-based Gr\"obner basis algorithm}{0}}}
\@writefile{nav}{\headcommand {\beamer@framepages {22}{26}}}
\@writefile{nav}{\headcommand {\slideentry {3}{2}{2}{27/30}{Generic signature-based Gr\"obner basis algorithm}{0}}}
\@writefile{nav}{\headcommand {\beamer@framepages {27}{30}}}
\@writefile{nav}{\headcommand {\slideentry {3}{2}{3}{31/32}{Generic signature-based Gr\"obner basis algorithm}{0}}}
\@writefile{nav}{\headcommand {\beamer@framepages {31}{32}}}
\@writefile{toc}{\beamer@subsectionintoc {3}{3}{Signature-based criteria}{33}{0}{2}}
\@writefile{nav}{\headcommand {\beamer@subsectionentry {0}{3}{3}{33}{Signature-based criteria}}\headcommand {\beamer@subsectionpages {22}{32}}}
\@writefile{nav}{\headcommand {\slideentry {3}{3}{1}{33/35}{Signature-based criteria}{0}}}
\@writefile{nav}{\headcommand {\beamer@framepages {33}{35}}}
\@writefile{nav}{\headcommand {\slideentry {3}{3}{2}{36/37}{Signature-based criteria}{0}}}
\@writefile{nav}{\headcommand {\beamer@framepages {36}{37}}}
\@writefile{toc}{\beamer@sectionintoc {4}{Implementations and recent work}{38}{0}{3}}
\@writefile{nav}{\headcommand {\sectionentry {4}{Implementations and recent work}{38}{Implementations and recent work}{0}}}
\@writefile{nav}{\headcommand {\beamer@sectionpages {8}{37}}}
\@writefile{nav}{\headcommand {\beamer@subsectionpages {33}{37}}}
\@writefile{nav}{\headcommand {\slideentry {4}{0}{3}{38/38}{}{0}}}
\@writefile{nav}{\headcommand {\beamer@framepages {38}{38}}}
\@writefile{toc}{\beamer@subsectionintoc {4}{1}{A good decade on signature-based algorithms}{39}{0}{3}}
\@writefile{nav}{\headcommand {\beamer@subsectionentry {0}{4}{1}{39}{A good decade on signature-based algorithms}}\headcommand {\beamer@subsectionpages {38}{38}}}
\@writefile{nav}{\headcommand {\slideentry {4}{1}{1}{39/39}{A good decade on signature-based algorithms}{0}}}
\@writefile{nav}{\headcommand {\beamer@framepages {39}{39}}}
\@writefile{nav}{\headcommand {\slideentry {4}{1}{2}{40/40}{A good decade on signature-based algorithms}{0}}}
\@writefile{nav}{\headcommand {\beamer@framepages {40}{40}}}
\@writefile{nav}{\headcommand {\slideentry {4}{1}{3}{41/41}{A good decade on signature-based algorithms}{0}}}
\@writefile{nav}{\headcommand {\beamer@framepages {41}{41}}}
\@writefile{nav}{\headcommand {\slideentry {4}{1}{4}{42/42}{A good decade on signature-based algorithms}{0}}}
\@writefile{nav}{\headcommand {\beamer@framepages {42}{42}}}
\@writefile{nav}{\headcommand {\slideentry {4}{1}{5}{43/43}{A good decade on signature-based algorithms}{0}}}
\@writefile{nav}{\headcommand {\beamer@framepages {43}{43}}}
\@writefile{nav}{\headcommand {\slideentry {4}{1}{6}{44/44}{A good decade on signature-based algorithms}{0}}}
\@writefile{nav}{\headcommand {\beamer@framepages {44}{44}}}
\@writefile{nav}{\headcommand {\slideentry {4}{1}{7}{45/45}{A good decade on signature-based algorithms}{0}}}
\@writefile{nav}{\headcommand {\beamer@framepages {45}{45}}}
\@writefile{nav}{\headcommand {\slideentry {4}{1}{8}{46/46}{A good decade on signature-based algorithms}{0}}}
\@writefile{nav}{\headcommand {\beamer@framepages {46}{46}}}
\@writefile{nav}{\headcommand {\slideentry {4}{1}{9}{47/47}{A good decade on signature-based algorithms}{0}}}
\@writefile{nav}{\headcommand {\beamer@framepages {47}{47}}}
\@writefile{nav}{\headcommand {\slideentry {4}{1}{10}{48/48}{A good decade on signature-based algorithms}{0}}}
\@writefile{nav}{\headcommand {\beamer@framepages {48}{48}}}
\@writefile{toc}{\beamer@subsectionintoc {4}{2}{Implementation in Singular}{49}{0}{3}}
\@writefile{nav}{\headcommand {\beamer@subsectionentry {0}{4}{2}{49}{Implementation in Singular}}\headcommand {\beamer@subsectionpages {39}{48}}}
\@writefile{nav}{\headcommand {\slideentry {4}{2}{1}{49/50}{Implementation in Singular}{0}}}
\@writefile{nav}{\headcommand {\beamer@framepages {49}{50}}}
\@writefile{toc}{\beamer@sectionintoc {5}{And what has really happened?}{51}{0}{4}}
\@writefile{nav}{\headcommand {\sectionentry {5}{And what has really happened?}{51}{And what has really happened?}{0}}}
\@writefile{nav}{\headcommand {\beamer@sectionpages {38}{50}}}
\@writefile{nav}{\headcommand {\beamer@subsectionpages {49}{50}}}
\@writefile{nav}{\headcommand {\slideentry {5}{0}{2}{51/51}{}{0}}}
\@writefile{nav}{\headcommand {\beamer@framepages {51}{51}}}
\@writefile{nav}{\headcommand {\slideentry {5}{0}{3}{52/53}{}{0}}}
\@writefile{nav}{\headcommand {\beamer@framepages {52}{53}}}
\@writefile{nav}{\headcommand {\slideentry {5}{0}{4}{54/54}{}{0}}}
\@writefile{nav}{\headcommand {\beamer@framepages {54}{54}}}
\@writefile{nav}{\headcommand {\slideentry {5}{0}{5}{55/55}{}{0}}}
\@writefile{nav}{\headcommand {\beamer@framepages {55}{55}}}
\@writefile{nav}{\headcommand {\slideentry {5}{0}{6}{56/56}{}{0}}}
\@writefile{nav}{\headcommand {\beamer@framepages {56}{56}}}
\@writefile{nav}{\headcommand {\slideentry {5}{0}{7}{57/57}{}{0}}}
\@writefile{nav}{\headcommand {\beamer@framepages {57}{57}}}
\@writefile{nav}{\headcommand {\slideentry {5}{0}{8}{58/58}{}{0}}}
\@writefile{nav}{\headcommand {\beamer@framepages {58}{58}}}
\@writefile{nav}{\headcommand {\slideentry {5}{0}{9}{59/59}{}{0}}}
\@writefile{nav}{\headcommand {\beamer@framepages {59}{59}}}
\@writefile{nav}{\headcommand {\slideentry {5}{0}{10}{60/60}{}{0}}}
\@writefile{nav}{\headcommand {\beamer@framepages {60}{60}}}
\@writefile{nav}{\headcommand {\slideentry {5}{0}{11}{61/62}{}{0}}}
\@writefile{nav}{\headcommand {\beamer@framepages {61}{62}}}
\@writefile{nav}{\headcommand {\slideentry {5}{0}{12}{63/63}{}{0}}}
\@writefile{nav}{\headcommand {\beamer@framepages {63}{63}}}
\@writefile{toc}{\beamer@subsectionintoc {5}{1}{Ongoing work}{64}{0}{4}}
\@writefile{nav}{\headcommand {\beamer@subsectionentry {0}{5}{1}{64}{Ongoing work}}\headcommand {\beamer@subsectionpages {51}{63}}}
\@writefile{nav}{\headcommand {\slideentry {5}{1}{1}{64/64}{Ongoing work}{0}}}
\@writefile{nav}{\headcommand {\beamer@framepages {64}{64}}}
\bibcite{ap}{\hyperlink {beamerbibap}{AP10}}
\bibcite{ars}{\hyperlink {beamerbibars}{A05}}
\bibcite{arshashemi}{\hyperlink {beamerbibarshashemi}{AH09}}
\bibcite{f5cc}{\hyperlink {beamerbibf5cc}{E12a}}
\bibcite{f5h}{\hyperlink {beamerbibf5h}{E12b}}
\bibcite{f5r}{\hyperlink {beamerbibf5r}{EGP11}}
\bibcite{f5c}{\hyperlink {beamerbibf5c}{EP10}}
\bibcite{f5e}{\hyperlink {beamerbibf5e}{EP11}}
\bibcite{f5sb}{\hyperlink {beamerbibf5sb}{ER13}}
\bibcite{f5}{\hyperlink {beamerbibf5}{Fa02}}
\bibcite{fr09}{\hyperlink {beamerbibfr09}{FR09}}
\bibcite{fss11}{\hyperlink {beamerbibfss11}{FSS11}}
\bibcite{fsv13}{\hyperlink {beamerbibfsv13}{FSV13}}
\bibcite{fs12}{\hyperlink {beamerbibfs12}{FS12}}
\bibcite{gal}{\hyperlink {beamerbibgal}{Ga12a}}
\bibcite{gal2}{\hyperlink {beamerbibgal2}{Ga12b}}
\bibcite{ggv}{\hyperlink {beamerbibggv}{GGV10}}
\bibcite{gha}{\hyperlink {beamerbibgha}{GHA13}}
\bibcite{gvw}{\hyperlink {beamerbibgvw}{GVW11}}
\bibcite{hs}{\hyperlink {beamerbibhs}{MSWZ12}}
\bibcite{sunwang1}{\hyperlink {beamerbibsunwang1}{SW10}}
\bibcite{sunwang2}{\hyperlink {beamerbibsunwang2}{SW11}}
\@writefile{nav}{\headcommand {\slideentry {5}{1}{2}{65/65}{Ongoing work}{0}}}
\@writefile{nav}{\headcommand {\beamer@framepages {65}{65}}}
\@writefile{nav}{\headcommand {\beamer@partpages {1}{65}}}
\@writefile{nav}{\headcommand {\beamer@subsectionpages {64}{65}}}
\@writefile{nav}{\headcommand {\beamer@sectionpages {51}{65}}}
\@writefile{nav}{\headcommand {\beamer@documentpages {65}}}
\@writefile{nav}{\headcommand {\def \inserttotalframenumber {22}}}
