\relax 
\providecommand\hyper@newdestlabel[2]{}
\providecommand\HyperFirstAtBeginDocument{\AtBeginDocument}
\HyperFirstAtBeginDocument{\ifx\hyper@anchor\@undefined
\global\let\oldcontentsline\contentsline
\gdef\contentsline#1#2#3#4{\oldcontentsline{#1}{#2}{#3}}
\global\let\oldnewlabel\newlabel
\gdef\newlabel#1#2{\newlabelxx{#1}#2}
\gdef\newlabelxx#1#2#3#4#5#6{\oldnewlabel{#1}{{#2}{#3}}}
\AtEndDocument{\ifx\hyper@anchor\@undefined
\let\contentsline\oldcontentsline
\let\newlabel\oldnewlabel
\fi}
\fi}
\global\let\hyper@last\relax 
\gdef\HyperFirstAtBeginDocument#1{#1}
\providecommand\HyField@AuxAddToFields[1]{}
\providecommand\HyField@AuxAddToCoFields[2]{}
\catcode`"\active
\@writefile{toc}{\beamer@endinputifotherversion {3.26pt}}
\@writefile{nav}{\beamer@endinputifotherversion {3.26pt}}
\select@language{ngerman}
\@writefile{toc}{\select@language{ngerman}}
\@writefile{lof}{\select@language{ngerman}}
\@writefile{lot}{\select@language{ngerman}}
\@writefile{nav}{\headcommand {\slideentry {0}{0}{1}{1/1}{}{0}}}
\@writefile{nav}{\headcommand {\beamer@framepages {1}{1}}}
\@writefile{toc}{\beamer@sectionintoc {1}{Overall structure}{2}{0}{1}}
\@writefile{nav}{\headcommand {\sectionentry {1}{Overall structure}{2}{Overall structure}{0}}}
\@writefile{nav}{\headcommand {\beamer@sectionpages {1}{1}}}
\@writefile{nav}{\headcommand {\beamer@subsectionpages {1}{1}}}
\@writefile{nav}{\headcommand {\slideentry {1}{0}{2}{2/2}{}{0}}}
\@writefile{nav}{\headcommand {\beamer@framepages {2}{2}}}
\@writefile{nav}{\headcommand {\slideentry {1}{0}{3}{3/3}{}{0}}}
\@writefile{nav}{\headcommand {\beamer@framepages {3}{3}}}
\@writefile{nav}{\headcommand {\slideentry {1}{0}{4}{4/9}{}{0}}}
\@writefile{nav}{\headcommand {\beamer@framepages {4}{9}}}
\@writefile{nav}{\headcommand {\slideentry {1}{0}{5}{10/13}{}{0}}}
\@writefile{nav}{\headcommand {\beamer@framepages {10}{13}}}
\@writefile{nav}{\headcommand {\slideentry {1}{0}{6}{14/18}{}{0}}}
\@writefile{nav}{\headcommand {\beamer@framepages {14}{18}}}
\@writefile{toc}{\beamer@sectionintoc {2}{Matrix reduction part}{19}{0}{2}}
\@writefile{nav}{\headcommand {\sectionentry {2}{Matrix reduction part}{19}{Matrix reduction part}{0}}}
\@writefile{nav}{\headcommand {\beamer@sectionpages {2}{18}}}
\@writefile{nav}{\headcommand {\beamer@subsectionpages {2}{18}}}
\@writefile{nav}{\headcommand {\slideentry {2}{0}{7}{19/19}{}{0}}}
\@writefile{nav}{\headcommand {\beamer@framepages {19}{19}}}
\@writefile{nav}{\headcommand {\slideentry {2}{0}{8}{20/22}{}{0}}}
\@writefile{nav}{\headcommand {\beamer@framepages {20}{22}}}
\@writefile{nav}{\headcommand {\slideentry {2}{0}{9}{23/28}{}{0}}}
\@writefile{nav}{\headcommand {\beamer@framepages {23}{28}}}
\@writefile{toc}{\beamer@sectionintoc {3}{Methods of Parallelization}{29}{0}{3}}
\@writefile{nav}{\headcommand {\sectionentry {3}{Methods of Parallelization}{29}{Methods of Parallelization}{0}}}
\@writefile{nav}{\headcommand {\beamer@sectionpages {19}{28}}}
\@writefile{nav}{\headcommand {\beamer@subsectionpages {19}{28}}}
\@writefile{nav}{\headcommand {\slideentry {3}{0}{10}{29/29}{}{0}}}
\@writefile{nav}{\headcommand {\beamer@framepages {29}{29}}}
\@writefile{nav}{\headcommand {\slideentry {3}{0}{11}{30/30}{}{0}}}
\@writefile{nav}{\headcommand {\beamer@framepages {30}{30}}}
\@writefile{nav}{\headcommand {\slideentry {3}{0}{12}{31/35}{}{0}}}
\@writefile{nav}{\headcommand {\beamer@framepages {31}{35}}}
\@writefile{nav}{\headcommand {\slideentry {3}{0}{13}{36/36}{}{0}}}
\@writefile{nav}{\headcommand {\beamer@framepages {36}{36}}}
\@writefile{toc}{\beamer@sectionintoc {4}{Future steps}{37}{0}{4}}
\@writefile{nav}{\headcommand {\sectionentry {4}{Future steps}{37}{Future steps}{0}}}
\@writefile{nav}{\headcommand {\beamer@sectionpages {29}{36}}}
\@writefile{nav}{\headcommand {\beamer@subsectionpages {29}{36}}}
\@writefile{nav}{\headcommand {\slideentry {4}{0}{14}{37/37}{}{0}}}
\@writefile{nav}{\headcommand {\beamer@framepages {37}{37}}}
\@writefile{nav}{\headcommand {\slideentry {4}{0}{15}{38/38}{}{0}}}
\@writefile{nav}{\headcommand {\beamer@framepages {38}{38}}}
\@writefile{nav}{\headcommand {\slideentry {4}{0}{16}{39/39}{}{0}}}
\@writefile{nav}{\headcommand {\beamer@framepages {39}{39}}}
\@writefile{nav}{\headcommand {\slideentry {4}{0}{17}{40/40}{}{0}}}
\@writefile{nav}{\headcommand {\beamer@framepages {40}{40}}}
\@writefile{nav}{\headcommand {\beamer@partpages {1}{40}}}
\@writefile{nav}{\headcommand {\beamer@subsectionpages {37}{40}}}
\@writefile{nav}{\headcommand {\beamer@sectionpages {37}{40}}}
\@writefile{nav}{\headcommand {\beamer@documentpages {40}}}
\@writefile{nav}{\headcommand {\def \inserttotalframenumber {17}}}
