    |\^/|     Maple 2016 (X86 64 LINUX)
._|\|   |/|_. Copyright (c) Maplesoft, a division of Waterloo Maple Inc. 2016
 \  MAPLE  /  All rights reserved. Maple is a trademark of
 <____ ____>  Waterloo Maple Inc.
      |       Type ? for help.
# cyclic-8-affine
> vcyc8a:=[x1,x2,x3,x4,x5,x6,x7,x8]:
> cyc8a:=[
> x1+x2+x3+x4+x5+x6+x7+x8,
> x1*x2+x2*x3+x3*x4+x4*x5+x5*x6+x6*x7+x1*x8+x7*x8,
> x1*x2*x3+x2*x3*x4+x3*x4*x5+x4*x5*x6+x5*x6*x7+x1*x2*x8+x1*x7*x8+x6*x7*x8,
> x1*x2*x3*x4+x2*x3*x4*x5+x3*x4*x5*x6+x4*x5*x6*x7+x1*x2*x3*x8+x1*x2*x7*x8+x1*x6*x7*x8+x5*x6*x7*x8,
> x1*x2*x3*x4*x5+x2*x3*x4*x5*x6+x3*x4*x5*x6*x7+x1*x2*x3*x4*x8+x1*x2*x3*x7*x8+x1*x2*x6*x7*x8+x1*x5*x6*x7*x8+x4*x5*x6*x7*x8,
> x1*x2*x3*x4*x5*x6+x2*x3*x4*x5*x6*x7+x1*x2*x3*x4*x5*x8+x1*x2*x3*x4*x7*x8+x1*x2*x3*x6*x7*x8+x1*x2*x5*x6*x7*x8+x1*x4*x5*x6*x7*x8+x3*x4*x5*x6*x7*x8,
> x1*x2*x3*x4*x5*x6*x7+x1*x2*x3*x4*x5*x6*x8+x1*x2*x3*x4*x5*x7*x8+x1*x2*x3*x4*x6*x7*x8+x1*x2*x3*x5*x6*x7*x8+x1*x2*x4*x5*x6*x7*x8+x1*x3*x4*x5*x6*x7*x8+x2*x3*x4*x5*x6*x7*x8,
> x1*x2*x3*x4*x5*x6*x7*x8-1^8]:
> 
# cyclic-8-homog
> vcyc8h:=[x1,x2,x3,x4,x5,x6,x7,x8,x9]:
> cyc8h:=[
> x1+x2+x3+x4+x5+x6+x7+x8,
> x1*x2+x2*x3+x3*x4+x4*x5+x5*x6+x6*x7+x1*x8+x7*x8,
> x1*x2*x3+x2*x3*x4+x3*x4*x5+x4*x5*x6+x5*x6*x7+x1*x2*x8+x1*x7*x8+x6*x7*x8,
> x1*x2*x3*x4+x2*x3*x4*x5+x3*x4*x5*x6+x4*x5*x6*x7+x1*x2*x3*x8+x1*x2*x7*x8+x1*x6*x7*x8+x5*x6*x7*x8,
> x1*x2*x3*x4*x5+x2*x3*x4*x5*x6+x3*x4*x5*x6*x7+x1*x2*x3*x4*x8+x1*x2*x3*x7*x8+x1*x2*x6*x7*x8+x1*x5*x6*x7*x8+x4*x5*x6*x7*x8,
> x1*x2*x3*x4*x5*x6+x2*x3*x4*x5*x6*x7+x1*x2*x3*x4*x5*x8+x1*x2*x3*x4*x7*x8+x1*x2*x3*x6*x7*x8+x1*x2*x5*x6*x7*x8+x1*x4*x5*x6*x7*x8+x3*x4*x5*x6*x7*x8,
> x1*x2*x3*x4*x5*x6*x7+x1*x2*x3*x4*x5*x6*x8+x1*x2*x3*x4*x5*x7*x8+x1*x2*x3*x4*x6*x7*x8+x1*x2*x3*x5*x6*x7*x8+x1*x2*x4*x5*x6*x7*x8+x1*x3*x4*x5*x6*x7*x8+x2*x3*x4*x5*x6*x7*x8,
> x1*x2*x3*x4*x5*x6*x7*x8-x9^8]:
> 
# cyclic-9-affine
> vcyc9a:=[x1,x2,x3,x4,x5,x6,x7,x8,x9]:
> cyc9a:=[
> x1+x2+x3+x4+x5+x6+x7+x8+x9,
> x1*x2+x2*x3+x3*x4+x4*x5+x5*x6+x6*x7+x7*x8+x1*x9+x8*x9,
> x1*x2*x3+x2*x3*x4+x3*x4*x5+x4*x5*x6+x5*x6*x7+x6*x7*x8+x1*x2*x9+x1*x8*x9+x7*x8*x9,
> x1*x2*x3*x4+x2*x3*x4*x5+x3*x4*x5*x6+x4*x5*x6*x7+x5*x6*x7*x8+x1*x2*x3*x9+x1*x2*x8*x9+x1*x7*x8*x9+x6*x7*x8*x9,
> x1*x2*x3*x4*x5+x2*x3*x4*x5*x6+x3*x4*x5*x6*x7+x4*x5*x6*x7*x8+x1*x2*x3*x4*x9+x1*x2*x3*x8*x9+x1*x2*x7*x8*x9+x1*x6*x7*x8*x9+x5*x6*x7*x8*x9,
> x1*x2*x3*x4*x5*x6+x2*x3*x4*x5*x6*x7+x3*x4*x5*x6*x7*x8+x1*x2*x3*x4*x5*x9+x1*x2*x3*x4*x8*x9+x1*x2*x3*x7*x8*x9+x1*x2*x6*x7*x8*x9+x1*x5*x6*x7*x8*x9+x4*x5*x6*x7*x8*x9,
> x1*x2*x3*x4*x5*x6*x7+x2*x3*x4*x5*x6*x7*x8+x1*x2*x3*x4*x5*x6*x9+x1*x2*x3*x4*x5*x8*x9+x1*x2*x3*x4*x7*x8*x9+x1*x2*x3*x6*x7*x8*x9+x1*x2*x5*x6*x7*x8*x9+x1*x4*x5*x6*x7*x8*x9+x3*x4*x5*x6*x7*x8*x9,
> x1*x2*x3*x4*x5*x6*x7*x8+x1*x2*x3*x4*x5*x6*x7*x9+x1*x2*x3*x4*x5*x6*x8*x9+x1*x2*x3*x4*x5*x7*x8*x9+x1*x2*x3*x4*x6*x7*x8*x9+x1*x2*x3*x5*x6*x7*x8*x9+x1*x2*x4*x5*x6*x7*x8*x9+x1*x3*x4*x5*x6*x7*x8*x9+x2*x3*x4*x5*x6*x7*x8*x9,
> x1*x2*x3*x4*x5*x6*x7*x8*x9-1
> ]:
> 
# cyclic-10-affine
> vcyc10a:=[x1,x2,x3,x4,x5,x6,x7,x8,x9,x10]:
> cyc10a:=[
> x1+x2+x3+x4+x5+x6+x7+x8+x9+x10,
> x1*x2+x2*x3+x3*x4+x4*x5+x5*x6+x6*x7+x7*x8+x8*x9+x1*x10+x9*x10,
> x1*x2*x3+x2*x3*x4+x3*x4*x5+x4*x5*x6+x5*x6*x7+x6*x7*x8+x7*x8*x9+x1*x2*x10+x1*x9*x10+x8*x9*x10,
> x1*x2*x3*x4+x2*x3*x4*x5+x3*x4*x5*x6+x4*x5*x6*x7+x5*x6*x7*x8+x6*x7*x8*x9+x1*x2*x3*x10+x1*x2*x9*x10+x1*x8*x9*x10+x7*x8*x9*x10,
> x1*x2*x3*x4*x5+x2*x3*x4*x5*x6+x3*x4*x5*x6*x7+x4*x5*x6*x7*x8+x5*x6*x7*x8*x9+x1*x2*x3*x4*x10+x1*x2*x3*x9*x10+x1*x2*x8*x9*x10+x1*x7*x8*x9*x10+x6*x7*x8*x9*x10,
> x1*x2*x3*x4*x5*x6+x2*x3*x4*x5*x6*x7+x3*x4*x5*x6*x7*x8+x4*x5*x6*x7*x8*x9+x1*x2*x3*x4*x5*x10+x1*x2*x3*x4*x9*x10+x1*x2*x3*x8*x9*x10+x1*x2*x7*x8*x9*x10+x1*x6*x7*x8*x9*x10+x5*x6*x7*x8*x9*x10,
> x1*x2*x3*x4*x5*x6*x7+x2*x3*x4*x5*x6*x7*x8+x3*x4*x5*x6*x7*x8*x9+x1*x2*x3*x4*x5*x6*x10+x1*x2*x3*x4*x5*x9*x10+x1*x2*x3*x4*x8*x9*x10+x1*x2*x3*x7*x8*x9*x10+x1*x2*x6*x7*x8*x9*x10+x1*x5*x6*x7*x8*x9*x10+x4*x5*x6*x7*x8*x9*x10,
> x1*x2*x3*x4*x5*x6*x7*x8+x2*x3*x4*x5*x6*x7*x8*x9+x1*x2*x3*x4*x5*x6*x7*x10+x1*x2*x3*x4*x5*x6*x9*x10+x1*x2*x3*x4*x5*x8*x9*x10+x1*x2*x3*x4*x7*x8*x9*x10+x1*x2*x3*x6*x7*x8*x9*x10+x1*x2*x5*x6*x7*x8*x9*x10+x1*x4*x5*x6*x7*x8*x9*x10+x3*x4*x5*x6*x7*x8*x9*x10,
> x1*x2*x3*x4*x5*x6*x7*x8*x9+x1*x2*x3*x4*x5*x6*x7*x8*x10+x1*x2*x3*x4*x5*x6*x7*x9*x10+x1*x2*x3*x4*x5*x6*x8*x9*x10+x1*x2*x3*x4*x5*x7*x8*x9*x10+x1*x2*x3*x4*x6*x7*x8*x9*x10+x1*x2*x3*x5*x6*x7*x8*x9*x10+x1*x2*x4*x5*x6*x7*x8*x9*x10+x1*x3*x4*x5*x6*x7*x8*x9*x10+x2*x3*x4*x5*x6*x7*x8*x9*x10,
> x1*x2*x3*x4*x5*x6*x7*x8*x9*x10-1
> ]:
> 
# katsura-12-affine
> vkat12a:=[x1,x2,x3,x4,x5,x6,x7,x8,x9,x10,x11,x12]:
> kat12a:=[
> x1+2*x2+2*x3+2*x4+2*x5+2*x6+2*x7+2*x8+2*x9+2*x10+2*x11+2*x12-1,
> x1^2+2*x2^2+2*x3^2+2*x4^2+2*x5^2+2*x6^2+2*x7^2+2*x8^2+2*x9^2+2*x10^2+2*x11^2+2*x12^2-x1,
> 2*x1*x2+2*x2*x3+2*x3*x4+2*x4*x5+2*x5*x6+2*x6*x7+2*x7*x8+2*x8*x9+2*x9*x10+2*x10*x11+2*x11*x12-x2,
> x2^2+2*x1*x3+2*x2*x4+2*x3*x5+2*x4*x6+2*x5*x7+2*x6*x8+2*x7*x9+2*x8*x10+2*x9*x11+2*x10*x12-x3,
> 2*x2*x3+2*x1*x4+2*x2*x5+2*x3*x6+2*x4*x7+2*x5*x8+2*x6*x9+2*x7*x10+2*x8*x11+2*x9*x12-x4,
> x3^2+2*x2*x4+2*x1*x5+2*x2*x6+2*x3*x7+2*x4*x8+2*x5*x9+2*x6*x10+2*x7*x11+2*x8*x12-x5,
> 2*x3*x4+2*x2*x5+2*x1*x6+2*x2*x7+2*x3*x8+2*x4*x9+2*x5*x10+2*x6*x11+2*x7*x12-x6,
> x4^2+2*x3*x5+2*x2*x6+2*x1*x7+2*x2*x8+2*x3*x9+2*x4*x10+2*x5*x11+2*x6*x12-x7,
> 2*x4*x5+2*x3*x6+2*x2*x7+2*x1*x8+2*x2*x9+2*x3*x10+2*x4*x11+2*x5*x12-x8,
> x5^2+2*x4*x6+2*x3*x7+2*x2*x8+2*x1*x9+2*x2*x10+2*x3*x11+2*x4*x12-x9,
> 2*x5*x6+2*x4*x7+2*x3*x8+2*x2*x9+2*x1*x10+2*x2*x11+2*x3*x12-x10,
> x6^2+2*x5*x7+2*x4*x8+2*x3*x9+2*x2*x10+2*x1*x11+2*x2*x12-x11
> ]:
> 
# katsura-13-affine
> vkat13a:=[x1,x2,x3,x4,x5,x6,x7,x8,x9,x10,x11,x12,x13]:
> kat13a:=[
> x1+2*x2+2*x3+2*x4+2*x5+2*x6+2*x7+2*x8+2*x9+2*x10+2*x11+2*x12+2*x13-1,
> x1^2+2*x2^2+2*x3^2+2*x4^2+2*x5^2+2*x6^2+2*x7^2+2*x8^2+2*x9^2+2*x10^2+2*x11^2+2*x12^2+2*x13^2-x1,
> 2*x1*x2+2*x2*x3+2*x3*x4+2*x4*x5+2*x5*x6+2*x6*x7+2*x7*x8+2*x8*x9+2*x9*x10+2*x10*x11+2*x11*x12+2*x12*x13-x2,
> x2^2+2*x1*x3+2*x2*x4+2*x3*x5+2*x4*x6+2*x5*x7+2*x6*x8+2*x7*x9+2*x8*x10+2*x9*x11+2*x10*x12+2*x11*x13-x3,
> 2*x2*x3+2*x1*x4+2*x2*x5+2*x3*x6+2*x4*x7+2*x5*x8+2*x6*x9+2*x7*x10+2*x8*x11+2*x9*x12+2*x10*x13-x4,
> x3^2+2*x2*x4+2*x1*x5+2*x2*x6+2*x3*x7+2*x4*x8+2*x5*x9+2*x6*x10+2*x7*x11+2*x8*x12+2*x9*x13-x5,
> 2*x3*x4+2*x2*x5+2*x1*x6+2*x2*x7+2*x3*x8+2*x4*x9+2*x5*x10+2*x6*x11+2*x7*x12+2*x8*x13-x6,
> x4^2+2*x3*x5+2*x2*x6+2*x1*x7+2*x2*x8+2*x3*x9+2*x4*x10+2*x5*x11+2*x6*x12+2*x7*x13-x7,
> 2*x4*x5+2*x3*x6+2*x2*x7+2*x1*x8+2*x2*x9+2*x3*x10+2*x4*x11+2*x5*x12+2*x6*x13-x8,
> x5^2+2*x4*x6+2*x3*x7+2*x2*x8+2*x1*x9+2*x2*x10+2*x3*x11+2*x4*x12+2*x5*x13-x9,
> 2*x5*x6+2*x4*x7+2*x3*x8+2*x2*x9+2*x1*x10+2*x2*x11+2*x3*x12+2*x4*x13-x10,
> x6^2+2*x5*x7+2*x4*x8+2*x3*x9+2*x2*x10+2*x1*x11+2*x2*x12+2*x3*x13-x11,
> 2*x6*x7+2*x5*x8+2*x4*x9+2*x3*x10+2*x2*x11+2*x1*x12+2*x2*x13-x12
> ]:
> 
# katsura-14-affine
> vkat14a:=[x1,x2,x3,x4,x5,x6,x7,x8,x9,x10,x11,x12,x13,x14]:
> kat14a:=[
> x1+2*x2+2*x3+2*x4+2*x5+2*x6+2*x7+2*x8+2*x9+2*x10+2*x11+2*x12+2*x13+2*x14-1,
> x1^2+2*x2^2+2*x3^2+2*x4^2+2*x5^2+2*x6^2+2*x7^2+2*x8^2+2*x9^2+2*x10^2+2*x11^2+2*x12^2+2*x13^2+2*x14^2-x1,
> 2*x1*x2+2*x2*x3+2*x3*x4+2*x4*x5+2*x5*x6+2*x6*x7+2*x7*x8+2*x8*x9+2*x9*x10+2*x10*x11+2*x11*x12+2*x12*x13+2*x13*x14-x2,
> x2^2+2*x1*x3+2*x2*x4+2*x3*x5+2*x4*x6+2*x5*x7+2*x6*x8+2*x7*x9+2*x8*x10+2*x9*x11+2*x10*x12+2*x11*x13+2*x12*x14-x3,
> 2*x2*x3+2*x1*x4+2*x2*x5+2*x3*x6+2*x4*x7+2*x5*x8+2*x6*x9+2*x7*x10+2*x8*x11+2*x9*x12+2*x10*x13+2*x11*x14-x4,
> x3^2+2*x2*x4+2*x1*x5+2*x2*x6+2*x3*x7+2*x4*x8+2*x5*x9+2*x6*x10+2*x7*x11+2*x8*x12+2*x9*x13+2*x10*x14-x5,
> 2*x3*x4+2*x2*x5+2*x1*x6+2*x2*x7+2*x3*x8+2*x4*x9+2*x5*x10+2*x6*x11+2*x7*x12+2*x8*x13+2*x9*x14-x6,
> x4^2+2*x3*x5+2*x2*x6+2*x1*x7+2*x2*x8+2*x3*x9+2*x4*x10+2*x5*x11+2*x6*x12+2*x7*x13+2*x8*x14-x7,
> 2*x4*x5+2*x3*x6+2*x2*x7+2*x1*x8+2*x2*x9+2*x3*x10+2*x4*x11+2*x5*x12+2*x6*x13+2*x7*x14-x8,
> x5^2+2*x4*x6+2*x3*x7+2*x2*x8+2*x1*x9+2*x2*x10+2*x3*x11+2*x4*x12+2*x5*x13+2*x6*x14-x9,
> 2*x5*x6+2*x4*x7+2*x3*x8+2*x2*x9+2*x1*x10+2*x2*x11+2*x3*x12+2*x4*x13+2*x5*x14-x10,
> x6^2+2*x5*x7+2*x4*x8+2*x3*x9+2*x2*x10+2*x1*x11+2*x2*x12+2*x3*x13+2*x4*x14-x11,
> 2*x6*x7+2*x5*x8+2*x4*x9+2*x3*x10+2*x2*x11+2*x1*x12+2*x2*x13+2*x3*x14-x12,
> x7^2+2*x6*x8+2*x5*x9+2*x4*x10+2*x3*x11+2*x2*x12+2*x1*x13+2*x2*x14-x13
> ]:
> 
#katsura-16-affine
> vkat16a:=[x1,x2,x3,x4,x5,x6,x7,x8,x9,x10,x11,x12,x13,x14,x15,x16]:
> kat16a:=[
> x1+2*x2+2*x3+2*x4+2*x5+2*x6+2*x7+2*x8+2*x9+2*x10+2*x11+2*x12+2*x13+2*x14+2*x15+2*x16-1,
> x1^2+2*x2^2+2*x3^2+2*x4^2+2*x5^2+2*x6^2+2*x7^2+2*x8^2+2*x9^2+2*x10^2+2*x11^2+2*x12^2+2*x13^2+2*x14^2+2*x15^2+2*x16^2-x1,
> 2*x1*x2+2*x2*x3+2*x3*x4+2*x4*x5+2*x5*x6+2*x6*x7+2*x7*x8+2*x8*x9+2*x9*x10+2*x10*x11+2*x11*x12+2*x12*x13+2*x13*x14+2*x14*x15+2*x15*x16-x2,
> x2^2+2*x1*x3+2*x2*x4+2*x3*x5+2*x4*x6+2*x5*x7+2*x6*x8+2*x7*x9+2*x8*x10+2*x9*x11+2*x10*x12+2*x11*x13+2*x12*x14+2*x13*x15+2*x14*x16-x3,
> 2*x2*x3+2*x1*x4+2*x2*x5+2*x3*x6+2*x4*x7+2*x5*x8+2*x6*x9+2*x7*x10+2*x8*x11+2*x9*x12+2*x10*x13+2*x11*x14+2*x12*x15+2*x13*x16-x4,
> x3^2+2*x2*x4+2*x1*x5+2*x2*x6+2*x3*x7+2*x4*x8+2*x5*x9+2*x6*x10+2*x7*x11+2*x8*x12+2*x9*x13+2*x10*x14+2*x11*x15+2*x12*x16-x5,
> 2*x3*x4+2*x2*x5+2*x1*x6+2*x2*x7+2*x3*x8+2*x4*x9+2*x5*x10+2*x6*x11+2*x7*x12+2*x8*x13+2*x9*x14+2*x10*x15+2*x11*x16-x6,
> x4^2+2*x3*x5+2*x2*x6+2*x1*x7+2*x2*x8+2*x3*x9+2*x4*x10+2*x5*x11+2*x6*x12+2*x7*x13+2*x8*x14+2*x9*x15+2*x10*x16-x7,
> 2*x4*x5+2*x3*x6+2*x2*x7+2*x1*x8+2*x2*x9+2*x3*x10+2*x4*x11+2*x5*x12+2*x6*x13+2*x7*x14+2*x8*x15+2*x9*x16-x8,
> x5^2+2*x4*x6+2*x3*x7+2*x2*x8+2*x1*x9+2*x2*x10+2*x3*x11+2*x4*x12+2*x5*x13+2*x6*x14+2*x7*x15+2*x8*x16-x9,
> 2*x5*x6+2*x4*x7+2*x3*x8+2*x2*x9+2*x1*x10+2*x2*x11+2*x3*x12+2*x4*x13+2*x5*x14+2*x6*x15+2*x7*x16-x10,
> x6^2+2*x5*x7+2*x4*x8+2*x3*x9+2*x2*x10+2*x1*x11+2*x2*x12+2*x3*x13+2*x4*x14+2*x5*x15+2*x6*x16-x11,
> 2*x6*x7+2*x5*x8+2*x4*x9+2*x3*x10+2*x2*x11+2*x1*x12+2*x2*x13+2*x3*x14+2*x4*x15+2*x5*x16-x12,
> x7^2+2*x6*x8+2*x5*x9+2*x4*x10+2*x3*x11+2*x2*x12+2*x1*x13+2*x2*x14+2*x3*x15+2*x4*x16-x13,
> 2*x7*x8+2*x6*x9+2*x5*x10+2*x4*x11+2*x3*x12+2*x2*x13+2*x1*x14+2*x2*x15+2*x3*x16-x14,
> x8^2+2*x7*x9+2*x6*x10+2*x5*x11+2*x4*x12+2*x3*x13+2*x2*x14+2*x1*x15+2*x2*x16-x15
> ]:
> 
# alea6
# large coefficients, easy images
> var := [x0,x1,x2,x3,x4,x5]:
> sys := [5*x0^2*x3+37*x1*x3*x4+32*x1*x3*x5+21*x3*x5+55*x4*x5,
> 39*x0*x1*x5+23*x1^2*x4+57*x1*x2*x4+56*x1*x4^2+10*x2^2+52*x3*x4*x5,
> 33*x0^2*x3+51*x0^2+42*x0*x3*x5+51*x1^2*x4+32*x1*x3^2+x5^3,
> 44*x0*x3^2+42*x1*x3+47*x1*x4^2+12*x2*x3+2*x2*x4*x5+43*x3*x4^2,
> 49*x0^2*x2+11*x0*x1*x2+39*x0*x3*x4+44*x0*x3*x4+54*x0*x3+45*x1^2*x4,
> 48*x0*x2*x3+2*x2^2*x3+59*x2^2*x5+17*x2+36*x3^3+45*x4]:
> 
# bayes148
# sparse with many monomial divisions
> vbayes148 := [x1, x2, x3, x4, x5, x6, x7, x8, x9, x10, x11, x12, x13, x14, x15, x16, x17, x18, x19, x20, x21, x22, x23, x24, x25, x26, x27, x28, x29, x30, x31, x32]:
> bayes148 := [-x23*x32+x24*x31, -x22*x32+x24*x30, -x22*x31+x23*x30, -x21*x32+x24*x29, -x21*x31+x23*x29, -x21*x30+x22*x29, -x12*x32+x16*x28,  -x19*x28+x20*x27,
> -x11*x31+x15*x27, -x18*x28+x20*x26, -x18*x27+x19*x26, -x10*x30+x14*x26, -x17*x28+x20*x25, -x17*x27+x19*x25, -x17*x26+x18*x25, -x9*x29+x13*x25, x20*x8-x24*x4,
> -x17*x20-x17*x24-2*x17*x28-x17*x32+x18*x19+x18*x23+2*x18*x27+x18*x31+x19*x22+x19*x30-x20*x21-x20*x29-x21*x24-x21*x28-2*x21*x32+x22*x23+x22*x27+2*x22*x31+x23*x26-x24*x25-x25*x28-x25*x32+x26*x27+x26*x31+x27*x30-x28*x29-x29*x32+x30*x31,
> x19*x7-x23*x3, x18*x6-x2*x22, -x1*x21+x17*x5]:
> 
#alea6
# large coefficients, easy images
> vaalea6 := [x0,x1,x2,x3,x4,x5]:
> alea6 := [5*x0^2*x3+37*x1*x3*x4+32*x1*x3*x5+21*x3*x5+55*x4*x5,
> 39*x0*x1*x5+23*x1^2*x4+57*x1*x2*x4+56*x1*x4^2+10*x2^2+52*x3*x4*x5,
> 33*x0^2*x3+51*x0^2+42*x0*x3*x5+51*x1^2*x4+32*x1*x3^2+x5^3,
> 44*x0*x3^2+42*x1*x3+47*x1*x4^2+12*x2*x3+2*x2*x4*x5+43*x3*x4^2,
> 49*x0^2*x2+11*x0*x1*x2+39*x0*x3*x4+44*x0*x3*x4+54*x0*x3+45*x1^2*x4,
> 48*x0*x2*x3+2*x2^2*x3+59*x2^2*x5+17*x2+36*x3^3+45*x4]:
> 
> 
# gametwo7
# dense linear algebra
> vgametwo7 := [p1,p2,p3,p4,p5,p6,p7]:
> gametwo7 := [
> 3821*p2*p3*p4*p5*p6*p7-7730*p2*p3*p4*p5*p6-164*p2*p3*p4*p5*p7-2536*p2*p3*p4*p6*p7-4321*p2*p3*p5*p6*p7-2161*p2*p4*p5*p6*p7-2188*p3*p4*p5*p6*p7-486*p2*p3*p4*p5+3491*p2*p3*p4*p6+4247*p2*p3*p5*p6+3528*p2*p4*p5*p6+2616*p3*p4*p5*p6-101*p2*p3*p4*p7+1765*p2*p3*p5*p7+258*p2*p4*p5*p7-378*p3*p4*p5*p7+1246*p2*p3*p6*p7+2320*p2*p4*p6*p7+1776*p3*p4*p6*p7+1715*p2*p5*p6*p7+728*p3*p5*p6*p7+842*p4*p5*p6*p7+69*p2*p3*p4-1660*p2*p3*p5+1863*p2*p4*p5+1520*p3*p4*p5-245*p2*p3*p6-804*p2*p4*p6-2552*p3*p4*p6-3152*p2*p5*p6+40*p3*p5*p6-1213*p4*p5*p6+270*p2*p3*p7-851*p2*p4*p7+327*p3*p4*p7-1151*p2*p5*p7+1035*p3*p5*p7-161*p4*p5*p7-230*p2*p6*p7-294*p3*p6*p7-973*p4*p6*p7-264*p5*p6*p7+874*p2*p3-2212*p2*p4+168*p3*p4+511*p2*p5-918*p3*p5-2017*p4*p5-76*p2*p6+465*p3*p6+1629*p4*p6+856*p5*p6-54*p2*p7-1355*p3*p7+227*p4*p7+77*p5*p7-220*p6*p7-696*p2+458*p3+486*p4+661*p5-650*p6+671*p7-439,
> -6157*p1*p3*p4*p5*p6*p7+13318*p1*p3*p4*p5*p6+5928*p1*p3*p4*p5*p7+1904*p1*p3*p4*p6*p7+2109*p1*p3*p5*p6*p7+8475*p1*p4*p5*p6*p7+2878*p3*p4*p5*p6*p7-8339*p1*p3*p4*p5-2800*p1*p3*p4*p6-9649*p1*p3*p5*p6-10964*p1*p4*p5*p6-4481*p3*p4*p5*p6+251*p1*p3*p4*p7-4245*p1*p3*p5*p7-7707*p1*p4*p5*p7-2448*p3*p4*p5*p7+1057*p1*p3*p6*p7-3605*p1*p4*p6*p7+546*p3*p4*p6*p7-3633*p1*p5*p6*p7-699*p3*p5*p6*p7-4126*p4*p5*p6*p7-730*p1*p3*p4+5519*p1*p3*p5+8168*p1*p4*p5+4366*p3*p4*p5+2847*p1*p3*p6+2058*p1*p4*p6-1416*p3*p4*p6+8004*p1*p5*p6+4740*p3*p5*p6+5361*p4*p5*p6-677*p1*p3*p7+1755*p1*p4*p7-760*p3*p4*p7+3384*p1*p5*p7+2038*p3*p5*p7+4119*p4*p5*p7+812*p1*p6*p7+11*p3*p6*p7+2022*p4*p6*p7+2642*p5*p6*p7+1276*p1*p3-1723*p1*p4+121*p3*p4-6456*p1*p5-3710*p3*p5-4525*p4*p5-2187*p1*p6-1559*p3*p6-848*p4*p6-4041*p5*p6-83*p1*p7-12*p3*p7-1180*p4*p7-2747*p5*p7-1970*p6*p7+2575*p1-161*p3+2149*p4+4294*p5+1687*p6+958*p7-1950,
> 182*p1*p2*p4*p5*p6*p7-2824*p1*p2*p4*p5*p6-3513*p1*p2*p4*p5*p7-3386*p1*p2*p4*p6*p7-2330*p1*p2*p5*p6*p7-2838*p1*p4*p5*p6*p7+1294*p2*p4*p5*p6*p7+4764*p1*p2*p4*p5+1647*p1*p2*p4*p6+4221*p1*p2*p5*p6+814*p1*p4*p5*p6+2738*p2*p4*p5*p6+4057*p1*p2*p4*p7+2403*p1*p2*p5*p7+2552*p1*p4*p5*p7+471*p2*p4*p5*p7+448*p1*p2*p6*p7+2336*p1*p4*p6*p7+1617*p2*p4*p6*p7+2220*p1*p5*p6*p7-1543*p2*p5*p6*p7+402*p4*p5*p6*p7-5184*p1*p2*p4-3983*p1*p2*p5+44*p1*p4*p5-1327*p2*p4*p5-581*p1*p2*p6-389*p1*p4*p6-2722*p2*p4*p6+443*p1*p5*p6-2893*p2*p5*p6-154*p4*p5*p6-1277*p1*p2*p7-2018*p1*p4*p7-509*p2*p4*p7-1254*p1*p5*p7+602*p2*p5*p7-464*p4*p5*p7-647*p1*p6*p7+922*p2*p6*p7-1463*p4*p6*p7+729*p5*p6*p7+2665*p1*p2+591*p1*p4+981*p2*p4-444*p1*p5+1818*p2*p5-1985*p4*p5-1818*p1*p6+197*p2*p6+1038*p4*p6+340*p5*p6+399*p1*p7-835*p2*p7+787*p4*p7-753*p5*p7-221*p6*p7+481*p1+260*p2+1713*p4+1219*p5+794*p6+762*p7-1231,
> 2923*p1*p2*p3*p5*p6*p7-4328*p1*p2*p3*p5*p6-3674*p1*p2*p3*p5*p7-3291*p1*p2*p3*p6*p7-4955*p1*p2*p5*p6*p7-8*p1*p3*p5*p6*p7-135*p2*p3*p5*p6*p7+7784*p1*p2*p3*p5+3471*p1*p2*p3*p6+1544*p1*p2*p5*p6+1607*p1*p3*p5*p6+1710*p2*p3*p5*p6+2434*p1*p2*p3*p7+1408*p1*p2*p5*p7-215*p1*p3*p5*p7+507*p2*p3*p5*p7+2208*p1*p2*p6*p7+1920*p1*p3*p6*p7-389*p2*p3*p6*p7+1304*p1*p5*p6*p7+2480*p2*p5*p6*p7+102*p3*p5*p6*p7-2683*p1*p2*p3-3508*p1*p2*p5-3505*p1*p3*p5-2400*p2*p3*p5-2236*p1*p2*p6-1727*p1*p3*p6-1354*p2*p3*p6-1022*p1*p5*p6-2099*p2*p5*p6-918*p3*p5*p6-495*p1*p2*p7-109*p1*p3*p7+474*p2*p3*p7+268*p1*p5*p7+1084*p2*p5*p7-190*p3*p5*p7-666*p1*p6*p7-497*p2*p6*p7+615*p3*p6*p7-912*p5*p6*p7+473*p1*p2+742*p1*p3+186*p2*p3+1021*p1*p5+2556*p2*p5+2312*p3*p5+1075*p1*p6+920*p2*p6+164*p3*p6+80*p5*p6-199*p1*p7-1270*p2*p7-1050*p3*p7-724*p5*p7+136*p6*p7+740*p1-474*p2+37*p3-1056*p5+303*p6+833*p7+736,
> 4990*p1*p2*p3*p4*p6*p7-3067*p1*p2*p3*p4*p6-1661*p1*p2*p3*p4*p7-4064*p1*p2*p3*p6*p7-223*p1*p2*p4*p6*p7-5229*p1*p3*p4*p6*p7-4636*p2*p3*p4*p6*p7+5720*p1*p2*p3*p4+4872*p1*p2*p3*p6+1643*p1*p2*p4*p6+4536*p1*p3*p4*p6+2451*p2*p3*p4*p6+1264*p1*p2*p3*p7+70*p1*p2*p4*p7+2213*p1*p3*p4*p7+1734*p2*p3*p4*p7+1698*p1*p2*p6*p7+3799*p1*p3*p6*p7+1622*p2*p3*p6*p7+901*p1*p4*p6*p7-496*p2*p4*p6*p7+3782*p3*p4*p6*p7-5591*p1*p2*p3-1303*p1*p2*p4-6383*p1*p3*p4-2332*p2*p3*p4-3179*p1*p2*p6-6257*p1*p3*p6-3654*p2*p3*p6-1830*p1*p4*p6-1473*p2*p4*p6-3278*p3*p4*p6-1462*p1*p2*p7-1495*p1*p3*p7-468*p2*p3*p7-400*p1*p4*p7+431*p2*p4*p7-1907*p3*p4*p7-1547*p1*p6*p7-214*p2*p6*p7-1423*p3*p6*p7-1625*p4*p6*p7+5708*p1*p2+3809*p1*p3+2053*p2*p3+2824*p1*p4+1122*p2*p4+3653*p3*p4+3658*p1*p6+3001*p2*p6+3890*p3*p6+2371*p4*p6+602*p1*p7+185*p2*p7+899*p3*p7+963*p4*p7+560*p6*p7-4557*p1-3536*p2-1635*p3-2552*p4-2595*p6-207*p7+2740,
> -1407*p1*p2*p3*p4*p5*p7+4444*p1*p2*p3*p4*p5+2350*p1*p2*p3*p4*p7+5424*p1*p2*p3*p5*p7-2524*p1*p2*p4*p5*p7-985*p1*p3*p4*p5*p7-431*p2*p3*p4*p5*p7-2662*p1*p2*p3*p4-5342*p1*p2*p3*p5-39*p1*p2*p4*p5-2525*p1*p3*p4*p5-2650*p2*p3*p4*p5-3553*p1*p2*p3*p7-71*p1*p2*p4*p7-3268*p1*p3*p4*p7-1140*p2*p3*p4*p7-702*p1*p2*p5*p7-924*p1*p3*p5*p7-2198*p2*p3*p5*p7+4087*p1*p4*p5*p7+2709*p2*p4*p5*p7+587*p3*p4*p5*p7+968*p1*p2*p3-150*p1*p2*p4+909*p1*p3*p4+4587*p2*p3*p4+929*p1*p2*p5+1804*p1*p3*p5+2226*p2*p3*p5-916*p1*p4*p5+906*p2*p4*p5+2735*p3*p4*p5+1894*p1*p2*p7+2998*p1*p3*p7+1611*p2*p3*p7+304*p1*p4*p7-1601*p2*p4*p7+2066*p3*p4*p7-1971*p1*p5*p7-480*p2*p5*p7-500*p3*p5*p7-2617*p4*p5*p7-532*p1*p2+2016*p1*p3-2574*p2*p3+529*p1*p4-1251*p2*p4-2082*p3*p4+280*p1*p5-852*p2*p5-476*p3*p5-340*p4*p5-924*p1*p7+253*p2*p7-1090*p3*p7+170*p4*p7+1204*p5*p7-869*p1+1394*p2-264*p3+719*p4+219*p5-128*p7+506,
> -901*p1*p2*p3*p4*p5*p6+1805*p1*p2*p3*p4*p5-1103*p1*p2*p3*p4*p6-1746*p1*p2*p3*p5*p6-1968*p1*p2*p4*p5*p6+3957*p1*p3*p4*p5*p6+1293*p2*p3*p4*p5*p6-523*p1*p2*p3*p4-2498*p1*p2*p3*p5+693*p1*p2*p4*p5-2805*p1*p3*p4*p5-722*p2*p3*p4*p5-770*p1*p2*p3*p6+1088*p1*p2*p4*p6-232*p1*p3*p4*p6+2657*p2*p3*p4*p6+3281*p1*p2*p5*p6-1066*p1*p3*p5*p6+240*p2*p3*p5*p6-1174*p1*p4*p5*p6+1304*p2*p4*p5*p6-2070*p3*p4*p5*p6+2571*p1*p2*p3+115*p1*p2*p4+3899*p1*p3*p4-4641*p2*p3*p4-752*p1*p2*p5+1531*p1*p3*p5+1178*p2*p3*p5+11*p1*p4*p5-1144*p2*p4*p5-1701*p3*p4*p5+592*p1*p2*p6+1140*p1*p3*p6+130*p2*p3*p6+304*p1*p4*p6-2273*p2*p4*p6-1224*p3*p4*p6-2*p1*p5*p6-1090*p2*p5*p6+585*p3*p5*p6+670*p4*p5*p6-1867*p1*p2-4780*p1*p3+1079*p2*p3-2435*p1*p4+2901*p2*p4+2073*p3*p4+499*p1*p5+908*p2*p5+323*p3*p5+1631*p4*p5-966*p1*p6-315*p2*p6-481*p3*p6+759*p4*p6-595*p5*p6+3233*p1-1978*p2+729*p3-1184*p4-40*p5+446*p6+282
> ]:
> 
# jason210
# sparse with many monomial divisions
> vjason210 := [x1, x2, x3, x4, x5, x6, x7, x8]:
> jason210 := [x1^2*x3^4+x1*x2*x3^2*x5^2+x1*x2*x3*x4*x5*x7+x1*x2*x3*x4*x6*x8+x1*x2*x4^2*x6^2+x2^2*x4^4, x2^6, x1^6]:
> 
# mayr42 
# sparse with many pair updates
> vmayr42 := [x1,x2,x3,x4,x5,x6,x7,x8,x9,x10,x11,x12,x13,x14,x15,x16,x17,x18,x19,x20,x21,x22,x23,x24,x25,x26,x27,x28,x29,x30,x31,x32,x33,x34,x35,x36,x37,x38,x39,x40,x41,x42,x43,x44,x45,x46,x47,x48,x49,x50,x51]:
> mayr42 := [
> -x10*x51+x4*x49, x3*x48-x51*x9, x2*x47-x51*x8, x1*x46-x51*x7,
> x4*x44-x49*x9, x3*x43-x48*x8, x2*x42-x47*x7, x1*x41-x46*x6,
> x39*x4-x49*x9, x3*x38-x48*x8, x2*x37-x47*x7, x1*x36-x46*x6, x34*x9-x49*x9, x34*x4-x5*x51,
> x33*x8-x48*x8, x3*x33-x4*x51, x32*x7-x47*x7, x2*x32-x3*x51, x31*x6-x46*x6, x1*x31-x2*x51, 
> x14*x39*x9-x29*x44*x9, x13*x38*x8-x28*x43*x8, x12*x37*x7-x27*x42*x7, x11*x36*x6-x26*x41*x6,
> x26^2*x46*x6-x51^3*x7, x11^2*x46*x6-x2*x51^3, x21^2*x41*x6-x46*x51^2*x6, x16^2*x36*x6-x46*x51^2*x6,
> x24*x30*x39*x50*x9-x29*x44*x50*x51*x9, x23*x29*x38*x49*x8-x28*x43*x49*x51*x8, x22*x28*x37*x48*x7-x27*x42*x48*x51*x7,
> x21*x27*x36*x47*x6-x26*x41*x47*x51*x6, x24*x25*x39*x45*x9-x29*x44*x45*x51*x9, x23*x24*x38*x44*x8-x28*x43*x44*x51*x8,
> x22*x23*x37*x43*x7-x27*x42*x43*x51*x7, x21*x22*x36*x42*x6-x26*x41*x42*x51*x6, x20*x24*x39*x40*x9-x29*x40*x44*x51*x9,
> x19*x23*x38*x39*x8-x28*x39*x43*x51*x8, x15*x24*x35*x39*x9-x29*x35*x44*x51*x9, x18*x22*x37*x38*x7-x27*x38*x42*x51*x7, 
> x14*x23*x34*x38*x8-x28*x34*x43*x51*x8, x17*x21*x36*x37*x6-x26*x37*x41*x51*x6, x13*x22*x33*x37*x7-x27*x33*x42*x51*x7,
> x12*x21*x32*x36*x6-x26*x32*x41*x51*x6
> ]:
> 
# noon9
# sparse all-around challenge
> vnoon9 := [x1,x2,x3,x4,x5,x6,x7,x8,x9]:
> noon9 := [
> 10*x1^2*x9+10*x2^2*x9+10*x3^2*x9+10*x4^2*x9+10*x5^2*x9+10*x6^2*x9+10*x7^2*x9+10*x8^2*x9-11*x9+10,
> 10*x1^2*x8+10*x2^2*x8+10*x3^2*x8+10*x4^2*x8+10*x5^2*x8+10*x6^2*x8+10*x7^2*x8+10*x8*x9^2-11*x8+10,
> 10*x1^2*x7+10*x2^2*x7+10*x3^2*x7+10*x4^2*x7+10*x5^2*x7+10*x6^2*x7+10*x7*x8^2+10*x7*x9^2-11*x7+10,
> 10*x1^2*x6+10*x2^2*x6+10*x3^2*x6+10*x4^2*x6+10*x5^2*x6+10*x6*x7^2+10*x6*x8^2+10*x6*x9^2-11*x6+10,
> 10*x1^2*x5+10*x2^2*x5+10*x3^2*x5+10*x4^2*x5+10*x5*x6^2+10*x5*x7^2+10*x5*x8^2+10*x5*x9^2-11*x5+10,
> 10*x1^2*x4+10*x2^2*x4+10*x3^2*x4+10*x4*x5^2+10*x4*x6^2+10*x4*x7^2+10*x4*x8^2+10*x4*x9^2-11*x4+10,
> 10*x1^2*x3+10*x2^2*x3+10*x3*x4^2+10*x3*x5^2+10*x3*x6^2+10*x3*x7^2+10*x3*x8^2+10*x3*x9^2-11*x3+10,
> 10*x1*x2^2+10*x1*x3^2+10*x1*x4^2+10*x1*x5^2+10*x1*x6^2+10*x1*x7^2+10*x1*x8^2+10*x1*x9^2-11*x1+10,
> 10*x1^2*x2+10*x2*x3^2+10*x2*x4^2+10*x2*x5^2+10*x2*x6^2+10*x2*x7^2+10*x2*x8^2+10*x2*x9^2-11*x2+10
> ]:
> 
# yang1
# sparse with many pair updates
> vyang1 := [x1, x2, x3, x4, x5, x6, x7, x8, x9, x10, x11, x12, x13, x14, x15, x16, x17, x18, x19, x20, x21, x22, x23, x24, x25, x26, x27, x28, x29, x30, x31, x32, x33, x34, x35, x36, x37, x38, x39, x40, x41, x42, x43, x44, x45, x46, x47, x48]:
> yang1 := [
> x21*x45+x22*x46+x23*x47+x24*x48, x17*x45+x18*x46+x19*x47+x20*x48, x13*x45+x14*x46+x15*x47+x16*x48, x10*x46+x11*x47+x12*x48+x45*x9, x45*x5+x46*x6+x47*x7+x48*x8, x1*x45+x2*x46+x3*x47+x4*x48, x21*x41+x22*x42+x23*x43+x24*x44,
> x17*x41+x18*x42+x19*x43+x20*x44, x13*x41+x14*x42+x15*x43+x16*x44, x10*x42+x11*x43+x12*x44+x41*x9, x41*x5+x42*x6+x43*x7+x44*x8, x1*x41+x2*x42+x3*x43+x4*x44, x21*x37+x22*x38+x23*x39+x24*x40, x17*x37+x18*x38+x19*x39+x20*x40,
> x13*x37+x14*x38+x15*x39+x16*x40, x10*x38+x11*x39+x12*x40+x37*x9, x37*x5+x38*x6+x39*x7+x40*x8, x1*x37+x2*x38+x3*x39+x4*x40, x21*x33+x22*x34+x23*x35+x24*x36, x17*x33+x18*x34+x19*x35+x20*x36, x13*x33+x14*x34+x15*x35+x16*x36,
> x10*x34+x11*x35+x12*x36+x33*x9, x33*x5+x34*x6+x35*x7+x36*x8, x1*x33+x2*x34+x3*x35+x36*x4, x21*x29+x22*x30+x23*x31+x24*x32, x17*x29+x18*x30+x19*x31+x20*x32, x13*x29+x14*x30+x15*x31+x16*x32, x10*x30+x11*x31+x12*x32+x29*x9,
> x29*x5+x30*x6+x31*x7+x32*x8, x1*x29+x2*x30+x3*x31+x32*x4, x21*x25+x22*x26+x23*x27+x24*x28, x17*x25+x18*x26+x19*x27+x20*x28, x13*x25+x14*x26+x15*x27+x16*x28, x10*x26+x11*x27+x12*x28+x25*x9, x25*x5+x26*x6+x27*x7+x28*x8, x1*x25+x2*x26+x27*x3+x28*x4,
> x33*x38*x43*x48-x33*x38*x44*x47-x33*x39*x42*x48+x33*x39*x44*x46+x33*x40*x42*x47-x33*x40*x43*x46-x34*x37*x43*x48+x34*x37*x44*x47+x34*x39*x41*x48-x34*x39*x44*x45-x34*x40*x41*x47+x34*x40*x43*x45+x35*x37*x42*x48-x35*x37*x44*x46-x35*x38*x41*x48+x35*x38*x44*x45+x35*x40*x41*x46-x35*x40*x42*x45-x36*x37*x42*x47+x36*x37*x43*x46+x36*x38*x41*x47-x36*x38*x43*x45-x36*x39*x41*x46+x36*x39*x42*x45,
> x29*x38*x43*x48-x29*x38*x44*x47-x29*x39*x42*x48+x29*x39*x44*x46+x29*x40*x42*x47-x29*x40*x43*x46-x30*x37*x43*x48+x30*x37*x44*x47+x30*x39*x41*x48-x30*x39*x44*x45-x30*x40*x41*x47+x30*x40*x43*x45+x31*x37*x42*x48-x31*x37*x44*x46-x31*x38*x41*x48+x31*x38*x44*x45+x31*x40*x41*x46-x31*x40*x42*x45-x32*x37*x42*x47+x32*x37*x43*x46+x32*x38*x41*x47-x32*x38*x43*x45-x32*x39*x41*x46+x32*x39*x42*x45,
> x25*x38*x43*x48-x25*x38*x44*x47-x25*x39*x42*x48+x25*x39*x44*x46+x25*x40*x42*x47-x25*x40*x43*x46-x26*x37*x43*x48+x26*x37*x44*x47+x26*x39*x41*x48-x26*x39*x44*x45-x26*x40*x41*x47+x26*x40*x43*x45+x27*x37*x42*x48-x27*x37*x44*x46-x27*x38*x41*x48+x27*x38*x44*x45+x27*x40*x41*x46-x27*x40*x42*x45-x28*x37*x42*x47+x28*x37*x43*x46+x28*x38*x41*x47-x28*x38*x43*x45-x28*x39*x41*x46+x28*x39*x42*x45,
> x29*x34*x43*x48-x29*x34*x44*x47-x29*x35*x42*x48+x29*x35*x44*x46+x29*x36*x42*x47-x29*x36*x43*x46-x30*x33*x43*x48+x30*x33*x44*x47+x30*x35*x41*x48-x30*x35*x44*x45-x30*x36*x41*x47+x30*x36*x43*x45+x31*x33*x42*x48-x31*x33*x44*x46-x31*x34*x41*x48+x31*x34*x44*x45+x31*x36*x41*x46-x31*x36*x42*x45-x32*x33*x42*x47+x32*x33*x43*x46+x32*x34*x41*x47-x32*x34*x43*x45-x32*x35*x41*x46+x32*x35*x42*x45,
> x25*x34*x43*x48-x25*x34*x44*x47-x25*x35*x42*x48+x25*x35*x44*x46+x25*x36*x42*x47-x25*x36*x43*x46-x26*x33*x43*x48+x26*x33*x44*x47+x26*x35*x41*x48-x26*x35*x44*x45-x26*x36*x41*x47+x26*x36*x43*x45+x27*x33*x42*x48-x27*x33*x44*x46-x27*x34*x41*x48+x27*x34*x44*x45+x27*x36*x41*x46-x27*x36*x42*x45-x28*x33*x42*x47+x28*x33*x43*x46+x28*x34*x41*x47-x28*x34*x43*x45-x28*x35*x41*x46+x28*x35*x42*x45,
> x25*x30*x43*x48-x25*x30*x44*x47-x25*x31*x42*x48+x25*x31*x44*x46+x25*x32*x42*x47-x25*x32*x43*x46-x26*x29*x43*x48+x26*x29*x44*x47+x26*x31*x41*x48-x26*x31*x44*x45-x26*x32*x41*x47+x26*x32*x43*x45+x27*x29*x42*x48-x27*x29*x44*x46-x27*x30*x41*x48+x27*x30*x44*x45+x27*x32*x41*x46-x27*x32*x42*x45-x28*x29*x42*x47+x28*x29*x43*x46+x28*x30*x41*x47-x28*x30*x43*x45-x28*x31*x41*x46+x28*x31*x42*x45,
> x29*x34*x39*x48-x29*x34*x40*x47-x29*x35*x38*x48+x29*x35*x40*x46+x29*x36*x38*x47-x29*x36*x39*x46-x30*x33*x39*x48+x30*x33*x40*x47+x30*x35*x37*x48-x30*x35*x40*x45-x30*x36*x37*x47+x30*x36*x39*x45+x31*x33*x38*x48-x31*x33*x40*x46-x31*x34*x37*x48+x31*x34*x40*x45+x31*x36*x37*x46-x31*x36*x38*x45-x32*x33*x38*x47+x32*x33*x39*x46+x32*x34*x37*x47-x32*x34*x39*x45-x32*x35*x37*x46+x32*x35*x38*x45,
> x25*x34*x39*x48-x25*x34*x40*x47-x25*x35*x38*x48+x25*x35*x40*x46+x25*x36*x38*x47-x25*x36*x39*x46-x26*x33*x39*x48+x26*x33*x40*x47+x26*x35*x37*x48-x26*x35*x40*x45-x26*x36*x37*x47+x26*x36*x39*x45+x27*x33*x38*x48-x27*x33*x40*x46-x27*x34*x37*x48+x27*x34*x40*x45+x27*x36*x37*x46-x27*x36*x38*x45-x28*x33*x38*x47+x28*x33*x39*x46+x28*x34*x37*x47-x28*x34*x39*x45-x28*x35*x37*x46+x28*x35*x38*x45,
> x25*x30*x39*x48-x25*x30*x40*x47-x25*x31*x38*x48+x25*x31*x40*x46+x25*x32*x38*x47-x25*x32*x39*x46-x26*x29*x39*x48+x26*x29*x40*x47+x26*x31*x37*x48-x26*x31*x40*x45-x26*x32*x37*x47+x26*x32*x39*x45+x27*x29*x38*x48-x27*x29*x40*x46-x27*x30*x37*x48+x27*x30*x40*x45+x27*x32*x37*x46-x27*x32*x38*x45-x28*x29*x38*x47+x28*x29*x39*x46+x28*x30*x37*x47-x28*x30*x39*x45-x28*x31*x37*x46+x28*x31*x38*x45,
> x25*x30*x35*x48-x25*x30*x36*x47-x25*x31*x34*x48+x25*x31*x36*x46+x25*x32*x34*x47-x25*x32*x35*x46-x26*x29*x35*x48+x26*x29*x36*x47+x26*x31*x33*x48-x26*x31*x36*x45-x26*x32*x33*x47+x26*x32*x35*x45+x27*x29*x34*x48-x27*x29*x36*x46-x27*x30*x33*x48+x27*x30*x36*x45+x27*x32*x33*x46-x27*x32*x34*x45-x28*x29*x34*x47+x28*x29*x35*x46+x28*x30*x33*x47-x28*x30*x35*x45-x28*x31*x33*x46+x28*x31*x34*x45,
> x29*x34*x39*x44-x29*x34*x40*x43-x29*x35*x38*x44+x29*x35*x40*x42+x29*x36*x38*x43-x29*x36*x39*x42-x30*x33*x39*x44+x30*x33*x40*x43+x30*x35*x37*x44-x30*x35*x40*x41-x30*x36*x37*x43+x30*x36*x39*x41+x31*x33*x38*x44-x31*x33*x40*x42-x31*x34*x37*x44+x31*x34*x40*x41+x31*x36*x37*x42-x31*x36*x38*x41-x32*x33*x38*x43+x32*x33*x39*x42+x32*x34*x37*x43-x32*x34*x39*x41-x32*x35*x37*x42+x32*x35*x38*x41,
> x25*x34*x39*x44-x25*x34*x40*x43-x25*x35*x38*x44+x25*x35*x40*x42+x25*x36*x38*x43-x25*x36*x39*x42-x26*x33*x39*x44+x26*x33*x40*x43+x26*x35*x37*x44-x26*x35*x40*x41-x26*x36*x37*x43+x26*x36*x39*x41+x27*x33*x38*x44-x27*x33*x40*x42-x27*x34*x37*x44+x27*x34*x40*x41+x27*x36*x37*x42-x27*x36*x38*x41-x28*x33*x38*x43+x28*x33*x39*x42+x28*x34*x37*x43-x28*x34*x39*x41-x28*x35*x37*x42+x28*x35*x38*x41,
> x25*x30*x39*x44-x25*x30*x40*x43-x25*x31*x38*x44+x25*x31*x40*x42+x25*x32*x38*x43-x25*x32*x39*x42-x26*x29*x39*x44+x26*x29*x40*x43+x26*x31*x37*x44-x26*x31*x40*x41-x26*x32*x37*x43+x26*x32*x39*x41+x27*x29*x38*x44-x27*x29*x40*x42-x27*x30*x37*x44+x27*x30*x40*x41+x27*x32*x37*x42-x27*x32*x38*x41-x28*x29*x38*x43+x28*x29*x39*x42+x28*x30*x37*x43-x28*x30*x39*x41-x28*x31*x37*x42+x28*x31*x38*x41,
> x25*x30*x35*x44-x25*x30*x36*x43-x25*x31*x34*x44+x25*x31*x36*x42+x25*x32*x34*x43-x25*x32*x35*x42-x26*x29*x35*x44+x26*x29*x36*x43+x26*x31*x33*x44-x26*x31*x36*x41-x26*x32*x33*x43+x26*x32*x35*x41+x27*x29*x34*x44-x27*x29*x36*x42-x27*x30*x33*x44+x27*x30*x36*x41+x27*x32*x33*x42-x27*x32*x34*x41-x28*x29*x34*x43+x28*x29*x35*x42+x28*x30*x33*x43-x28*x30*x35*x41-x28*x31*x33*x42+x28*x31*x34*x41,
> x25*x30*x35*x40-x25*x30*x36*x39-x25*x31*x34*x40+x25*x31*x36*x38+x25*x32*x34*x39-x25*x32*x35*x38-x26*x29*x35*x40+x26*x29*x36*x39+x26*x31*x33*x40-x26*x31*x36*x37-x26*x32*x33*x39+x26*x32*x35*x37+x27*x29*x34*x40-x27*x29*x36*x38-x27*x30*x33*x40+x27*x30*x36*x37+x27*x32*x33*x38-x27*x32*x34*x37-x28*x29*x34*x39+x28*x29*x35*x38+x28*x30*x33*x39-x28*x30*x35*x37-x28*x31*x33*x38+x28*x31*x34*x37,
> -x10*x13*x19*x24+x10*x13*x20*x23+x10*x15*x17*x24-x10*x15*x20*x21-x10*x16*x17*x23+x10*x16*x19*x21+x11*x13*x18*x24-x11*x13*x20*x22-x11*x14*x17*x24+x11*x14*x20*x21+x11*x16*x17*x22-x11*x16*x18*x21-x12*x13*x18*x23+x12*x13*x19*x22+x12*x14*x17*x23-x12*x14*x19*x21-x12*x15*x17*x22+x12*x15*x18*x21+x14*x19*x24*x9-x14*x20*x23*x9-x15*x18*x24*x9+x15*x20*x22*x9+x16*x18*x23*x9-x16*x19*x22*x9,
> -x13*x18*x23*x8+x13*x18*x24*x7+x13*x19*x22*x8-x13*x19*x24*x6-x13*x20*x22*x7+x13*x20*x23*x6+x14*x17*x23*x8-x14*x17*x24*x7-x14*x19*x21*x8+x14*x19*x24*x5+x14*x20*x21*x7-x14*x20*x23*x5-x15*x17*x22*x8+x15*x17*x24*x6+x15*x18*x21*x8-x15*x18*x24*x5-x15*x20*x21*x6+x15*x20*x22*x5+x16*x17*x22*x7-x16*x17*x23*x6-x16*x18*x21*x7+x16*x18*x23*x5+x16*x19*x21*x6-x16*x19*x22*x5,
> x1*x14*x19*x24-x1*x14*x20*x23-x1*x15*x18*x24+x1*x15*x20*x22+x1*x16*x18*x23-x1*x16*x19*x22-x13*x18*x23*x4+x13*x18*x24*x3-x13*x19*x2*x24+x13*x19*x22*x4+x13*x2*x20*x23-x13*x20*x22*x3+x14*x17*x23*x4-x14*x17*x24*x3-x14*x19*x21*x4+x14*x20*x21*x3+x15*x17*x2*x24-x15*x17*x22*x4+x15*x18*x21*x4-x15*x2*x20*x21-x16*x17*x2*x23+x16*x17*x22*x3-x16*x18*x21*x3+x16*x19*x2*x21,
> x10*x17*x23*x8-x10*x17*x24*x7-x10*x19*x21*x8+x10*x19*x24*x5+x10*x20*x21*x7-x10*x20*x23*x5-x11*x17*x22*x8+x11*x17*x24*x6+x11*x18*x21*x8-x11*x18*x24*x5-x11*x20*x21*x6+x11*x20*x22*x5+x12*x17*x22*x7-x12*x17*x23*x6-x12*x18*x21*x7+x12*x18*x23*x5+x12*x19*x21*x6-x12*x19*x22*x5-x18*x23*x8*x9+x18*x24*x7*x9+x19*x22*x8*x9-x19*x24*x6*x9-x20*x22*x7*x9+x20*x23*x6*x9,
> x1*x10*x19*x24-x1*x10*x20*x23-x1*x11*x18*x24+x1*x11*x20*x22+x1*x12*x18*x23-x1*x12*x19*x22+x10*x17*x23*x4-x10*x17*x24*x3-x10*x19*x21*x4+x10*x20*x21*x3+x11*x17*x2*x24-x11*x17*x22*x4+x11*x18*x21*x4-x11*x2*x20*x21-x12*x17*x2*x23+x12*x17*x22*x3-x12*x18*x21*x3+x12*x19*x2*x21-x18*x23*x4*x9+x18*x24*x3*x9-x19*x2*x24*x9+x19*x22*x4*x9+x2*x20*x23*x9-x20*x22*x3*x9,
> x1*x18*x23*x8-x1*x18*x24*x7-x1*x19*x22*x8+x1*x19*x24*x6+x1*x20*x22*x7-x1*x20*x23*x6-x17*x2*x23*x8+x17*x2*x24*x7+x17*x22*x3*x8-x17*x22*x4*x7+x17*x23*x4*x6-x17*x24*x3*x6-x18*x21*x3*x8+x18*x21*x4*x7-x18*x23*x4*x5+x18*x24*x3*x5+x19*x2*x21*x8-x19*x2*x24*x5-x19*x21*x4*x6+x19*x22*x4*x5-x2*x20*x21*x7+x2*x20*x23*x5+x20*x21*x3*x6-x20*x22*x3*x5,
> x10*x13*x23*x8-x10*x13*x24*x7-x10*x15*x21*x8+x10*x15*x24*x5+x10*x16*x21*x7-x10*x16*x23*x5-x11*x13*x22*x8+x11*x13*x24*x6+x11*x14*x21*x8-x11*x14*x24*x5-x11*x16*x21*x6+x11*x16*x22*x5+x12*x13*x22*x7-x12*x13*x23*x6-x12*x14*x21*x7+x12*x14*x23*x5+x12*x15*x21*x6-x12*x15*x22*x5-x14*x23*x8*x9+x14*x24*x7*x9+x15*x22*x8*x9-x15*x24*x6*x9-x16*x22*x7*x9+x16*x23*x6*x9,
> x1*x10*x15*x24-x1*x10*x16*x23-x1*x11*x14*x24+x1*x11*x16*x22+x1*x12*x14*x23-x1*x12*x15*x22+x10*x13*x23*x4-x10*x13*x24*x3-x10*x15*x21*x4+x10*x16*x21*x3+x11*x13*x2*x24-x11*x13*x22*x4+x11*x14*x21*x4-x11*x16*x2*x21-x12*x13*x2*x23+x12*x13*x22*x3-x12*x14*x21*x3+x12*x15*x2*x21-x14*x23*x4*x9+x14*x24*x3*x9-x15*x2*x24*x9+x15*x22*x4*x9+x16*x2*x23*x9-x16*x22*x3*x9,
> x1*x14*x23*x8-x1*x14*x24*x7-x1*x15*x22*x8+x1*x15*x24*x6+x1*x16*x22*x7-x1*x16*x23*x6-x13*x2*x23*x8+x13*x2*x24*x7+x13*x22*x3*x8-x13*x22*x4*x7+x13*x23*x4*x6-x13*x24*x3*x6-x14*x21*x3*x8+x14*x21*x4*x7-x14*x23*x4*x5+x14*x24*x3*x5+x15*x2*x21*x8-x15*x2*x24*x5-x15*x21*x4*x6+x15*x22*x4*x5-x16*x2*x21*x7+x16*x2*x23*x5+x16*x21*x3*x6-x16*x22*x3*x5,
> x1*x10*x23*x8-x1*x10*x24*x7-x1*x11*x22*x8+x1*x11*x24*x6+x1*x12*x22*x7-x1*x12*x23*x6-x10*x21*x3*x8+x10*x21*x4*x7-x10*x23*x4*x5+x10*x24*x3*x5+x11*x2*x21*x8-x11*x2*x24*x5-x11*x21*x4*x6+x11*x22*x4*x5-x12*x2*x21*x7+x12*x2*x23*x5+x12*x21*x3*x6-x12*x22*x3*x5-x2*x23*x8*x9+x2*x24*x7*x9+x22*x3*x8*x9-x22*x4*x7*x9+x23*x4*x6*x9-x24*x3*x6*x9,
> x10*x13*x19*x8-x10*x13*x20*x7-x10*x15*x17*x8+x10*x15*x20*x5+x10*x16*x17*x7-x10*x16*x19*x5-x11*x13*x18*x8+x11*x13*x20*x6+x11*x14*x17*x8-x11*x14*x20*x5-x11*x16*x17*x6+x11*x16*x18*x5+x12*x13*x18*x7-x12*x13*x19*x6-x12*x14*x17*x7+x12*x14*x19*x5+x12*x15*x17*x6-x12*x15*x18*x5-x14*x19*x8*x9+x14*x20*x7*x9+x15*x18*x8*x9-x15*x20*x6*x9-x16*x18*x7*x9+x16*x19*x6*x9,
> x1*x10*x15*x20-x1*x10*x16*x19-x1*x11*x14*x20+x1*x11*x16*x18+x1*x12*x14*x19-x1*x12*x15*x18+x10*x13*x19*x4-x10*x13*x20*x3-x10*x15*x17*x4+x10*x16*x17*x3-x11*x13*x18*x4+x11*x13*x2*x20+x11*x14*x17*x4-x11*x16*x17*x2+x12*x13*x18*x3-x12*x13*x19*x2-x12*x14*x17*x3+x12*x15*x17*x2-x14*x19*x4*x9+x14*x20*x3*x9+x15*x18*x4*x9-x15*x2*x20*x9-x16*x18*x3*x9+x16*x19*x2*x9,
> x1*x14*x19*x8-x1*x14*x20*x7-x1*x15*x18*x8+x1*x15*x20*x6+x1*x16*x18*x7-x1*x16*x19*x6+x13*x18*x3*x8-x13*x18*x4*x7-x13*x19*x2*x8+x13*x19*x4*x6+x13*x2*x20*x7-x13*x20*x3*x6-x14*x17*x3*x8+x14*x17*x4*x7-x14*x19*x4*x5+x14*x20*x3*x5+x15*x17*x2*x8-x15*x17*x4*x6+x15*x18*x4*x5-x15*x2*x20*x5-x16*x17*x2*x7+x16*x17*x3*x6-x16*x18*x3*x5+x16*x19*x2*x5,
> x1*x10*x19*x8-x1*x10*x20*x7-x1*x11*x18*x8+x1*x11*x20*x6+x1*x12*x18*x7-x1*x12*x19*x6-x10*x17*x3*x8+x10*x17*x4*x7-x10*x19*x4*x5+x10*x20*x3*x5+x11*x17*x2*x8-x11*x17*x4*x6+x11*x18*x4*x5-x11*x2*x20*x5-x12*x17*x2*x7+x12*x17*x3*x6-x12*x18*x3*x5+x12*x19*x2*x5+x18*x3*x8*x9-x18*x4*x7*x9-x19*x2*x8*x9+x19*x4*x6*x9+x2*x20*x7*x9-x20*x3*x6*x9,
> x1*x10*x15*x8-x1*x10*x16*x7-x1*x11*x14*x8+x1*x11*x16*x6+x1*x12*x14*x7-x1*x12*x15*x6-x10*x13*x3*x8+x10*x13*x4*x7-x10*x15*x4*x5+x10*x16*x3*x5+x11*x13*x2*x8-x11*x13*x4*x6+x11*x14*x4*x5-x11*x16*x2*x5-x12*x13*x2*x7+x12*x13*x3*x6-x12*x14*x3*x5+x12*x15*x2*x5+x14*x3*x8*x9-x14*x4*x7*x9-x15*x2*x8*x9+x15*x4*x6*x9+x16*x2*x7*x9-x16*x3*x6*x9
> ]:
> 
#with(Groebner);
#G:=Basis(F, tdeg(x1,x2,x3,x4,x5,x6,x7,x8,x9), [x1,x2,x3,x4,x5,x6,x7,x8,x9],
#method=mgb,
#    characteristic=32003):
#numelems(G):
#done
> 
> infolevel['mgb'] := 5:  # print messages (optional)
> kernelopts(numcpus=1):  # set number of cores (optional)
> G := libmgb:-gbasis(65521,0,vcyc10a,cyc10a):
prime=65521
====  1
1/10 polynomials in basis, max lcm degree: 10
1/9 pairs of degree 2, 2/2 rows, 1 lcms
1.0 MB, max: 1.0 MB, mon: 0.0 MB, tab: 0.1 MB
         3 x 25         10.0 per row, 0.0 MB
1 new, 0 zero,  0.000 sec
====  2
2/11 polynomials in basis, max lcm degree: 10
1/8 pairs of degree 3, 2/2 rows, 1 lcms
1.0 MB, max: 1.0 MB, mon: 0.0 MB, tab: 0.1 MB
         6 x 50         11.8 per row, 0.0 MB
1 new, 0 zero,  0.000 sec
====  3
3/12 polynomials in basis, max lcm degree: 10
2/8 pairs of degree 4, 4/4 rows, 2 lcms
1.0 MB, max: 1.0 MB, mon: 0.0 MB, tab: 0.1 MB
        21 x 217        23.4 per row, 0.0 MB
2 new, 0 zero,  0.000 sec
         2 x 213       118.5 per row, 0.0 MB
         2 x 213       118.5 per row, 0.0 MB
====  4
5/14 polynomials in basis, max lcm degree: 10
4/9 pairs of degree 5, 8/8 rows, 4 lcms
1.0 MB, max: 1.0 MB, mon: 0.0 MB, tab: 0.1 MB
        74 x 521        34.6 per row, 0.0 MB
3 new, 1 zero,  0.000 sec
         3 x 516       163.0 per row, 0.0 MB
         3 x 516       163.0 per row, 0.0 MB
====  5
8/17 polynomials in basis, max lcm degree: 10
9/13 pairs of degree 6, 18/18 rows, 9 lcms
1.1 MB, max: 1.1 MB, mon: 0.1 MB, tab: 0.1 MB
       132 x 1141       74.5 per row, 0.1 MB
7 new, 2 zero,  0.001 sec
         7 x 1133      695.7 per row, 0.0 MB
         7 x 1133      695.7 per row, 0.0 MB
====  6
15/24 polynomials in basis, max lcm degree: 10
22/25 pairs of degree 7, 44/44 rows, 22 lcms
1.4 MB, max: 1.4 MB, mon: 0.2 MB, tab: 0.1 MB
       435 x 2732      118.6 per row, 0.4 MB
13 new, 9 zero,  0.005 sec
        13 x 2710     1449.1 per row, 0.1 MB
        13 x 2710     1449.1 per row, 0.1 MB
====  7
28/37 polynomials in basis, max lcm degree: 10
47/49 pairs of degree 8, 90/94 rows, 43 lcms
3.2 MB, max: 3.2 MB, mon: 0.5 MB, tab: 0.1 MB
      1328 x 6201      198.1 per row, 2.0 MB
24 new, 23 zero,  0.020 sec
        24 x 6154     2462.2 per row, 0.5 MB
        24 x 6154     2462.2 per row, 0.5 MB
====  8
52/61 polynomials in basis, max lcm degree: 11
106/111 pairs of degree 9, 201/212 rows, 95 lcms
9.1 MB, max: 9.1 MB, mon: 1.0 MB, tab: 0.2 MB
      2730 x 10979     314.9 per row, 6.6 MB
51 new, 55 zero,  0.074 sec
        51 x 10902    4809.5 per row, 1.9 MB
        51 x 10902    4809.5 per row, 1.9 MB
====  9
103/112 polynomials in basis, max lcm degree: 11
254/256 pairs of degree 10, 457/508 rows, 203 lcms
33.4 MB, max: 33.4 MB, mon: 1.9 MB, tab: 0.5 MB
      5936 x 19155     598.0 per row, 27.1 MB
108 new, 146 zero,  0.433 sec
       108 x 19042    8156.0 per row, 6.7 MB
       108 x 19042    8156.0 per row, 6.7 MB
==== 10
211/220 polynomials in basis, max lcm degree: 13
571/591 pairs of degree 11, 1035/1142 rows, 464 lcms
109.7 MB, max: 109.7 MB, mon: 3.1 MB, tab: 0.5 MB
     10940 x 30776    1162.4 per row, 97.1 MB
196 new, 375 zero,  2.316 sec
       196 x 30489   11585.1 per row, 17.3 MB
       196 x 30489   11585.1 per row, 17.3 MB
==== 11
407/416 polynomials in basis, max lcm degree: 14
1192/1216 pairs of degree 12, 2142/2384 rows, 950 lcms
330.0 MB, max: 330.0 MB, mon: 5.1 MB, tab: 1.0 MB
     21983 x 50585    1763.1 per row, 295.8 MB
405 new, 787 zero, 12.147 sec
       405 x 50235   17000.6 per row, 52.5 MB
       405 x 50235   17000.6 per row, 52.5 MB
==== 12
812/821 polynomials in basis, max lcm degree: 14
2594/2604 pairs of degree 13, 4651/5188 rows, 2057 lcms
948.8 MB, max: 948.8 MB, mon: 8.4 MB, tab: 2.0 MB
     42847 x 83724    2614.2 per row, 854.7 MB
760 new, 1834 zero, 51.655 sec
       760 x 83720   22344.8 per row, 129.6 MB
       760 x 83720   22344.8 per row, 129.6 MB
==== 13
1572/1581 polynomials in basis, max lcm degree: 15
4975/4978 pairs of degree 14, 8364/9950 rows, 3389 lcms
2384.7 MB, max: 2384.7 MB, mon: 13.1 MB, tab: 2.0 MB
     75828 x 130004   3737.6 per row, 2162.5 MB
1188 new, 3787 zero, 178.867 sec
      1188 x 127991  27133.3 per row, 245.9 MB
      1188 x 127991  27133.3 per row, 245.9 MB
==== 14
2760/2769 polynomials in basis, max lcm degree: 17
8127/8136 pairs of degree 15, 14306/16254 rows, 6179 lcms
4939.3 MB, max: 4939.3 MB, mon: 19.5 MB, tab: 8.0 MB
    126669 x 193916   4587.6 per row, 4434.0 MB
1885 new, 6242 zero, 496.234 sec
      1885 x 190227  30859.9 per row, 443.8 MB
      1885 x 190227  30859.9 per row, 443.8 MB
==== 15
4617/4654 polynomials in basis, max lcm degree: 17
4/13099 pairs of degree 6, 8/8 rows, 4 lcms
932.8 MB, max: 4939.3 MB, mon: 12.6 MB, tab: 8.0 MB
       137 x 1441       73.6 per row, 0.1 MB
4 new, 0 zero,  0.000 sec
         4 x 1434      913.0 per row, 0.0 MB
         4 x 1434      913.0 per row, 0.0 MB
==== 16
4578/4658 polynomials in basis, max lcm degree: 17
22/13069 pairs of degree 7, 40/44 rows, 18 lcms
933.5 MB, max: 4939.3 MB, mon: 12.7 MB, tab: 8.0 MB
       726 x 3764      141.9 per row, 0.8 MB
15 new, 7 zero,  0.005 sec
        15 x 3751     2686.9 per row, 0.3 MB
        15 x 3751     2686.9 per row, 0.3 MB
==== 17
4369/4673 polynomials in basis, max lcm degree: 17
76/12627 pairs of degree 8, 139/152 rows, 63 lcms
938.1 MB, max: 4939.3 MB, mon: 12.8 MB, tab: 8.0 MB
      2074 x 8025      322.0 per row, 5.1 MB
30 new, 46 zero,  0.038 sec
        30 x 7934     4882.9 per row, 1.1 MB
        30 x 7934     4882.9 per row, 1.1 MB
==== 18
4172/4703 polynomials in basis, max lcm degree: 17
175/12416 pairs of degree 9, 321/350 rows, 146 lcms
955.4 MB, max: 4939.3 MB, mon: 13.1 MB, tab: 8.0 MB
      4732 x 15009     588.9 per row, 21.3 MB
59 new, 116 zero,  0.227 sec
        59 x 14757    8310.7 per row, 3.7 MB
        59 x 14757    8310.7 per row, 3.7 MB
==== 19
3944/4762 polynomials in basis, max lcm degree: 17
366/12509 pairs of degree 10, 684/732 rows, 318 lcms
1015.2 MB, max: 4939.3 MB, mon: 13.7 MB, tab: 8.0 MB
      9625 x 26045    1054.6 per row, 77.5 MB
85 new, 281 zero,  1.316 sec
        85 x 25904   12891.3 per row, 8.4 MB
        85 x 25904   12891.3 per row, 8.4 MB
==== 20
3740/4847 polynomials in basis, max lcm degree: 17
619/12576 pairs of degree 11, 1167/1238 rows, 548 lcms
1171.0 MB, max: 4939.3 MB, mon: 14.6 MB, tab: 8.0 MB
     20604 x 45739    1442.6 per row, 226.8 MB
160 new, 459 zero,  5.270 sec
       160 x 45682   17767.5 per row, 21.7 MB
       160 x 45682   17767.5 per row, 21.7 MB
==== 21
3586/5007 polynomials in basis, max lcm degree: 17
1257/12901 pairs of degree 12, 2362/2514 rows, 1105 lcms
1579.4 MB, max: 4939.3 MB, mon: 16.3 MB, tab: 8.0 MB
     41585 x 77502    1947.9 per row, 618.2 MB
306 new, 951 zero, 20.443 sec
       306 x 77433   23029.8 per row, 53.8 MB
       306 x 77433   23029.8 per row, 53.8 MB
==== 22
3563/5313 polynomials in basis, max lcm degree: 17
2394/13697 pairs of degree 13, 4372/4788 rows, 1978 lcms
2500.0 MB, max: 4939.3 MB, mon: 18.7 MB, tab: 8.0 MB
     71896 x 120249   2747.1 per row, 1507.1 MB
443 new, 1951 zero, 65.507 sec
       443 x 119796  28669.8 per row, 96.9 MB
       443 x 119796  28669.8 per row, 96.9 MB
==== 23
3578/5756 polynomials in basis, max lcm degree: 17
3648/13251 pairs of degree 14, 6835/7296 rows, 3186 lcms
4200.0 MB, max: 4939.3 MB, mon: 22.3 MB, tab: 8.0 MB
    120040 x 182499   3438.6 per row, 3149.7 MB
768 new, 2881 zero, 186.238 sec
       768 x 181960  30801.1 per row, 180.5 MB
       768 x 181960  30801.1 per row, 180.5 MB
==== 24
3801/6524 polynomials in basis, max lcm degree: 17
6371/11803 pairs of degree 15, 11873/12742 rows, 5502 lcms
7386.4 MB, max: 7386.4 MB, mon: 28.0 MB, tab: 8.0 MB
    199980 x 277134   4114.8 per row, 6278.8 MB
1238 new, 5133 zero, 471.920 sec
      1238 x 261473  33365.5 per row, 315.1 MB
      1238 x 261473  33365.5 per row, 315.1 MB
==== 25
5039/7762 polynomials in basis, max lcm degree: 17
14196/14207 pairs of degree 16, 24643/28392 rows, 10340 lcms
12769.8 MB, max: 12769.8 MB, mon: 36.2 MB, tab: 16.0 MB
    270181 x 351251   5563.2 per row, 11468.6 MB
2985 new, 11318 zero, 1455.815 sec
      2985 x 351219  31967.4 per row, 728.0 MB
      2985 x 351219  31967.4 per row, 728.0 MB
==== 26
7999/10747 polynomials in basis, max lcm degree: 18
10/21926 pairs of degree 7, 20/20 rows, 10 lcms
1994.2 MB, max: 12769.8 MB, mon: 21.2 MB, tab: 32.0 MB
       515 x 3473      195.4 per row, 0.8 MB
10 new, 0 zero,  0.002 sec
        10 x 3465     2633.0 per row, 0.2 MB
        10 x 3465     2633.0 per row, 0.2 MB
==== 27
7897/10757 polynomials in basis, max lcm degree: 18
60/21791 pairs of degree 8, 117/120 rows, 57 lcms
1999.9 MB, max: 12769.8 MB, mon: 21.3 MB, tab: 32.0 MB
      2037 x 7862      399.8 per row, 6.2 MB
38 new, 22 zero,  0.044 sec
        38 x 7721     5163.3 per row, 1.5 MB
        38 x 7721     5163.3 per row, 1.5 MB
==== 28
7577/10795 polynomials in basis, max lcm degree: 18
229/21665 pairs of degree 9, 411/458 rows, 182 lcms
2026.3 MB, max: 12769.8 MB, mon: 21.4 MB, tab: 32.0 MB
      4786 x 14687     850.7 per row, 31.1 MB
93 new, 136 zero,  0.468 sec
        93 x 14621    8574.6 per row, 6.1 MB
        93 x 14621    8574.6 per row, 6.1 MB
==== 29
7087/10888 polynomials in basis, max lcm degree: 18
599/21671 pairs of degree 10, 1035/1198 rows, 436 lcms
2122.3 MB, max: 12769.8 MB, mon: 21.7 MB, tab: 32.0 MB
     10897 x 26470    1465.5 per row, 121.9 MB
204 new, 395 zero,  3.385 sec
       204 x 26041   12827.0 per row, 20.0 MB
       204 x 26041   12827.0 per row, 20.0 MB
==== 30
6462/11092 polynomials in basis, max lcm degree: 18
1388/22006 pairs of degree 11, 2353/2776 rows, 965 lcms
2406.4 MB, max: 12769.8 MB, mon: 22.2 MB, tab: 32.0 MB
     22683 x 45095    2253.7 per row, 390.1 MB
397 new, 991 zero, 16.662 sec
       397 x 45001   17563.1 per row, 53.2 MB
       397 x 45001   17563.1 per row, 53.2 MB
==== 31
5743/11489 polynomials in basis, max lcm degree: 18
2935/22304 pairs of degree 12, 5118/5870 rows, 2183 lcms
3133.5 MB, max: 12769.8 MB, mon: 23.2 MB, tab: 32.0 MB
     45082 x 75441    3135.9 per row, 1078.8 MB
759 new, 2176 zero, 66.719 sec
       759 x 74962   21989.7 per row, 127.3 MB
       759 x 74962   21989.7 per row, 127.3 MB
==== 32
5331/12248 polynomials in basis, max lcm degree: 18
5895/22912 pairs of degree 13, 10155/11790 rows, 4260 lcms
4701.2 MB, max: 12769.8 MB, mon: 25.2 MB, tab: 32.0 MB
     85455 x 123494   3941.6 per row, 2570.1 MB
1221 new, 4674 zero, 199.470 sec
      1221 x 122785  24908.2 per row, 232.0 MB
      1221 x 122785  24908.2 per row, 232.0 MB
==== 33
5151/13469 polynomials in basis, max lcm degree: 18
9688/23984 pairs of degree 14, 16856/19376 rows, 7168 lcms
7450.9 MB, max: 12769.8 MB, mon: 28.1 MB, tab: 32.0 MB
    143956 x 189530   4726.1 per row, 5191.2 MB
1645 new, 8043 zero, 472.520 sec
      1645 x 189003  28042.7 per row, 352.0 MB
      1645 x 189003  28042.7 per row, 352.0 MB
==== 34
5466/15114 polynomials in basis, max lcm degree: 18
13586/21190 pairs of degree 15, 23952/27172 rows, 10366 lcms
11489.2 MB, max: 12769.8 MB, mon: 32.9 MB, tab: 32.0 MB
    229746 x 283077   5207.3 per row, 9128.4 MB
2340 new, 11246 zero, 1010.675 sec
      2340 x 282871  29711.7 per row, 530.4 MB
      2340 x 282871  29711.7 per row, 530.4 MB
==== 35
7131/17454 polynomials in basis, max lcm degree: 18
19958/20401 pairs of degree 16, 35069/39916 rows, 15111 lcms
17627.4 MB, max: 17627.4 MB, mon: 41.2 MB, tab: 32.0 MB
    362042 x 420916   5527.1 per row, 15268.1 MB
3533 new, 16425 zero, 1921.962 sec
      3533 x 413124  29194.0 per row, 786.9 MB
      3533 x 413124  29194.0 per row, 786.9 MB
==== 36
10664/20987 polynomials in basis, max lcm degree: 20
26583/26666 pairs of degree 17, 45453/53166 rows, 18854 lcms
25687.4 MB, max: 25687.4 MB, mon: 57.2 MB, tab: 64.0 MB
    528005 x 589032   5701.8 per row, 22970.8 MB
4925 new, 21674 zero, 3163.900 sec
      4925 x 585204  24910.6 per row, 936.0 MB
      4925 x 585204  24910.6 per row, 936.0 MB
==== 37
10392/25912 polynomials in basis, max lcm degree: 20
707/31294 pairs of degree 8, 1138/1414 rows, 431 lcms
3604.7 MB, max: 25687.4 MB, mon: 24.3 MB, tab: 64.0 MB
      4454 x 10756    1444.4 per row, 49.1 MB
707 new, 0 zero,  4.655 sec
       707 x 10188    6582.1 per row, 35.5 MB
       707 x 10188    6582.1 per row, 35.5 MB
==== 38
4475/26619 polynomials in basis, max lcm degree: 19
4188/28220 pairs of degree 9, 5941/8376 rows, 1753 lcms
3960.9 MB, max: 25687.4 MB, mon: 24.1 MB, tab: 64.0 MB
     13818 x 18328    3528.1 per row, 372.0 MB
2688 new, 1500 zero, 87.601 sec
      2688 x 15945    7205.0 per row, 147.8 MB
      2688 x 15945    7205.0 per row, 147.8 MB
==== 39
3613/29307 polynomials in basis, max lcm degree: 17
19264/34271 pairs of degree 10, 27101/38528 rows, 7837 lcms
5149.4 MB, max: 25687.4 MB, mon: 23.9 MB, tab: 64.0 MB
     41873 x 28804    4536.8 per row, 1449.5 MB
2280 new, 16984 zero, 103.488 sec
      2280 x 14090    4797.8 per row, 83.5 MB
      2280 x 14090    4797.8 per row, 83.5 MB
==== 40
5893/31587 polynomials in basis, max lcm degree: 17
18499/33084 pairs of degree 11, 25524/36998 rows, 7025 lcms
5389.6 MB, max: 25687.4 MB, mon: 23.7 MB, tab: 64.0 MB
     57929 x 43417    3725.3 per row, 1646.7 MB
12 new, 18487 zero, 11.824 sec
        12 x 8787     3647.5 per row, 0.3 MB
        12 x 8787     3647.5 per row, 0.3 MB
==== 41
5905/31599 polynomials in basis, max lcm degree: 17
857/14678 pairs of degree 12, 1697/1714 rows, 840 lcms
5523.5 MB, max: 25687.4 MB, mon: 23.6 MB, tab: 64.0 MB
     65454 x 68684    3675.8 per row, 1835.8 MB
36 new, 821 zero, 16.163 sec
        36 x 5830     3656.7 per row, 1.0 MB
        36 x 5830     3656.7 per row, 1.0 MB
==== 42
5941/31635 polynomials in basis, max lcm degree: 17
1569/14108 pairs of degree 13, 3034/3138 rows, 1465 lcms
6366.3 MB, max: 25687.4 MB, mon: 23.8 MB, tab: 64.0 MB
    104194 x 106886   3525.5 per row, 2802.9 MB
111 new, 1458 zero, 27.425 sec
       111 x 4617     3669.0 per row, 3.1 MB
       111 x 4617     3669.0 per row, 3.1 MB
==== 43
6052/31746 polynomials in basis, max lcm degree: 17
2617/13427 pairs of degree 14, 4848/5234 rows, 2231 lcms
7397.4 MB, max: 25687.4 MB, mon: 24.8 MB, tab: 64.0 MB
    161211 x 163135   3312.4 per row, 4074.7 MB
285 new, 2332 zero, 35.996 sec
       285 x 4752     3697.3 per row, 8.0 MB
       285 x 4752     3697.3 per row, 8.0 MB
==== 44
6337/32031 polynomials in basis, max lcm degree: 17
4723/13090 pairs of degree 15, 8333/9446 rows, 3610 lcms
8769.9 MB, max: 25687.4 MB, mon: 27.2 MB, tab: 64.0 MB
    245524 x 245815   3098.3 per row, 5804.7 MB
627 new, 4096 zero, 48.235 sec
       627 x 5101     3759.3 per row, 18.0 MB
       627 x 5101     3759.3 per row, 18.0 MB
==== 45
6964/32658 polynomials in basis, max lcm degree: 17
8608/13383 pairs of degree 16, 14032/17216 rows, 5424 lcms
10326.4 MB, max: 25687.4 MB, mon: 31.5 MB, tab: 64.0 MB
    356675 x 353724   2900.2 per row, 7893.4 MB
1220 new, 7388 zero, 65.004 sec
      1220 x 5892     4153.8 per row, 38.7 MB
      1220 x 5892     4153.8 per row, 38.7 MB
==== 46
8184/33878 polynomials in basis, max lcm degree: 17
14535/14535 pairs of degree 17, 22594/29070 rows, 8059 lcms
12125.9 MB, max: 25687.4 MB, mon: 38.6 MB, tab: 64.0 MB
    506376 x 498403   2703.0 per row, 10444.5 MB
1990 new, 12545 zero, 77.841 sec
      1990 x 7285     4481.3 per row, 68.0 MB
      1990 x 7285     4481.3 per row, 68.0 MB
==== 47
6745/35868 polynomials in basis, max lcm degree: 18
5253/17615 pairs of degree 8, 7183/10506 rows, 1930 lcms
1100.3 MB, max: 25687.4 MB, mon: 4.5 MB, tab: 64.0 MB
     11571 x 11026    2804.0 per row, 247.6 MB
1214 new, 4039 zero, 18.580 sec
      1214 x 8781     4101.0 per row, 38.0 MB
      1214 x 8781     4101.0 per row, 38.0 MB
==== 48
5549/37082 polynomials in basis, max lcm degree: 18
11180/23261 pairs of degree 9, 14958/22360 rows, 3778 lcms
1378.0 MB, max: 25687.4 MB, mon: 4.5 MB, tab: 64.0 MB
     20771 x 13085    3324.7 per row, 526.9 MB
0 new, 11180 zero,  6.992 sec
==== 49
5549/37082 polynomials in basis, max lcm degree: 18
2280/12081 pairs of degree 10, 4560/4560 rows, 2280 lcms
929.5 MB, max: 25687.4 MB, mon: 4.1 MB, tab: 64.0 MB
      8148 x 9363     3176.1 per row, 197.5 MB
1 new, 2279 zero,  0.451 sec
==== 50
5549/37083 polynomials in basis, max lcm degree: 18
20/9810 pairs of degree 11, 40/40 rows, 20 lcms
755.2 MB, max: 25687.4 MB, mon: 4.2 MB, tab: 64.0 MB
      5267 x 8749     2156.2 per row, 86.7 MB
8 new, 12 zero,  0.109 sec
         8 x 4370     3498.5 per row, 0.2 MB
         8 x 4370     3498.5 per row, 0.2 MB
==== 51
5553/37091 polynomials in basis, max lcm degree: 18
100/9858 pairs of degree 12, 184/200 rows, 84 lcms
757.5 MB, max: 25687.4 MB, mon: 4.2 MB, tab: 64.0 MB
      5355 x 8784     2178.8 per row, 89.0 MB
35 new, 65 zero,  0.345 sec
        35 x 4346     3511.9 per row, 0.9 MB
        35 x 4346     3511.9 per row, 0.9 MB
==== 52
5553/37126 polynomials in basis, max lcm degree: 18
391/10073 pairs of degree 13, 715/782 rows, 324 lcms
765.3 MB, max: 25687.4 MB, mon: 4.2 MB, tab: 64.0 MB
      5657 x 8871     2245.5 per row, 96.9 MB
111 new, 280 zero,  0.776 sec
       111 x 4387     3550.0 per row, 3.0 MB
       111 x 4387     3550.0 per row, 3.0 MB
==== 53
5553/37237 polynomials in basis, max lcm degree: 18
1025/10681 pairs of degree 14, 1701/2050 rows, 676 lcms
788.0 MB, max: 25687.4 MB, mon: 4.1 MB, tab: 64.0 MB
      6484 x 9090     2420.0 per row, 119.7 MB
137 new, 888 zero,  1.631 sec
       137 x 4353     3563.0 per row, 3.7 MB
       137 x 4353     3563.0 per row, 3.7 MB
==== 54
5553/37374 polynomials in basis, max lcm degree: 18
1233/10889 pairs of degree 15, 1968/2466 rows, 735 lcms
800.8 MB, max: 25687.4 MB, mon: 4.1 MB, tab: 64.0 MB
      6847 x 9245     2538.7 per row, 132.6 MB
137 new, 1096 zero,  2.043 sec
       137 x 4331     3563.0 per row, 3.7 MB
       137 x 4331     3563.0 per row, 3.7 MB
==== 55
5553/37511 polynomials in basis, max lcm degree: 18
1233/10889 pairs of degree 16, 1881/2466 rows, 648 lcms
804.1 MB, max: 25687.4 MB, mon: 4.1 MB, tab: 64.0 MB
      6911 x 9309     2580.8 per row, 136.1 MB
137 new, 1096 zero,  2.494 sec
       137 x 5575     3563.0 per row, 3.7 MB
       137 x 5575     3563.0 per row, 3.7 MB
==== 56
5583/37648 polynomials in basis, max lcm degree: 18
1203/10003 pairs of degree 17, 1921/2406 rows, 718 lcms
843.8 MB, max: 25687.4 MB, mon: 4.1 MB, tab: 64.0 MB
      8224 x 10622    2743.8 per row, 172.2 MB
107 new, 1096 zero,  2.582 sec
       107 x 7006     3548.0 per row, 2.9 MB
       107 x 7006     3548.0 per row, 2.9 MB
==== 57
5690/37755 polynomials in basis, max lcm degree: 18
9656/9656 pairs of degree 18, 12851/19312 rows, 3195 lcms
1090.9 MB, max: 25687.4 MB, mon: 4.1 MB, tab: 64.0 MB
     18111 x 11949    3012.1 per row, 416.3 MB
0 new, 9656 zero,  6.631 sec
==== IR
      5739 x 37185    3504.5 per row, 153.5 MB
      5739 x 37185    3504.5 per row, 153.5 MB
=======
gbasis:   237105 reduced, 246090691 eliminated, 386511 rows, 199484 zero:  52%
gbasis:   11286.706 sec
select:   154.069 sec
symbol:   411.850 sec
matrix:   10605.096 sec
update:    70.222 sec
memory used=32.7MB, alloc=323.8MB, time=11288.25
memory used=283.2MB, alloc=579.8MB, time=11290.07
export:     2.253 sec
basis:   11290.225
> 
#libname:= "/users/cip/users/ederc/fgb/FGblib", libname:
#with(FGb);
##fgbrs:-fgb_gbasis(cyc10a,vcyc10a,[],65521,{"verb"=2, "index"=2000000}): printf("\n"):
#fgbrs:-fgb_gbasis(cyc10a,vcyc10a,[],65521,"index"=2000000,"verb"=1): printf("\n"):
##fgbrs:-fgb_gbasis(kat12a,vkat12a,[],65521,"verb"=1): printf("\n"):
> done
memory used=306.6MB, alloc=579.8MB, time=11290.28
