    |\^/|     Maple 2016 (X86 64 LINUX)
._|\|   |/|_. Copyright (c) Maplesoft, a division of Waterloo Maple Inc. 2016
 \  MAPLE  /  All rights reserved. Maple is a trademark of
 <____ ____>  Waterloo Maple Inc.
      |       Type ? for help.
# cyclic-8-affine
> vcyc8a:=[x1,x2,x3,x4,x5,x6,x7,x8]:
> cyc8a:=[
> x1+x2+x3+x4+x5+x6+x7+x8,
> x1*x2+x2*x3+x3*x4+x4*x5+x5*x6+x6*x7+x1*x8+x7*x8,
> x1*x2*x3+x2*x3*x4+x3*x4*x5+x4*x5*x6+x5*x6*x7+x1*x2*x8+x1*x7*x8+x6*x7*x8,
> x1*x2*x3*x4+x2*x3*x4*x5+x3*x4*x5*x6+x4*x5*x6*x7+x1*x2*x3*x8+x1*x2*x7*x8+x1*x6*x7*x8+x5*x6*x7*x8,
> x1*x2*x3*x4*x5+x2*x3*x4*x5*x6+x3*x4*x5*x6*x7+x1*x2*x3*x4*x8+x1*x2*x3*x7*x8+x1*x2*x6*x7*x8+x1*x5*x6*x7*x8+x4*x5*x6*x7*x8,
> x1*x2*x3*x4*x5*x6+x2*x3*x4*x5*x6*x7+x1*x2*x3*x4*x5*x8+x1*x2*x3*x4*x7*x8+x1*x2*x3*x6*x7*x8+x1*x2*x5*x6*x7*x8+x1*x4*x5*x6*x7*x8+x3*x4*x5*x6*x7*x8,
> x1*x2*x3*x4*x5*x6*x7+x1*x2*x3*x4*x5*x6*x8+x1*x2*x3*x4*x5*x7*x8+x1*x2*x3*x4*x6*x7*x8+x1*x2*x3*x5*x6*x7*x8+x1*x2*x4*x5*x6*x7*x8+x1*x3*x4*x5*x6*x7*x8+x2*x3*x4*x5*x6*x7*x8,
> x1*x2*x3*x4*x5*x6*x7*x8-1^8]:
> 
# cyclic-8-homog
> vcyc8h:=[x1,x2,x3,x4,x5,x6,x7,x8,x9]:
> cyc8h:=[
> x1+x2+x3+x4+x5+x6+x7+x8,
> x1*x2+x2*x3+x3*x4+x4*x5+x5*x6+x6*x7+x1*x8+x7*x8,
> x1*x2*x3+x2*x3*x4+x3*x4*x5+x4*x5*x6+x5*x6*x7+x1*x2*x8+x1*x7*x8+x6*x7*x8,
> x1*x2*x3*x4+x2*x3*x4*x5+x3*x4*x5*x6+x4*x5*x6*x7+x1*x2*x3*x8+x1*x2*x7*x8+x1*x6*x7*x8+x5*x6*x7*x8,
> x1*x2*x3*x4*x5+x2*x3*x4*x5*x6+x3*x4*x5*x6*x7+x1*x2*x3*x4*x8+x1*x2*x3*x7*x8+x1*x2*x6*x7*x8+x1*x5*x6*x7*x8+x4*x5*x6*x7*x8,
> x1*x2*x3*x4*x5*x6+x2*x3*x4*x5*x6*x7+x1*x2*x3*x4*x5*x8+x1*x2*x3*x4*x7*x8+x1*x2*x3*x6*x7*x8+x1*x2*x5*x6*x7*x8+x1*x4*x5*x6*x7*x8+x3*x4*x5*x6*x7*x8,
> x1*x2*x3*x4*x5*x6*x7+x1*x2*x3*x4*x5*x6*x8+x1*x2*x3*x4*x5*x7*x8+x1*x2*x3*x4*x6*x7*x8+x1*x2*x3*x5*x6*x7*x8+x1*x2*x4*x5*x6*x7*x8+x1*x3*x4*x5*x6*x7*x8+x2*x3*x4*x5*x6*x7*x8,
> x1*x2*x3*x4*x5*x6*x7*x8-x9^8]:
> 
# cyclic-9-affine
> vcyc9a:=[x1,x2,x3,x4,x5,x6,x7,x8,x9]:
> cyc9a:=[
> x1+x2+x3+x4+x5+x6+x7+x8+x9,
> x1*x2+x2*x3+x3*x4+x4*x5+x5*x6+x6*x7+x7*x8+x1*x9+x8*x9,
> x1*x2*x3+x2*x3*x4+x3*x4*x5+x4*x5*x6+x5*x6*x7+x6*x7*x8+x1*x2*x9+x1*x8*x9+x7*x8*x9,
> x1*x2*x3*x4+x2*x3*x4*x5+x3*x4*x5*x6+x4*x5*x6*x7+x5*x6*x7*x8+x1*x2*x3*x9+x1*x2*x8*x9+x1*x7*x8*x9+x6*x7*x8*x9,
> x1*x2*x3*x4*x5+x2*x3*x4*x5*x6+x3*x4*x5*x6*x7+x4*x5*x6*x7*x8+x1*x2*x3*x4*x9+x1*x2*x3*x8*x9+x1*x2*x7*x8*x9+x1*x6*x7*x8*x9+x5*x6*x7*x8*x9,
> x1*x2*x3*x4*x5*x6+x2*x3*x4*x5*x6*x7+x3*x4*x5*x6*x7*x8+x1*x2*x3*x4*x5*x9+x1*x2*x3*x4*x8*x9+x1*x2*x3*x7*x8*x9+x1*x2*x6*x7*x8*x9+x1*x5*x6*x7*x8*x9+x4*x5*x6*x7*x8*x9,
> x1*x2*x3*x4*x5*x6*x7+x2*x3*x4*x5*x6*x7*x8+x1*x2*x3*x4*x5*x6*x9+x1*x2*x3*x4*x5*x8*x9+x1*x2*x3*x4*x7*x8*x9+x1*x2*x3*x6*x7*x8*x9+x1*x2*x5*x6*x7*x8*x9+x1*x4*x5*x6*x7*x8*x9+x3*x4*x5*x6*x7*x8*x9,
> x1*x2*x3*x4*x5*x6*x7*x8+x1*x2*x3*x4*x5*x6*x7*x9+x1*x2*x3*x4*x5*x6*x8*x9+x1*x2*x3*x4*x5*x7*x8*x9+x1*x2*x3*x4*x6*x7*x8*x9+x1*x2*x3*x5*x6*x7*x8*x9+x1*x2*x4*x5*x6*x7*x8*x9+x1*x3*x4*x5*x6*x7*x8*x9+x2*x3*x4*x5*x6*x7*x8*x9,
> x1*x2*x3*x4*x5*x6*x7*x8*x9-1
> ]:
> 
# cyclic-10-affine
> vcyc10a:=[x1,x2,x3,x4,x5,x6,x7,x8,x9,x10]:
> cyc10a:=[
> x1+x2+x3+x4+x5+x6+x7+x8+x9+x10,
> x1*x2+x2*x3+x3*x4+x4*x5+x5*x6+x6*x7+x7*x8+x8*x9+x1*x10+x9*x10,
> x1*x2*x3+x2*x3*x4+x3*x4*x5+x4*x5*x6+x5*x6*x7+x6*x7*x8+x7*x8*x9+x1*x2*x10+x1*x9*x10+x8*x9*x10,
> x1*x2*x3*x4+x2*x3*x4*x5+x3*x4*x5*x6+x4*x5*x6*x7+x5*x6*x7*x8+x6*x7*x8*x9+x1*x2*x3*x10+x1*x2*x9*x10+x1*x8*x9*x10+x7*x8*x9*x10,
> x1*x2*x3*x4*x5+x2*x3*x4*x5*x6+x3*x4*x5*x6*x7+x4*x5*x6*x7*x8+x5*x6*x7*x8*x9+x1*x2*x3*x4*x10+x1*x2*x3*x9*x10+x1*x2*x8*x9*x10+x1*x7*x8*x9*x10+x6*x7*x8*x9*x10,
> x1*x2*x3*x4*x5*x6+x2*x3*x4*x5*x6*x7+x3*x4*x5*x6*x7*x8+x4*x5*x6*x7*x8*x9+x1*x2*x3*x4*x5*x10+x1*x2*x3*x4*x9*x10+x1*x2*x3*x8*x9*x10+x1*x2*x7*x8*x9*x10+x1*x6*x7*x8*x9*x10+x5*x6*x7*x8*x9*x10,
> x1*x2*x3*x4*x5*x6*x7+x2*x3*x4*x5*x6*x7*x8+x3*x4*x5*x6*x7*x8*x9+x1*x2*x3*x4*x5*x6*x10+x1*x2*x3*x4*x5*x9*x10+x1*x2*x3*x4*x8*x9*x10+x1*x2*x3*x7*x8*x9*x10+x1*x2*x6*x7*x8*x9*x10+x1*x5*x6*x7*x8*x9*x10+x4*x5*x6*x7*x8*x9*x10,
> x1*x2*x3*x4*x5*x6*x7*x8+x2*x3*x4*x5*x6*x7*x8*x9+x1*x2*x3*x4*x5*x6*x7*x10+x1*x2*x3*x4*x5*x6*x9*x10+x1*x2*x3*x4*x5*x8*x9*x10+x1*x2*x3*x4*x7*x8*x9*x10+x1*x2*x3*x6*x7*x8*x9*x10+x1*x2*x5*x6*x7*x8*x9*x10+x1*x4*x5*x6*x7*x8*x9*x10+x3*x4*x5*x6*x7*x8*x9*x10,
> x1*x2*x3*x4*x5*x6*x7*x8*x9+x1*x2*x3*x4*x5*x6*x7*x8*x10+x1*x2*x3*x4*x5*x6*x7*x9*x10+x1*x2*x3*x4*x5*x6*x8*x9*x10+x1*x2*x3*x4*x5*x7*x8*x9*x10+x1*x2*x3*x4*x6*x7*x8*x9*x10+x1*x2*x3*x5*x6*x7*x8*x9*x10+x1*x2*x4*x5*x6*x7*x8*x9*x10+x1*x3*x4*x5*x6*x7*x8*x9*x10+x2*x3*x4*x5*x6*x7*x8*x9*x10,
> x1*x2*x3*x4*x5*x6*x7*x8*x9*x10-1
> ]:
> 
# katsura-12-affine
> vkat12a:=[x1,x2,x3,x4,x5,x6,x7,x8,x9,x10,x11,x12]:
> kat12a:=[
> x1+2*x2+2*x3+2*x4+2*x5+2*x6+2*x7+2*x8+2*x9+2*x10+2*x11+2*x12-1,
> x1^2+2*x2^2+2*x3^2+2*x4^2+2*x5^2+2*x6^2+2*x7^2+2*x8^2+2*x9^2+2*x10^2+2*x11^2+2*x12^2-x1,
> 2*x1*x2+2*x2*x3+2*x3*x4+2*x4*x5+2*x5*x6+2*x6*x7+2*x7*x8+2*x8*x9+2*x9*x10+2*x10*x11+2*x11*x12-x2,
> x2^2+2*x1*x3+2*x2*x4+2*x3*x5+2*x4*x6+2*x5*x7+2*x6*x8+2*x7*x9+2*x8*x10+2*x9*x11+2*x10*x12-x3,
> 2*x2*x3+2*x1*x4+2*x2*x5+2*x3*x6+2*x4*x7+2*x5*x8+2*x6*x9+2*x7*x10+2*x8*x11+2*x9*x12-x4,
> x3^2+2*x2*x4+2*x1*x5+2*x2*x6+2*x3*x7+2*x4*x8+2*x5*x9+2*x6*x10+2*x7*x11+2*x8*x12-x5,
> 2*x3*x4+2*x2*x5+2*x1*x6+2*x2*x7+2*x3*x8+2*x4*x9+2*x5*x10+2*x6*x11+2*x7*x12-x6,
> x4^2+2*x3*x5+2*x2*x6+2*x1*x7+2*x2*x8+2*x3*x9+2*x4*x10+2*x5*x11+2*x6*x12-x7,
> 2*x4*x5+2*x3*x6+2*x2*x7+2*x1*x8+2*x2*x9+2*x3*x10+2*x4*x11+2*x5*x12-x8,
> x5^2+2*x4*x6+2*x3*x7+2*x2*x8+2*x1*x9+2*x2*x10+2*x3*x11+2*x4*x12-x9,
> 2*x5*x6+2*x4*x7+2*x3*x8+2*x2*x9+2*x1*x10+2*x2*x11+2*x3*x12-x10,
> x6^2+2*x5*x7+2*x4*x8+2*x3*x9+2*x2*x10+2*x1*x11+2*x2*x12-x11
> ]:
> 
# katsura-13-affine
> vkat13a:=[x1,x2,x3,x4,x5,x6,x7,x8,x9,x10,x11,x12,x13]:
> kat13a:=[
> x1+2*x2+2*x3+2*x4+2*x5+2*x6+2*x7+2*x8+2*x9+2*x10+2*x11+2*x12+2*x13-1,
> x1^2+2*x2^2+2*x3^2+2*x4^2+2*x5^2+2*x6^2+2*x7^2+2*x8^2+2*x9^2+2*x10^2+2*x11^2+2*x12^2+2*x13^2-x1,
> 2*x1*x2+2*x2*x3+2*x3*x4+2*x4*x5+2*x5*x6+2*x6*x7+2*x7*x8+2*x8*x9+2*x9*x10+2*x10*x11+2*x11*x12+2*x12*x13-x2,
> x2^2+2*x1*x3+2*x2*x4+2*x3*x5+2*x4*x6+2*x5*x7+2*x6*x8+2*x7*x9+2*x8*x10+2*x9*x11+2*x10*x12+2*x11*x13-x3,
> 2*x2*x3+2*x1*x4+2*x2*x5+2*x3*x6+2*x4*x7+2*x5*x8+2*x6*x9+2*x7*x10+2*x8*x11+2*x9*x12+2*x10*x13-x4,
> x3^2+2*x2*x4+2*x1*x5+2*x2*x6+2*x3*x7+2*x4*x8+2*x5*x9+2*x6*x10+2*x7*x11+2*x8*x12+2*x9*x13-x5,
> 2*x3*x4+2*x2*x5+2*x1*x6+2*x2*x7+2*x3*x8+2*x4*x9+2*x5*x10+2*x6*x11+2*x7*x12+2*x8*x13-x6,
> x4^2+2*x3*x5+2*x2*x6+2*x1*x7+2*x2*x8+2*x3*x9+2*x4*x10+2*x5*x11+2*x6*x12+2*x7*x13-x7,
> 2*x4*x5+2*x3*x6+2*x2*x7+2*x1*x8+2*x2*x9+2*x3*x10+2*x4*x11+2*x5*x12+2*x6*x13-x8,
> x5^2+2*x4*x6+2*x3*x7+2*x2*x8+2*x1*x9+2*x2*x10+2*x3*x11+2*x4*x12+2*x5*x13-x9,
> 2*x5*x6+2*x4*x7+2*x3*x8+2*x2*x9+2*x1*x10+2*x2*x11+2*x3*x12+2*x4*x13-x10,
> x6^2+2*x5*x7+2*x4*x8+2*x3*x9+2*x2*x10+2*x1*x11+2*x2*x12+2*x3*x13-x11,
> 2*x6*x7+2*x5*x8+2*x4*x9+2*x3*x10+2*x2*x11+2*x1*x12+2*x2*x13-x12
> ]:
> 
# katsura-14-affine
> vkat14a:=[x1,x2,x3,x4,x5,x6,x7,x8,x9,x10,x11,x12,x13,x14]:
> kat14a:=[
> x1+2*x2+2*x3+2*x4+2*x5+2*x6+2*x7+2*x8+2*x9+2*x10+2*x11+2*x12+2*x13+2*x14-1,
> x1^2+2*x2^2+2*x3^2+2*x4^2+2*x5^2+2*x6^2+2*x7^2+2*x8^2+2*x9^2+2*x10^2+2*x11^2+2*x12^2+2*x13^2+2*x14^2-x1,
> 2*x1*x2+2*x2*x3+2*x3*x4+2*x4*x5+2*x5*x6+2*x6*x7+2*x7*x8+2*x8*x9+2*x9*x10+2*x10*x11+2*x11*x12+2*x12*x13+2*x13*x14-x2,
> x2^2+2*x1*x3+2*x2*x4+2*x3*x5+2*x4*x6+2*x5*x7+2*x6*x8+2*x7*x9+2*x8*x10+2*x9*x11+2*x10*x12+2*x11*x13+2*x12*x14-x3,
> 2*x2*x3+2*x1*x4+2*x2*x5+2*x3*x6+2*x4*x7+2*x5*x8+2*x6*x9+2*x7*x10+2*x8*x11+2*x9*x12+2*x10*x13+2*x11*x14-x4,
> x3^2+2*x2*x4+2*x1*x5+2*x2*x6+2*x3*x7+2*x4*x8+2*x5*x9+2*x6*x10+2*x7*x11+2*x8*x12+2*x9*x13+2*x10*x14-x5,
> 2*x3*x4+2*x2*x5+2*x1*x6+2*x2*x7+2*x3*x8+2*x4*x9+2*x5*x10+2*x6*x11+2*x7*x12+2*x8*x13+2*x9*x14-x6,
> x4^2+2*x3*x5+2*x2*x6+2*x1*x7+2*x2*x8+2*x3*x9+2*x4*x10+2*x5*x11+2*x6*x12+2*x7*x13+2*x8*x14-x7,
> 2*x4*x5+2*x3*x6+2*x2*x7+2*x1*x8+2*x2*x9+2*x3*x10+2*x4*x11+2*x5*x12+2*x6*x13+2*x7*x14-x8,
> x5^2+2*x4*x6+2*x3*x7+2*x2*x8+2*x1*x9+2*x2*x10+2*x3*x11+2*x4*x12+2*x5*x13+2*x6*x14-x9,
> 2*x5*x6+2*x4*x7+2*x3*x8+2*x2*x9+2*x1*x10+2*x2*x11+2*x3*x12+2*x4*x13+2*x5*x14-x10,
> x6^2+2*x5*x7+2*x4*x8+2*x3*x9+2*x2*x10+2*x1*x11+2*x2*x12+2*x3*x13+2*x4*x14-x11,
> 2*x6*x7+2*x5*x8+2*x4*x9+2*x3*x10+2*x2*x11+2*x1*x12+2*x2*x13+2*x3*x14-x12,
> x7^2+2*x6*x8+2*x5*x9+2*x4*x10+2*x3*x11+2*x2*x12+2*x1*x13+2*x2*x14-x13
> ]:
> 
# katsura-15-affine
> vkat15a:=[x1,x2,x3,x4,x5,x6,x7,x8,x9,x10,x11,x12,x13,x14,x15]:
> kat15a:=[
> x1+2*x2+2*x3+2*x4+2*x5+2*x6+2*x7+2*x8+2*x9+2*x10+2*x11+2*x12+2*x13+2*x14+2*x15-1,
> x1^2+2*x2^2+2*x3^2+2*x4^2+2*x5^2+2*x6^2+2*x7^2+2*x8^2+2*x9^2+2*x10^2+2*x11^2+2*x12^2+2*x13^2+2*x14^2+2*x15^2-x1,
> 2*x1*x2+2*x2*x3+2*x3*x4+2*x4*x5+2*x5*x6+2*x6*x7+2*x7*x8+2*x8*x9+2*x9*x10+2*x10*x11+2*x11*x12+2*x12*x13+2*x13*x14+2*x14*x15-x2,
> x2^2+2*x1*x3+2*x2*x4+2*x3*x5+2*x4*x6+2*x5*x7+2*x6*x8+2*x7*x9+2*x8*x10+2*x9*x11+2*x10*x12+2*x11*x13+2*x12*x14+2*x13*x15-x3,
> 2*x2*x3+2*x1*x4+2*x2*x5+2*x3*x6+2*x4*x7+2*x5*x8+2*x6*x9+2*x7*x10+2*x8*x11+2*x9*x12+2*x10*x13+2*x11*x14+2*x12*x15-x4,
> x3^2+2*x2*x4+2*x1*x5+2*x2*x6+2*x3*x7+2*x4*x8+2*x5*x9+2*x6*x10+2*x7*x11+2*x8*x12+2*x9*x13+2*x10*x14+2*x11*x15-x5,
> 2*x3*x4+2*x2*x5+2*x1*x6+2*x2*x7+2*x3*x8+2*x4*x9+2*x5*x10+2*x6*x11+2*x7*x12+2*x8*x13+2*x9*x14+2*x10*x15-x6,
> x4^2+2*x3*x5+2*x2*x6+2*x1*x7+2*x2*x8+2*x3*x9+2*x4*x10+2*x5*x11+2*x6*x12+2*x7*x13+2*x8*x14+2*x9*x15-x7,
> 2*x4*x5+2*x3*x6+2*x2*x7+2*x1*x8+2*x2*x9+2*x3*x10+2*x4*x11+2*x5*x12+2*x6*x13+2*x7*x14+2*x8*x15-x8,
> x5^2+2*x4*x6+2*x3*x7+2*x2*x8+2*x1*x9+2*x2*x10+2*x3*x11+2*x4*x12+2*x5*x13+2*x6*x14+2*x7*x15-x9,
> 2*x5*x6+2*x4*x7+2*x3*x8+2*x2*x9+2*x1*x10+2*x2*x11+2*x3*x12+2*x4*x13+2*x5*x14+2*x6*x15-x10,
> x6^2+2*x5*x7+2*x4*x8+2*x3*x9+2*x2*x10+2*x1*x11+2*x2*x12+2*x3*x13+2*x4*x14+2*x5*x15-x11,
> 2*x6*x7+2*x5*x8+2*x4*x9+2*x3*x10+2*x2*x11+2*x1*x12+2*x2*x13+2*x3*x14+2*x4*x15-x12,
> x7^2+2*x6*x8+2*x5*x9+2*x4*x10+2*x3*x11+2*x2*x12+2*x1*x13+2*x2*x14+2*x3*x15-x13,
> 2*x7*x8+2*x6*x9+2*x5*x10+2*x4*x11+2*x3*x12+2*x2*x13+2*x1*x14+2*x2*x15-x14
> ]:
#katsura-16-affine
> vkat16a:=[x1,x2,x3,x4,x5,x6,x7,x8,x9,x10,x11,x12,x13,x14,x15,x16]:
> kat16a:=[
> x1+2*x2+2*x3+2*x4+2*x5+2*x6+2*x7+2*x8+2*x9+2*x10+2*x11+2*x12+2*x13+2*x14+2*x15+2*x16-1,
> x1^2+2*x2^2+2*x3^2+2*x4^2+2*x5^2+2*x6^2+2*x7^2+2*x8^2+2*x9^2+2*x10^2+2*x11^2+2*x12^2+2*x13^2+2*x14^2+2*x15^2+2*x16^2-x1,
> 2*x1*x2+2*x2*x3+2*x3*x4+2*x4*x5+2*x5*x6+2*x6*x7+2*x7*x8+2*x8*x9+2*x9*x10+2*x10*x11+2*x11*x12+2*x12*x13+2*x13*x14+2*x14*x15+2*x15*x16-x2,
> x2^2+2*x1*x3+2*x2*x4+2*x3*x5+2*x4*x6+2*x5*x7+2*x6*x8+2*x7*x9+2*x8*x10+2*x9*x11+2*x10*x12+2*x11*x13+2*x12*x14+2*x13*x15+2*x14*x16-x3,
> 2*x2*x3+2*x1*x4+2*x2*x5+2*x3*x6+2*x4*x7+2*x5*x8+2*x6*x9+2*x7*x10+2*x8*x11+2*x9*x12+2*x10*x13+2*x11*x14+2*x12*x15+2*x13*x16-x4,
> x3^2+2*x2*x4+2*x1*x5+2*x2*x6+2*x3*x7+2*x4*x8+2*x5*x9+2*x6*x10+2*x7*x11+2*x8*x12+2*x9*x13+2*x10*x14+2*x11*x15+2*x12*x16-x5,
> 2*x3*x4+2*x2*x5+2*x1*x6+2*x2*x7+2*x3*x8+2*x4*x9+2*x5*x10+2*x6*x11+2*x7*x12+2*x8*x13+2*x9*x14+2*x10*x15+2*x11*x16-x6,
> x4^2+2*x3*x5+2*x2*x6+2*x1*x7+2*x2*x8+2*x3*x9+2*x4*x10+2*x5*x11+2*x6*x12+2*x7*x13+2*x8*x14+2*x9*x15+2*x10*x16-x7,
> 2*x4*x5+2*x3*x6+2*x2*x7+2*x1*x8+2*x2*x9+2*x3*x10+2*x4*x11+2*x5*x12+2*x6*x13+2*x7*x14+2*x8*x15+2*x9*x16-x8,
> x5^2+2*x4*x6+2*x3*x7+2*x2*x8+2*x1*x9+2*x2*x10+2*x3*x11+2*x4*x12+2*x5*x13+2*x6*x14+2*x7*x15+2*x8*x16-x9,
> 2*x5*x6+2*x4*x7+2*x3*x8+2*x2*x9+2*x1*x10+2*x2*x11+2*x3*x12+2*x4*x13+2*x5*x14+2*x6*x15+2*x7*x16-x10,
> x6^2+2*x5*x7+2*x4*x8+2*x3*x9+2*x2*x10+2*x1*x11+2*x2*x12+2*x3*x13+2*x4*x14+2*x5*x15+2*x6*x16-x11,
> 2*x6*x7+2*x5*x8+2*x4*x9+2*x3*x10+2*x2*x11+2*x1*x12+2*x2*x13+2*x3*x14+2*x4*x15+2*x5*x16-x12,
> x7^2+2*x6*x8+2*x5*x9+2*x4*x10+2*x3*x11+2*x2*x12+2*x1*x13+2*x2*x14+2*x3*x15+2*x4*x16-x13,
> 2*x7*x8+2*x6*x9+2*x5*x10+2*x4*x11+2*x3*x12+2*x2*x13+2*x1*x14+2*x2*x15+2*x3*x16-x14,
> x8^2+2*x7*x9+2*x6*x10+2*x5*x11+2*x4*x12+2*x3*x13+2*x2*x14+2*x1*x15+2*x2*x16-x15
> ]:
> 
# alea6
# large coefficients, easy images
> var := [x0,x1,x2,x3,x4,x5]:
> sys := [5*x0^2*x3+37*x1*x3*x4+32*x1*x3*x5+21*x3*x5+55*x4*x5,
> 39*x0*x1*x5+23*x1^2*x4+57*x1*x2*x4+56*x1*x4^2+10*x2^2+52*x3*x4*x5,
> 33*x0^2*x3+51*x0^2+42*x0*x3*x5+51*x1^2*x4+32*x1*x3^2+x5^3,
> 44*x0*x3^2+42*x1*x3+47*x1*x4^2+12*x2*x3+2*x2*x4*x5+43*x3*x4^2,
> 49*x0^2*x2+11*x0*x1*x2+39*x0*x3*x4+44*x0*x3*x4+54*x0*x3+45*x1^2*x4,
> 48*x0*x2*x3+2*x2^2*x3+59*x2^2*x5+17*x2+36*x3^3+45*x4]:
> 
# bayes148
# sparse with many monomial divisions
> vbayes148 := [x1, x2, x3, x4, x5, x6, x7, x8, x9, x10, x11, x12, x13, x14, x15, x16, x17, x18, x19, x20, x21, x22, x23, x24, x25, x26, x27, x28, x29, x30, x31, x32]:
> bayes148 := [-x23*x32+x24*x31, -x22*x32+x24*x30, -x22*x31+x23*x30, -x21*x32+x24*x29, -x21*x31+x23*x29, -x21*x30+x22*x29, -x12*x32+x16*x28,  -x19*x28+x20*x27,
> -x11*x31+x15*x27, -x18*x28+x20*x26, -x18*x27+x19*x26, -x10*x30+x14*x26, -x17*x28+x20*x25, -x17*x27+x19*x25, -x17*x26+x18*x25, -x9*x29+x13*x25, x20*x8-x24*x4,
> -x17*x20-x17*x24-2*x17*x28-x17*x32+x18*x19+x18*x23+2*x18*x27+x18*x31+x19*x22+x19*x30-x20*x21-x20*x29-x21*x24-x21*x28-2*x21*x32+x22*x23+x22*x27+2*x22*x31+x23*x26-x24*x25-x25*x28-x25*x32+x26*x27+x26*x31+x27*x30-x28*x29-x29*x32+x30*x31,
> x19*x7-x23*x3, x18*x6-x2*x22, -x1*x21+x17*x5]:
> 
#alea6
# large coefficients, easy images
> vaalea6 := [x0,x1,x2,x3,x4,x5]:
> alea6 := [5*x0^2*x3+37*x1*x3*x4+32*x1*x3*x5+21*x3*x5+55*x4*x5,
> 39*x0*x1*x5+23*x1^2*x4+57*x1*x2*x4+56*x1*x4^2+10*x2^2+52*x3*x4*x5,
> 33*x0^2*x3+51*x0^2+42*x0*x3*x5+51*x1^2*x4+32*x1*x3^2+x5^3,
> 44*x0*x3^2+42*x1*x3+47*x1*x4^2+12*x2*x3+2*x2*x4*x5+43*x3*x4^2,
> 49*x0^2*x2+11*x0*x1*x2+39*x0*x3*x4+44*x0*x3*x4+54*x0*x3+45*x1^2*x4,
> 48*x0*x2*x3+2*x2^2*x3+59*x2^2*x5+17*x2+36*x3^3+45*x4]:
> 
> 
# gametwo7
# dense linear algebra
> vgametwo7 := [p1,p2,p3,p4,p5,p6,p7]:
> gametwo7 := [
> 3821*p2*p3*p4*p5*p6*p7-7730*p2*p3*p4*p5*p6-164*p2*p3*p4*p5*p7-2536*p2*p3*p4*p6*p7-4321*p2*p3*p5*p6*p7-2161*p2*p4*p5*p6*p7-2188*p3*p4*p5*p6*p7-486*p2*p3*p4*p5+3491*p2*p3*p4*p6+4247*p2*p3*p5*p6+3528*p2*p4*p5*p6+2616*p3*p4*p5*p6-101*p2*p3*p4*p7+1765*p2*p3*p5*p7+258*p2*p4*p5*p7-378*p3*p4*p5*p7+1246*p2*p3*p6*p7+2320*p2*p4*p6*p7+1776*p3*p4*p6*p7+1715*p2*p5*p6*p7+728*p3*p5*p6*p7+842*p4*p5*p6*p7+69*p2*p3*p4-1660*p2*p3*p5+1863*p2*p4*p5+1520*p3*p4*p5-245*p2*p3*p6-804*p2*p4*p6-2552*p3*p4*p6-3152*p2*p5*p6+40*p3*p5*p6-1213*p4*p5*p6+270*p2*p3*p7-851*p2*p4*p7+327*p3*p4*p7-1151*p2*p5*p7+1035*p3*p5*p7-161*p4*p5*p7-230*p2*p6*p7-294*p3*p6*p7-973*p4*p6*p7-264*p5*p6*p7+874*p2*p3-2212*p2*p4+168*p3*p4+511*p2*p5-918*p3*p5-2017*p4*p5-76*p2*p6+465*p3*p6+1629*p4*p6+856*p5*p6-54*p2*p7-1355*p3*p7+227*p4*p7+77*p5*p7-220*p6*p7-696*p2+458*p3+486*p4+661*p5-650*p6+671*p7-439,
> -6157*p1*p3*p4*p5*p6*p7+13318*p1*p3*p4*p5*p6+5928*p1*p3*p4*p5*p7+1904*p1*p3*p4*p6*p7+2109*p1*p3*p5*p6*p7+8475*p1*p4*p5*p6*p7+2878*p3*p4*p5*p6*p7-8339*p1*p3*p4*p5-2800*p1*p3*p4*p6-9649*p1*p3*p5*p6-10964*p1*p4*p5*p6-4481*p3*p4*p5*p6+251*p1*p3*p4*p7-4245*p1*p3*p5*p7-7707*p1*p4*p5*p7-2448*p3*p4*p5*p7+1057*p1*p3*p6*p7-3605*p1*p4*p6*p7+546*p3*p4*p6*p7-3633*p1*p5*p6*p7-699*p3*p5*p6*p7-4126*p4*p5*p6*p7-730*p1*p3*p4+5519*p1*p3*p5+8168*p1*p4*p5+4366*p3*p4*p5+2847*p1*p3*p6+2058*p1*p4*p6-1416*p3*p4*p6+8004*p1*p5*p6+4740*p3*p5*p6+5361*p4*p5*p6-677*p1*p3*p7+1755*p1*p4*p7-760*p3*p4*p7+3384*p1*p5*p7+2038*p3*p5*p7+4119*p4*p5*p7+812*p1*p6*p7+11*p3*p6*p7+2022*p4*p6*p7+2642*p5*p6*p7+1276*p1*p3-1723*p1*p4+121*p3*p4-6456*p1*p5-3710*p3*p5-4525*p4*p5-2187*p1*p6-1559*p3*p6-848*p4*p6-4041*p5*p6-83*p1*p7-12*p3*p7-1180*p4*p7-2747*p5*p7-1970*p6*p7+2575*p1-161*p3+2149*p4+4294*p5+1687*p6+958*p7-1950,
> 182*p1*p2*p4*p5*p6*p7-2824*p1*p2*p4*p5*p6-3513*p1*p2*p4*p5*p7-3386*p1*p2*p4*p6*p7-2330*p1*p2*p5*p6*p7-2838*p1*p4*p5*p6*p7+1294*p2*p4*p5*p6*p7+4764*p1*p2*p4*p5+1647*p1*p2*p4*p6+4221*p1*p2*p5*p6+814*p1*p4*p5*p6+2738*p2*p4*p5*p6+4057*p1*p2*p4*p7+2403*p1*p2*p5*p7+2552*p1*p4*p5*p7+471*p2*p4*p5*p7+448*p1*p2*p6*p7+2336*p1*p4*p6*p7+1617*p2*p4*p6*p7+2220*p1*p5*p6*p7-1543*p2*p5*p6*p7+402*p4*p5*p6*p7-5184*p1*p2*p4-3983*p1*p2*p5+44*p1*p4*p5-1327*p2*p4*p5-581*p1*p2*p6-389*p1*p4*p6-2722*p2*p4*p6+443*p1*p5*p6-2893*p2*p5*p6-154*p4*p5*p6-1277*p1*p2*p7-2018*p1*p4*p7-509*p2*p4*p7-1254*p1*p5*p7+602*p2*p5*p7-464*p4*p5*p7-647*p1*p6*p7+922*p2*p6*p7-1463*p4*p6*p7+729*p5*p6*p7+2665*p1*p2+591*p1*p4+981*p2*p4-444*p1*p5+1818*p2*p5-1985*p4*p5-1818*p1*p6+197*p2*p6+1038*p4*p6+340*p5*p6+399*p1*p7-835*p2*p7+787*p4*p7-753*p5*p7-221*p6*p7+481*p1+260*p2+1713*p4+1219*p5+794*p6+762*p7-1231,
> 2923*p1*p2*p3*p5*p6*p7-4328*p1*p2*p3*p5*p6-3674*p1*p2*p3*p5*p7-3291*p1*p2*p3*p6*p7-4955*p1*p2*p5*p6*p7-8*p1*p3*p5*p6*p7-135*p2*p3*p5*p6*p7+7784*p1*p2*p3*p5+3471*p1*p2*p3*p6+1544*p1*p2*p5*p6+1607*p1*p3*p5*p6+1710*p2*p3*p5*p6+2434*p1*p2*p3*p7+1408*p1*p2*p5*p7-215*p1*p3*p5*p7+507*p2*p3*p5*p7+2208*p1*p2*p6*p7+1920*p1*p3*p6*p7-389*p2*p3*p6*p7+1304*p1*p5*p6*p7+2480*p2*p5*p6*p7+102*p3*p5*p6*p7-2683*p1*p2*p3-3508*p1*p2*p5-3505*p1*p3*p5-2400*p2*p3*p5-2236*p1*p2*p6-1727*p1*p3*p6-1354*p2*p3*p6-1022*p1*p5*p6-2099*p2*p5*p6-918*p3*p5*p6-495*p1*p2*p7-109*p1*p3*p7+474*p2*p3*p7+268*p1*p5*p7+1084*p2*p5*p7-190*p3*p5*p7-666*p1*p6*p7-497*p2*p6*p7+615*p3*p6*p7-912*p5*p6*p7+473*p1*p2+742*p1*p3+186*p2*p3+1021*p1*p5+2556*p2*p5+2312*p3*p5+1075*p1*p6+920*p2*p6+164*p3*p6+80*p5*p6-199*p1*p7-1270*p2*p7-1050*p3*p7-724*p5*p7+136*p6*p7+740*p1-474*p2+37*p3-1056*p5+303*p6+833*p7+736,
> 4990*p1*p2*p3*p4*p6*p7-3067*p1*p2*p3*p4*p6-1661*p1*p2*p3*p4*p7-4064*p1*p2*p3*p6*p7-223*p1*p2*p4*p6*p7-5229*p1*p3*p4*p6*p7-4636*p2*p3*p4*p6*p7+5720*p1*p2*p3*p4+4872*p1*p2*p3*p6+1643*p1*p2*p4*p6+4536*p1*p3*p4*p6+2451*p2*p3*p4*p6+1264*p1*p2*p3*p7+70*p1*p2*p4*p7+2213*p1*p3*p4*p7+1734*p2*p3*p4*p7+1698*p1*p2*p6*p7+3799*p1*p3*p6*p7+1622*p2*p3*p6*p7+901*p1*p4*p6*p7-496*p2*p4*p6*p7+3782*p3*p4*p6*p7-5591*p1*p2*p3-1303*p1*p2*p4-6383*p1*p3*p4-2332*p2*p3*p4-3179*p1*p2*p6-6257*p1*p3*p6-3654*p2*p3*p6-1830*p1*p4*p6-1473*p2*p4*p6-3278*p3*p4*p6-1462*p1*p2*p7-1495*p1*p3*p7-468*p2*p3*p7-400*p1*p4*p7+431*p2*p4*p7-1907*p3*p4*p7-1547*p1*p6*p7-214*p2*p6*p7-1423*p3*p6*p7-1625*p4*p6*p7+5708*p1*p2+3809*p1*p3+2053*p2*p3+2824*p1*p4+1122*p2*p4+3653*p3*p4+3658*p1*p6+3001*p2*p6+3890*p3*p6+2371*p4*p6+602*p1*p7+185*p2*p7+899*p3*p7+963*p4*p7+560*p6*p7-4557*p1-3536*p2-1635*p3-2552*p4-2595*p6-207*p7+2740,
> -1407*p1*p2*p3*p4*p5*p7+4444*p1*p2*p3*p4*p5+2350*p1*p2*p3*p4*p7+5424*p1*p2*p3*p5*p7-2524*p1*p2*p4*p5*p7-985*p1*p3*p4*p5*p7-431*p2*p3*p4*p5*p7-2662*p1*p2*p3*p4-5342*p1*p2*p3*p5-39*p1*p2*p4*p5-2525*p1*p3*p4*p5-2650*p2*p3*p4*p5-3553*p1*p2*p3*p7-71*p1*p2*p4*p7-3268*p1*p3*p4*p7-1140*p2*p3*p4*p7-702*p1*p2*p5*p7-924*p1*p3*p5*p7-2198*p2*p3*p5*p7+4087*p1*p4*p5*p7+2709*p2*p4*p5*p7+587*p3*p4*p5*p7+968*p1*p2*p3-150*p1*p2*p4+909*p1*p3*p4+4587*p2*p3*p4+929*p1*p2*p5+1804*p1*p3*p5+2226*p2*p3*p5-916*p1*p4*p5+906*p2*p4*p5+2735*p3*p4*p5+1894*p1*p2*p7+2998*p1*p3*p7+1611*p2*p3*p7+304*p1*p4*p7-1601*p2*p4*p7+2066*p3*p4*p7-1971*p1*p5*p7-480*p2*p5*p7-500*p3*p5*p7-2617*p4*p5*p7-532*p1*p2+2016*p1*p3-2574*p2*p3+529*p1*p4-1251*p2*p4-2082*p3*p4+280*p1*p5-852*p2*p5-476*p3*p5-340*p4*p5-924*p1*p7+253*p2*p7-1090*p3*p7+170*p4*p7+1204*p5*p7-869*p1+1394*p2-264*p3+719*p4+219*p5-128*p7+506,
> -901*p1*p2*p3*p4*p5*p6+1805*p1*p2*p3*p4*p5-1103*p1*p2*p3*p4*p6-1746*p1*p2*p3*p5*p6-1968*p1*p2*p4*p5*p6+3957*p1*p3*p4*p5*p6+1293*p2*p3*p4*p5*p6-523*p1*p2*p3*p4-2498*p1*p2*p3*p5+693*p1*p2*p4*p5-2805*p1*p3*p4*p5-722*p2*p3*p4*p5-770*p1*p2*p3*p6+1088*p1*p2*p4*p6-232*p1*p3*p4*p6+2657*p2*p3*p4*p6+3281*p1*p2*p5*p6-1066*p1*p3*p5*p6+240*p2*p3*p5*p6-1174*p1*p4*p5*p6+1304*p2*p4*p5*p6-2070*p3*p4*p5*p6+2571*p1*p2*p3+115*p1*p2*p4+3899*p1*p3*p4-4641*p2*p3*p4-752*p1*p2*p5+1531*p1*p3*p5+1178*p2*p3*p5+11*p1*p4*p5-1144*p2*p4*p5-1701*p3*p4*p5+592*p1*p2*p6+1140*p1*p3*p6+130*p2*p3*p6+304*p1*p4*p6-2273*p2*p4*p6-1224*p3*p4*p6-2*p1*p5*p6-1090*p2*p5*p6+585*p3*p5*p6+670*p4*p5*p6-1867*p1*p2-4780*p1*p3+1079*p2*p3-2435*p1*p4+2901*p2*p4+2073*p3*p4+499*p1*p5+908*p2*p5+323*p3*p5+1631*p4*p5-966*p1*p6-315*p2*p6-481*p3*p6+759*p4*p6-595*p5*p6+3233*p1-1978*p2+729*p3-1184*p4-40*p5+446*p6+282
> ]:
> 
# jason210
# sparse with many monomial divisions
> vjason210 := [x1, x2, x3, x4, x5, x6, x7, x8]:
> jason210 := [x1^2*x3^4+x1*x2*x3^2*x5^2+x1*x2*x3*x4*x5*x7+x1*x2*x3*x4*x6*x8+x1*x2*x4^2*x6^2+x2^2*x4^4, x2^6, x1^6]:
> 
# mayr42 
# sparse with many pair updates
> vmayr42 := [x1,x2,x3,x4,x5,x6,x7,x8,x9,x10,x11,x12,x13,x14,x15,x16,x17,x18,x19,x20,x21,x22,x23,x24,x25,x26,x27,x28,x29,x30,x31,x32,x33,x34,x35,x36,x37,x38,x39,x40,x41,x42,x43,x44,x45,x46,x47,x48,x49,x50,x51]:
> mayr42 := [
> -x10*x51+x4*x49, x3*x48-x51*x9, x2*x47-x51*x8, x1*x46-x51*x7,
> x4*x44-x49*x9, x3*x43-x48*x8, x2*x42-x47*x7, x1*x41-x46*x6,
> x39*x4-x49*x9, x3*x38-x48*x8, x2*x37-x47*x7, x1*x36-x46*x6, x34*x9-x49*x9, x34*x4-x5*x51,
> x33*x8-x48*x8, x3*x33-x4*x51, x32*x7-x47*x7, x2*x32-x3*x51, x31*x6-x46*x6, x1*x31-x2*x51, 
> x14*x39*x9-x29*x44*x9, x13*x38*x8-x28*x43*x8, x12*x37*x7-x27*x42*x7, x11*x36*x6-x26*x41*x6,
> x26^2*x46*x6-x51^3*x7, x11^2*x46*x6-x2*x51^3, x21^2*x41*x6-x46*x51^2*x6, x16^2*x36*x6-x46*x51^2*x6,
> x24*x30*x39*x50*x9-x29*x44*x50*x51*x9, x23*x29*x38*x49*x8-x28*x43*x49*x51*x8, x22*x28*x37*x48*x7-x27*x42*x48*x51*x7,
> x21*x27*x36*x47*x6-x26*x41*x47*x51*x6, x24*x25*x39*x45*x9-x29*x44*x45*x51*x9, x23*x24*x38*x44*x8-x28*x43*x44*x51*x8,
> x22*x23*x37*x43*x7-x27*x42*x43*x51*x7, x21*x22*x36*x42*x6-x26*x41*x42*x51*x6, x20*x24*x39*x40*x9-x29*x40*x44*x51*x9,
> x19*x23*x38*x39*x8-x28*x39*x43*x51*x8, x15*x24*x35*x39*x9-x29*x35*x44*x51*x9, x18*x22*x37*x38*x7-x27*x38*x42*x51*x7, 
> x14*x23*x34*x38*x8-x28*x34*x43*x51*x8, x17*x21*x36*x37*x6-x26*x37*x41*x51*x6, x13*x22*x33*x37*x7-x27*x33*x42*x51*x7,
> x12*x21*x32*x36*x6-x26*x32*x41*x51*x6
> ]:
> 
# noon9
# sparse all-around challenge
> vnoon9 := [x1,x2,x3,x4,x5,x6,x7,x8,x9]:
> noon9 := [
> 10*x1^2*x9+10*x2^2*x9+10*x3^2*x9+10*x4^2*x9+10*x5^2*x9+10*x6^2*x9+10*x7^2*x9+10*x8^2*x9-11*x9+10,
> 10*x1^2*x8+10*x2^2*x8+10*x3^2*x8+10*x4^2*x8+10*x5^2*x8+10*x6^2*x8+10*x7^2*x8+10*x8*x9^2-11*x8+10,
> 10*x1^2*x7+10*x2^2*x7+10*x3^2*x7+10*x4^2*x7+10*x5^2*x7+10*x6^2*x7+10*x7*x8^2+10*x7*x9^2-11*x7+10,
> 10*x1^2*x6+10*x2^2*x6+10*x3^2*x6+10*x4^2*x6+10*x5^2*x6+10*x6*x7^2+10*x6*x8^2+10*x6*x9^2-11*x6+10,
> 10*x1^2*x5+10*x2^2*x5+10*x3^2*x5+10*x4^2*x5+10*x5*x6^2+10*x5*x7^2+10*x5*x8^2+10*x5*x9^2-11*x5+10,
> 10*x1^2*x4+10*x2^2*x4+10*x3^2*x4+10*x4*x5^2+10*x4*x6^2+10*x4*x7^2+10*x4*x8^2+10*x4*x9^2-11*x4+10,
> 10*x1^2*x3+10*x2^2*x3+10*x3*x4^2+10*x3*x5^2+10*x3*x6^2+10*x3*x7^2+10*x3*x8^2+10*x3*x9^2-11*x3+10,
> 10*x1*x2^2+10*x1*x3^2+10*x1*x4^2+10*x1*x5^2+10*x1*x6^2+10*x1*x7^2+10*x1*x8^2+10*x1*x9^2-11*x1+10,
> 10*x1^2*x2+10*x2*x3^2+10*x2*x4^2+10*x2*x5^2+10*x2*x6^2+10*x2*x7^2+10*x2*x8^2+10*x2*x9^2-11*x2+10
> ]:
> 
# yang1
# sparse with many pair updates
> vyang1 := [x1, x2, x3, x4, x5, x6, x7, x8, x9, x10, x11, x12, x13, x14, x15, x16, x17, x18, x19, x20, x21, x22, x23, x24, x25, x26, x27, x28, x29, x30, x31, x32, x33, x34, x35, x36, x37, x38, x39, x40, x41, x42, x43, x44, x45, x46, x47, x48]:
> yang1 := [
> x21*x45+x22*x46+x23*x47+x24*x48, x17*x45+x18*x46+x19*x47+x20*x48, x13*x45+x14*x46+x15*x47+x16*x48, x10*x46+x11*x47+x12*x48+x45*x9, x45*x5+x46*x6+x47*x7+x48*x8, x1*x45+x2*x46+x3*x47+x4*x48, x21*x41+x22*x42+x23*x43+x24*x44,
> x17*x41+x18*x42+x19*x43+x20*x44, x13*x41+x14*x42+x15*x43+x16*x44, x10*x42+x11*x43+x12*x44+x41*x9, x41*x5+x42*x6+x43*x7+x44*x8, x1*x41+x2*x42+x3*x43+x4*x44, x21*x37+x22*x38+x23*x39+x24*x40, x17*x37+x18*x38+x19*x39+x20*x40,
> x13*x37+x14*x38+x15*x39+x16*x40, x10*x38+x11*x39+x12*x40+x37*x9, x37*x5+x38*x6+x39*x7+x40*x8, x1*x37+x2*x38+x3*x39+x4*x40, x21*x33+x22*x34+x23*x35+x24*x36, x17*x33+x18*x34+x19*x35+x20*x36, x13*x33+x14*x34+x15*x35+x16*x36,
> x10*x34+x11*x35+x12*x36+x33*x9, x33*x5+x34*x6+x35*x7+x36*x8, x1*x33+x2*x34+x3*x35+x36*x4, x21*x29+x22*x30+x23*x31+x24*x32, x17*x29+x18*x30+x19*x31+x20*x32, x13*x29+x14*x30+x15*x31+x16*x32, x10*x30+x11*x31+x12*x32+x29*x9,
> x29*x5+x30*x6+x31*x7+x32*x8, x1*x29+x2*x30+x3*x31+x32*x4, x21*x25+x22*x26+x23*x27+x24*x28, x17*x25+x18*x26+x19*x27+x20*x28, x13*x25+x14*x26+x15*x27+x16*x28, x10*x26+x11*x27+x12*x28+x25*x9, x25*x5+x26*x6+x27*x7+x28*x8, x1*x25+x2*x26+x27*x3+x28*x4,
> x33*x38*x43*x48-x33*x38*x44*x47-x33*x39*x42*x48+x33*x39*x44*x46+x33*x40*x42*x47-x33*x40*x43*x46-x34*x37*x43*x48+x34*x37*x44*x47+x34*x39*x41*x48-x34*x39*x44*x45-x34*x40*x41*x47+x34*x40*x43*x45+x35*x37*x42*x48-x35*x37*x44*x46-x35*x38*x41*x48+x35*x38*x44*x45+x35*x40*x41*x46-x35*x40*x42*x45-x36*x37*x42*x47+x36*x37*x43*x46+x36*x38*x41*x47-x36*x38*x43*x45-x36*x39*x41*x46+x36*x39*x42*x45,
> x29*x38*x43*x48-x29*x38*x44*x47-x29*x39*x42*x48+x29*x39*x44*x46+x29*x40*x42*x47-x29*x40*x43*x46-x30*x37*x43*x48+x30*x37*x44*x47+x30*x39*x41*x48-x30*x39*x44*x45-x30*x40*x41*x47+x30*x40*x43*x45+x31*x37*x42*x48-x31*x37*x44*x46-x31*x38*x41*x48+x31*x38*x44*x45+x31*x40*x41*x46-x31*x40*x42*x45-x32*x37*x42*x47+x32*x37*x43*x46+x32*x38*x41*x47-x32*x38*x43*x45-x32*x39*x41*x46+x32*x39*x42*x45,
> x25*x38*x43*x48-x25*x38*x44*x47-x25*x39*x42*x48+x25*x39*x44*x46+x25*x40*x42*x47-x25*x40*x43*x46-x26*x37*x43*x48+x26*x37*x44*x47+x26*x39*x41*x48-x26*x39*x44*x45-x26*x40*x41*x47+x26*x40*x43*x45+x27*x37*x42*x48-x27*x37*x44*x46-x27*x38*x41*x48+x27*x38*x44*x45+x27*x40*x41*x46-x27*x40*x42*x45-x28*x37*x42*x47+x28*x37*x43*x46+x28*x38*x41*x47-x28*x38*x43*x45-x28*x39*x41*x46+x28*x39*x42*x45,
> x29*x34*x43*x48-x29*x34*x44*x47-x29*x35*x42*x48+x29*x35*x44*x46+x29*x36*x42*x47-x29*x36*x43*x46-x30*x33*x43*x48+x30*x33*x44*x47+x30*x35*x41*x48-x30*x35*x44*x45-x30*x36*x41*x47+x30*x36*x43*x45+x31*x33*x42*x48-x31*x33*x44*x46-x31*x34*x41*x48+x31*x34*x44*x45+x31*x36*x41*x46-x31*x36*x42*x45-x32*x33*x42*x47+x32*x33*x43*x46+x32*x34*x41*x47-x32*x34*x43*x45-x32*x35*x41*x46+x32*x35*x42*x45,
> x25*x34*x43*x48-x25*x34*x44*x47-x25*x35*x42*x48+x25*x35*x44*x46+x25*x36*x42*x47-x25*x36*x43*x46-x26*x33*x43*x48+x26*x33*x44*x47+x26*x35*x41*x48-x26*x35*x44*x45-x26*x36*x41*x47+x26*x36*x43*x45+x27*x33*x42*x48-x27*x33*x44*x46-x27*x34*x41*x48+x27*x34*x44*x45+x27*x36*x41*x46-x27*x36*x42*x45-x28*x33*x42*x47+x28*x33*x43*x46+x28*x34*x41*x47-x28*x34*x43*x45-x28*x35*x41*x46+x28*x35*x42*x45,
> x25*x30*x43*x48-x25*x30*x44*x47-x25*x31*x42*x48+x25*x31*x44*x46+x25*x32*x42*x47-x25*x32*x43*x46-x26*x29*x43*x48+x26*x29*x44*x47+x26*x31*x41*x48-x26*x31*x44*x45-x26*x32*x41*x47+x26*x32*x43*x45+x27*x29*x42*x48-x27*x29*x44*x46-x27*x30*x41*x48+x27*x30*x44*x45+x27*x32*x41*x46-x27*x32*x42*x45-x28*x29*x42*x47+x28*x29*x43*x46+x28*x30*x41*x47-x28*x30*x43*x45-x28*x31*x41*x46+x28*x31*x42*x45,
> x29*x34*x39*x48-x29*x34*x40*x47-x29*x35*x38*x48+x29*x35*x40*x46+x29*x36*x38*x47-x29*x36*x39*x46-x30*x33*x39*x48+x30*x33*x40*x47+x30*x35*x37*x48-x30*x35*x40*x45-x30*x36*x37*x47+x30*x36*x39*x45+x31*x33*x38*x48-x31*x33*x40*x46-x31*x34*x37*x48+x31*x34*x40*x45+x31*x36*x37*x46-x31*x36*x38*x45-x32*x33*x38*x47+x32*x33*x39*x46+x32*x34*x37*x47-x32*x34*x39*x45-x32*x35*x37*x46+x32*x35*x38*x45,
> x25*x34*x39*x48-x25*x34*x40*x47-x25*x35*x38*x48+x25*x35*x40*x46+x25*x36*x38*x47-x25*x36*x39*x46-x26*x33*x39*x48+x26*x33*x40*x47+x26*x35*x37*x48-x26*x35*x40*x45-x26*x36*x37*x47+x26*x36*x39*x45+x27*x33*x38*x48-x27*x33*x40*x46-x27*x34*x37*x48+x27*x34*x40*x45+x27*x36*x37*x46-x27*x36*x38*x45-x28*x33*x38*x47+x28*x33*x39*x46+x28*x34*x37*x47-x28*x34*x39*x45-x28*x35*x37*x46+x28*x35*x38*x45,
> x25*x30*x39*x48-x25*x30*x40*x47-x25*x31*x38*x48+x25*x31*x40*x46+x25*x32*x38*x47-x25*x32*x39*x46-x26*x29*x39*x48+x26*x29*x40*x47+x26*x31*x37*x48-x26*x31*x40*x45-x26*x32*x37*x47+x26*x32*x39*x45+x27*x29*x38*x48-x27*x29*x40*x46-x27*x30*x37*x48+x27*x30*x40*x45+x27*x32*x37*x46-x27*x32*x38*x45-x28*x29*x38*x47+x28*x29*x39*x46+x28*x30*x37*x47-x28*x30*x39*x45-x28*x31*x37*x46+x28*x31*x38*x45,
> x25*x30*x35*x48-x25*x30*x36*x47-x25*x31*x34*x48+x25*x31*x36*x46+x25*x32*x34*x47-x25*x32*x35*x46-x26*x29*x35*x48+x26*x29*x36*x47+x26*x31*x33*x48-x26*x31*x36*x45-x26*x32*x33*x47+x26*x32*x35*x45+x27*x29*x34*x48-x27*x29*x36*x46-x27*x30*x33*x48+x27*x30*x36*x45+x27*x32*x33*x46-x27*x32*x34*x45-x28*x29*x34*x47+x28*x29*x35*x46+x28*x30*x33*x47-x28*x30*x35*x45-x28*x31*x33*x46+x28*x31*x34*x45,
> x29*x34*x39*x44-x29*x34*x40*x43-x29*x35*x38*x44+x29*x35*x40*x42+x29*x36*x38*x43-x29*x36*x39*x42-x30*x33*x39*x44+x30*x33*x40*x43+x30*x35*x37*x44-x30*x35*x40*x41-x30*x36*x37*x43+x30*x36*x39*x41+x31*x33*x38*x44-x31*x33*x40*x42-x31*x34*x37*x44+x31*x34*x40*x41+x31*x36*x37*x42-x31*x36*x38*x41-x32*x33*x38*x43+x32*x33*x39*x42+x32*x34*x37*x43-x32*x34*x39*x41-x32*x35*x37*x42+x32*x35*x38*x41,
> x25*x34*x39*x44-x25*x34*x40*x43-x25*x35*x38*x44+x25*x35*x40*x42+x25*x36*x38*x43-x25*x36*x39*x42-x26*x33*x39*x44+x26*x33*x40*x43+x26*x35*x37*x44-x26*x35*x40*x41-x26*x36*x37*x43+x26*x36*x39*x41+x27*x33*x38*x44-x27*x33*x40*x42-x27*x34*x37*x44+x27*x34*x40*x41+x27*x36*x37*x42-x27*x36*x38*x41-x28*x33*x38*x43+x28*x33*x39*x42+x28*x34*x37*x43-x28*x34*x39*x41-x28*x35*x37*x42+x28*x35*x38*x41,
> x25*x30*x39*x44-x25*x30*x40*x43-x25*x31*x38*x44+x25*x31*x40*x42+x25*x32*x38*x43-x25*x32*x39*x42-x26*x29*x39*x44+x26*x29*x40*x43+x26*x31*x37*x44-x26*x31*x40*x41-x26*x32*x37*x43+x26*x32*x39*x41+x27*x29*x38*x44-x27*x29*x40*x42-x27*x30*x37*x44+x27*x30*x40*x41+x27*x32*x37*x42-x27*x32*x38*x41-x28*x29*x38*x43+x28*x29*x39*x42+x28*x30*x37*x43-x28*x30*x39*x41-x28*x31*x37*x42+x28*x31*x38*x41,
> x25*x30*x35*x44-x25*x30*x36*x43-x25*x31*x34*x44+x25*x31*x36*x42+x25*x32*x34*x43-x25*x32*x35*x42-x26*x29*x35*x44+x26*x29*x36*x43+x26*x31*x33*x44-x26*x31*x36*x41-x26*x32*x33*x43+x26*x32*x35*x41+x27*x29*x34*x44-x27*x29*x36*x42-x27*x30*x33*x44+x27*x30*x36*x41+x27*x32*x33*x42-x27*x32*x34*x41-x28*x29*x34*x43+x28*x29*x35*x42+x28*x30*x33*x43-x28*x30*x35*x41-x28*x31*x33*x42+x28*x31*x34*x41,
> x25*x30*x35*x40-x25*x30*x36*x39-x25*x31*x34*x40+x25*x31*x36*x38+x25*x32*x34*x39-x25*x32*x35*x38-x26*x29*x35*x40+x26*x29*x36*x39+x26*x31*x33*x40-x26*x31*x36*x37-x26*x32*x33*x39+x26*x32*x35*x37+x27*x29*x34*x40-x27*x29*x36*x38-x27*x30*x33*x40+x27*x30*x36*x37+x27*x32*x33*x38-x27*x32*x34*x37-x28*x29*x34*x39+x28*x29*x35*x38+x28*x30*x33*x39-x28*x30*x35*x37-x28*x31*x33*x38+x28*x31*x34*x37,
> -x10*x13*x19*x24+x10*x13*x20*x23+x10*x15*x17*x24-x10*x15*x20*x21-x10*x16*x17*x23+x10*x16*x19*x21+x11*x13*x18*x24-x11*x13*x20*x22-x11*x14*x17*x24+x11*x14*x20*x21+x11*x16*x17*x22-x11*x16*x18*x21-x12*x13*x18*x23+x12*x13*x19*x22+x12*x14*x17*x23-x12*x14*x19*x21-x12*x15*x17*x22+x12*x15*x18*x21+x14*x19*x24*x9-x14*x20*x23*x9-x15*x18*x24*x9+x15*x20*x22*x9+x16*x18*x23*x9-x16*x19*x22*x9,
> -x13*x18*x23*x8+x13*x18*x24*x7+x13*x19*x22*x8-x13*x19*x24*x6-x13*x20*x22*x7+x13*x20*x23*x6+x14*x17*x23*x8-x14*x17*x24*x7-x14*x19*x21*x8+x14*x19*x24*x5+x14*x20*x21*x7-x14*x20*x23*x5-x15*x17*x22*x8+x15*x17*x24*x6+x15*x18*x21*x8-x15*x18*x24*x5-x15*x20*x21*x6+x15*x20*x22*x5+x16*x17*x22*x7-x16*x17*x23*x6-x16*x18*x21*x7+x16*x18*x23*x5+x16*x19*x21*x6-x16*x19*x22*x5,
> x1*x14*x19*x24-x1*x14*x20*x23-x1*x15*x18*x24+x1*x15*x20*x22+x1*x16*x18*x23-x1*x16*x19*x22-x13*x18*x23*x4+x13*x18*x24*x3-x13*x19*x2*x24+x13*x19*x22*x4+x13*x2*x20*x23-x13*x20*x22*x3+x14*x17*x23*x4-x14*x17*x24*x3-x14*x19*x21*x4+x14*x20*x21*x3+x15*x17*x2*x24-x15*x17*x22*x4+x15*x18*x21*x4-x15*x2*x20*x21-x16*x17*x2*x23+x16*x17*x22*x3-x16*x18*x21*x3+x16*x19*x2*x21,
> x10*x17*x23*x8-x10*x17*x24*x7-x10*x19*x21*x8+x10*x19*x24*x5+x10*x20*x21*x7-x10*x20*x23*x5-x11*x17*x22*x8+x11*x17*x24*x6+x11*x18*x21*x8-x11*x18*x24*x5-x11*x20*x21*x6+x11*x20*x22*x5+x12*x17*x22*x7-x12*x17*x23*x6-x12*x18*x21*x7+x12*x18*x23*x5+x12*x19*x21*x6-x12*x19*x22*x5-x18*x23*x8*x9+x18*x24*x7*x9+x19*x22*x8*x9-x19*x24*x6*x9-x20*x22*x7*x9+x20*x23*x6*x9,
> x1*x10*x19*x24-x1*x10*x20*x23-x1*x11*x18*x24+x1*x11*x20*x22+x1*x12*x18*x23-x1*x12*x19*x22+x10*x17*x23*x4-x10*x17*x24*x3-x10*x19*x21*x4+x10*x20*x21*x3+x11*x17*x2*x24-x11*x17*x22*x4+x11*x18*x21*x4-x11*x2*x20*x21-x12*x17*x2*x23+x12*x17*x22*x3-x12*x18*x21*x3+x12*x19*x2*x21-x18*x23*x4*x9+x18*x24*x3*x9-x19*x2*x24*x9+x19*x22*x4*x9+x2*x20*x23*x9-x20*x22*x3*x9,
> x1*x18*x23*x8-x1*x18*x24*x7-x1*x19*x22*x8+x1*x19*x24*x6+x1*x20*x22*x7-x1*x20*x23*x6-x17*x2*x23*x8+x17*x2*x24*x7+x17*x22*x3*x8-x17*x22*x4*x7+x17*x23*x4*x6-x17*x24*x3*x6-x18*x21*x3*x8+x18*x21*x4*x7-x18*x23*x4*x5+x18*x24*x3*x5+x19*x2*x21*x8-x19*x2*x24*x5-x19*x21*x4*x6+x19*x22*x4*x5-x2*x20*x21*x7+x2*x20*x23*x5+x20*x21*x3*x6-x20*x22*x3*x5,
> x10*x13*x23*x8-x10*x13*x24*x7-x10*x15*x21*x8+x10*x15*x24*x5+x10*x16*x21*x7-x10*x16*x23*x5-x11*x13*x22*x8+x11*x13*x24*x6+x11*x14*x21*x8-x11*x14*x24*x5-x11*x16*x21*x6+x11*x16*x22*x5+x12*x13*x22*x7-x12*x13*x23*x6-x12*x14*x21*x7+x12*x14*x23*x5+x12*x15*x21*x6-x12*x15*x22*x5-x14*x23*x8*x9+x14*x24*x7*x9+x15*x22*x8*x9-x15*x24*x6*x9-x16*x22*x7*x9+x16*x23*x6*x9,
> x1*x10*x15*x24-x1*x10*x16*x23-x1*x11*x14*x24+x1*x11*x16*x22+x1*x12*x14*x23-x1*x12*x15*x22+x10*x13*x23*x4-x10*x13*x24*x3-x10*x15*x21*x4+x10*x16*x21*x3+x11*x13*x2*x24-x11*x13*x22*x4+x11*x14*x21*x4-x11*x16*x2*x21-x12*x13*x2*x23+x12*x13*x22*x3-x12*x14*x21*x3+x12*x15*x2*x21-x14*x23*x4*x9+x14*x24*x3*x9-x15*x2*x24*x9+x15*x22*x4*x9+x16*x2*x23*x9-x16*x22*x3*x9,
> x1*x14*x23*x8-x1*x14*x24*x7-x1*x15*x22*x8+x1*x15*x24*x6+x1*x16*x22*x7-x1*x16*x23*x6-x13*x2*x23*x8+x13*x2*x24*x7+x13*x22*x3*x8-x13*x22*x4*x7+x13*x23*x4*x6-x13*x24*x3*x6-x14*x21*x3*x8+x14*x21*x4*x7-x14*x23*x4*x5+x14*x24*x3*x5+x15*x2*x21*x8-x15*x2*x24*x5-x15*x21*x4*x6+x15*x22*x4*x5-x16*x2*x21*x7+x16*x2*x23*x5+x16*x21*x3*x6-x16*x22*x3*x5,
> x1*x10*x23*x8-x1*x10*x24*x7-x1*x11*x22*x8+x1*x11*x24*x6+x1*x12*x22*x7-x1*x12*x23*x6-x10*x21*x3*x8+x10*x21*x4*x7-x10*x23*x4*x5+x10*x24*x3*x5+x11*x2*x21*x8-x11*x2*x24*x5-x11*x21*x4*x6+x11*x22*x4*x5-x12*x2*x21*x7+x12*x2*x23*x5+x12*x21*x3*x6-x12*x22*x3*x5-x2*x23*x8*x9+x2*x24*x7*x9+x22*x3*x8*x9-x22*x4*x7*x9+x23*x4*x6*x9-x24*x3*x6*x9,
> x10*x13*x19*x8-x10*x13*x20*x7-x10*x15*x17*x8+x10*x15*x20*x5+x10*x16*x17*x7-x10*x16*x19*x5-x11*x13*x18*x8+x11*x13*x20*x6+x11*x14*x17*x8-x11*x14*x20*x5-x11*x16*x17*x6+x11*x16*x18*x5+x12*x13*x18*x7-x12*x13*x19*x6-x12*x14*x17*x7+x12*x14*x19*x5+x12*x15*x17*x6-x12*x15*x18*x5-x14*x19*x8*x9+x14*x20*x7*x9+x15*x18*x8*x9-x15*x20*x6*x9-x16*x18*x7*x9+x16*x19*x6*x9,
> x1*x10*x15*x20-x1*x10*x16*x19-x1*x11*x14*x20+x1*x11*x16*x18+x1*x12*x14*x19-x1*x12*x15*x18+x10*x13*x19*x4-x10*x13*x20*x3-x10*x15*x17*x4+x10*x16*x17*x3-x11*x13*x18*x4+x11*x13*x2*x20+x11*x14*x17*x4-x11*x16*x17*x2+x12*x13*x18*x3-x12*x13*x19*x2-x12*x14*x17*x3+x12*x15*x17*x2-x14*x19*x4*x9+x14*x20*x3*x9+x15*x18*x4*x9-x15*x2*x20*x9-x16*x18*x3*x9+x16*x19*x2*x9,
> x1*x14*x19*x8-x1*x14*x20*x7-x1*x15*x18*x8+x1*x15*x20*x6+x1*x16*x18*x7-x1*x16*x19*x6+x13*x18*x3*x8-x13*x18*x4*x7-x13*x19*x2*x8+x13*x19*x4*x6+x13*x2*x20*x7-x13*x20*x3*x6-x14*x17*x3*x8+x14*x17*x4*x7-x14*x19*x4*x5+x14*x20*x3*x5+x15*x17*x2*x8-x15*x17*x4*x6+x15*x18*x4*x5-x15*x2*x20*x5-x16*x17*x2*x7+x16*x17*x3*x6-x16*x18*x3*x5+x16*x19*x2*x5,
> x1*x10*x19*x8-x1*x10*x20*x7-x1*x11*x18*x8+x1*x11*x20*x6+x1*x12*x18*x7-x1*x12*x19*x6-x10*x17*x3*x8+x10*x17*x4*x7-x10*x19*x4*x5+x10*x20*x3*x5+x11*x17*x2*x8-x11*x17*x4*x6+x11*x18*x4*x5-x11*x2*x20*x5-x12*x17*x2*x7+x12*x17*x3*x6-x12*x18*x3*x5+x12*x19*x2*x5+x18*x3*x8*x9-x18*x4*x7*x9-x19*x2*x8*x9+x19*x4*x6*x9+x2*x20*x7*x9-x20*x3*x6*x9,
> x1*x10*x15*x8-x1*x10*x16*x7-x1*x11*x14*x8+x1*x11*x16*x6+x1*x12*x14*x7-x1*x12*x15*x6-x10*x13*x3*x8+x10*x13*x4*x7-x10*x15*x4*x5+x10*x16*x3*x5+x11*x13*x2*x8-x11*x13*x4*x6+x11*x14*x4*x5-x11*x16*x2*x5-x12*x13*x2*x7+x12*x13*x3*x6-x12*x14*x3*x5+x12*x15*x2*x5+x14*x3*x8*x9-x14*x4*x7*x9-x15*x2*x8*x9+x15*x4*x6*x9+x16*x2*x7*x9-x16*x3*x6*x9
> ]:
> 
#with(Groebner);
#G:=Basis(F, tdeg(x1,x2,x3,x4,x5,x6,x7,x8,x9), [x1,x2,x3,x4,x5,x6,x7,x8,x9],
#method=mgb,
#    characteristic=32003):
#numelems(G):
#done
> 
#infolevel['mgb'] := 5:  # print messages (optional)
#kernelopts(numcpus=12):  # set number of cores (optional)
#G := libmgb:-gbasis(65521,0,vcyc10a,cyc10a):
> 
> libname:= "/users/cip/users/ederc/fgb/FGblib", libname:
> with(FGb);
libfgbunid.so failed
Error, (in pack_fgb_find_path) cannot find a valid path !
#fgbrs:-fgb_gbasis(cyc10a,vcyc10a,[],65521,{"verb"=2, "index"=2000000}): printf("\n"):
> fgbrs:-fgb_gbasis(kat14a,vkat14a,[],65521,"index"=2000000): printf("\n"):
memory used=38.9MB, alloc=48.2MB, time=3814.19
memory used=72.5MB, alloc=49.7MB, time=3814.46
memory used=105.8MB, alloc=49.8MB, time=3814.72
memory used=140.9MB, alloc=50.5MB, time=3815.00
memory used=174.3MB, alloc=52.0MB, time=3815.26
memory used=207.7MB, alloc=52.8MB, time=3815.53
memory used=241.8MB, alloc=54.5MB, time=3815.80
memory used=275.3MB, alloc=54.5MB, time=3816.06
memory used=309.8MB, alloc=55.9MB, time=3816.34
memory used=343.4MB, alloc=55.9MB, time=3816.61
memory used=376.9MB, alloc=55.9MB, time=3816.85
memory used=411.3MB, alloc=57.4MB, time=3817.12
memory used=445.8MB, alloc=57.4MB, time=3817.39
memory used=480.4MB, alloc=58.1MB, time=3817.67
memory used=514.2MB, alloc=58.3MB, time=3817.94
memory used=549.6MB, alloc=59.7MB, time=3818.22
memory used=583.2MB, alloc=59.7MB, time=3818.49
memory used=618.2MB, alloc=61.3MB, time=3818.76
memory used=654.0MB, alloc=62.2MB, time=3819.04
memory used=688.5MB, alloc=62.2MB, time=3819.32
memory used=724.3MB, alloc=63.9MB, time=3819.60
memory used=759.9MB, alloc=64.8MB, time=3819.89
memory used=795.9MB, alloc=65.6MB, time=3820.16
memory used=832.2MB, alloc=66.5MB, time=3820.43
memory used=868.0MB, alloc=67.3MB, time=3820.69
memory used=900.6MB, alloc=67.6MB, time=3820.92
memory used=927.1MB, alloc=67.7MB, time=3821.11
memory used=948.4MB, alloc=67.7MB, time=3821.27
memory used=964.3MB, alloc=67.7MB, time=3821.40
memory used=979.8MB, alloc=67.7MB, time=3821.52
memory used=990.8MB, alloc=67.7MB, time=3821.62
memory used=1001.5MB, alloc=67.7MB, time=3821.71
memory used=1011.5MB, alloc=67.7MB, time=3821.80
memory used=1017.4MB, alloc=67.7MB, time=3821.85
memory used=1022.7MB, alloc=67.7MB, time=3821.91
memory used=1027.6MB, alloc=67.7MB, time=3821.97
memory used=1032.8MB, alloc=67.7MB, time=3822.03
memory used=1033.3MB, alloc=323.7MB, time=3822.05
memory used=1066.2MB, alloc=323.7MB, time=3822.30
memory used=1099.5MB, alloc=323.7MB, time=3822.55
memory used=1132.3MB, alloc=323.7MB, time=3822.80
memory used=1165.1MB, alloc=323.7MB, time=3823.05
memory used=1199.3MB, alloc=323.7MB, time=3823.30
memory used=1232.3MB, alloc=323.7MB, time=3823.55
memory used=1265.4MB, alloc=323.7MB, time=3823.80
memory used=1299.8MB, alloc=323.7MB, time=3824.06
memory used=1334.3MB, alloc=323.7MB, time=3824.32
memory used=1368.1MB, alloc=323.7MB, time=3824.57
memory used=1401.6MB, alloc=323.7MB, time=3824.82
memory used=1436.5MB, alloc=323.7MB, time=3825.08
memory used=1471.0MB, alloc=323.7MB, time=3825.34
memory used=1506.7MB, alloc=323.7MB, time=3825.60
memory used=1542.7MB, alloc=323.7MB, time=3825.87
memory used=1578.6MB, alloc=323.7MB, time=3826.14
memory used=1614.2MB, alloc=323.7MB, time=3826.41
memory used=1648.7MB, alloc=323.7MB, time=3826.67
memory used=1682.1MB, alloc=323.7MB, time=3826.92
memory used=1716.6MB, alloc=323.7MB, time=3827.18
memory used=1751.4MB, alloc=323.7MB, time=3827.43
memory used=1785.8MB, alloc=323.7MB, time=3827.70
memory used=1821.2MB, alloc=323.7MB, time=3827.96
memory used=1857.0MB, alloc=323.7MB, time=3828.23
memory used=1892.2MB, alloc=323.7MB, time=3828.50
memory used=1926.7MB, alloc=323.7MB, time=3828.75
memory used=1960.4MB, alloc=323.7MB, time=3829.01
memory used=1994.8MB, alloc=323.7MB, time=3829.27
memory used=2029.8MB, alloc=323.7MB, time=3829.53
memory used=2065.2MB, alloc=323.7MB, time=3829.79
memory used=2099.7MB, alloc=323.7MB, time=3830.06
memory used=2136.1MB, alloc=323.7MB, time=3830.33
memory used=2171.5MB, alloc=323.7MB, time=3830.60
memory used=2205.4MB, alloc=323.7MB, time=3830.85
memory used=2240.4MB, alloc=323.7MB, time=3831.11
memory used=2276.0MB, alloc=323.7MB, time=3831.38
memory used=2311.7MB, alloc=323.7MB, time=3831.65
memory used=2347.2MB, alloc=323.7MB, time=3831.92
memory used=2383.0MB, alloc=323.7MB, time=3832.20
memory used=2419.4MB, alloc=323.7MB, time=3832.47
memory used=2453.7MB, alloc=323.7MB, time=3832.74
memory used=2488.6MB, alloc=323.7MB, time=3833.00
memory used=2524.0MB, alloc=323.7MB, time=3833.27
memory used=2559.8MB, alloc=323.7MB, time=3833.54
memory used=2595.2MB, alloc=323.7MB, time=3833.81
memory used=2630.9MB, alloc=323.7MB, time=3834.07
memory used=2666.1MB, alloc=323.7MB, time=3834.34
memory used=2700.9MB, alloc=323.7MB, time=3834.60
memory used=2735.2MB, alloc=323.7MB, time=3834.86
memory used=2770.5MB, alloc=323.7MB, time=3835.13
memory used=2805.7MB, alloc=323.7MB, time=3835.40
memory used=2841.5MB, alloc=323.7MB, time=3835.67
memory used=2877.3MB, alloc=323.7MB, time=3835.94
memory used=2911.9MB, alloc=323.7MB, time=3836.21
memory used=2946.7MB, alloc=323.7MB, time=3836.48
memory used=2981.6MB, alloc=323.7MB, time=3836.74
memory used=3016.6MB, alloc=323.7MB, time=3837.01
memory used=3051.9MB, alloc=323.7MB, time=3837.27
memory used=3087.1MB, alloc=323.7MB, time=3837.54
memory used=3121.8MB, alloc=323.7MB, time=3837.81
memory used=3156.9MB, alloc=323.7MB, time=3838.07
memory used=3190.3MB, alloc=323.7MB, time=3838.33
memory used=3224.2MB, alloc=323.7MB, time=3838.59
memory used=3257.8MB, alloc=323.7MB, time=3838.85
memory used=3291.8MB, alloc=323.7MB, time=3839.11
memory used=3325.4MB, alloc=323.7MB, time=3839.36
memory used=3359.6MB, alloc=323.7MB, time=3839.62
memory used=3393.0MB, alloc=323.7MB, time=3839.88
memory used=3426.1MB, alloc=323.7MB, time=3840.14
memory used=3460.6MB, alloc=323.7MB, time=3840.39
memory used=3494.8MB, alloc=323.7MB, time=3840.66
memory used=3528.6MB, alloc=323.7MB, time=3840.92
memory used=3562.7MB, alloc=323.7MB, time=3841.25
memory used=3596.1MB, alloc=323.7MB, time=3841.52
memory used=3630.4MB, alloc=323.7MB, time=3841.79
memory used=3664.2MB, alloc=323.7MB, time=3842.06
memory used=3699.2MB, alloc=323.7MB, time=3842.33
memory used=3734.0MB, alloc=323.7MB, time=3842.60
memory used=3768.9MB, alloc=323.7MB, time=3842.86
memory used=3803.9MB, alloc=323.7MB, time=3843.13
memory used=3839.1MB, alloc=323.7MB, time=3843.40
memory used=3874.3MB, alloc=323.7MB, time=3843.67
memory used=3909.6MB, alloc=323.7MB, time=3843.94
memory used=3944.9MB, alloc=323.7MB, time=3844.21
memory used=3980.4MB, alloc=323.7MB, time=3844.49
memory used=4015.8MB, alloc=323.7MB, time=3844.76
memory used=4050.9MB, alloc=323.7MB, time=3845.03
memory used=4085.4MB, alloc=323.7MB, time=3845.29
memory used=4121.6MB, alloc=323.7MB, time=3845.57
memory used=4157.1MB, alloc=323.7MB, time=3845.84
memory used=4192.4MB, alloc=323.7MB, time=3846.11
memory used=4228.3MB, alloc=323.7MB, time=3846.39
memory used=4263.8MB, alloc=323.7MB, time=3846.66
memory used=4298.5MB, alloc=323.7MB, time=3846.93
memory used=4332.7MB, alloc=323.7MB, time=3847.19
memory used=4367.7MB, alloc=323.7MB, time=3847.46
memory used=4403.1MB, alloc=323.7MB, time=3847.73
memory used=4438.3MB, alloc=323.7MB, time=3848.01
memory used=4473.6MB, alloc=323.7MB, time=3848.28
memory used=4508.8MB, alloc=323.7MB, time=3848.55
memory used=4544.2MB, alloc=323.7MB, time=3848.82
memory used=4579.5MB, alloc=323.7MB, time=3849.09
memory used=4615.1MB, alloc=323.7MB, time=3849.36
memory used=4650.7MB, alloc=323.7MB, time=3849.63
memory used=4686.2MB, alloc=323.7MB, time=3849.91
memory used=4722.4MB, alloc=323.7MB, time=3850.18
memory used=4757.5MB, alloc=323.7MB, time=3850.45
memory used=4792.2MB, alloc=323.7MB, time=3850.72
memory used=4827.4MB, alloc=323.7MB, time=3850.99
memory used=4862.7MB, alloc=323.7MB, time=3851.26
memory used=4898.2MB, alloc=323.7MB, time=3851.54
memory used=4933.0MB, alloc=323.7MB, time=3851.80
memory used=4968.3MB, alloc=323.7MB, time=3852.08
memory used=5003.8MB, alloc=323.7MB, time=3852.35
memory used=5037.7MB, alloc=323.7MB, time=3852.62
memory used=5072.9MB, alloc=323.7MB, time=3852.89
memory used=5108.6MB, alloc=323.7MB, time=3853.16
memory used=5145.1MB, alloc=323.7MB, time=3853.44
memory used=5180.4MB, alloc=323.7MB, time=3853.71
memory used=5215.6MB, alloc=323.7MB, time=3853.98
memory used=5251.0MB, alloc=323.7MB, time=3854.25
memory used=5286.1MB, alloc=323.7MB, time=3854.52
memory used=5321.5MB, alloc=323.7MB, time=3854.79
memory used=5356.4MB, alloc=323.7MB, time=3855.06
memory used=5392.3MB, alloc=323.7MB, time=3855.33
memory used=5427.4MB, alloc=323.7MB, time=3855.61
memory used=5462.3MB, alloc=323.7MB, time=3855.88
memory used=5497.5MB, alloc=323.7MB, time=3856.15
memory used=5532.4MB, alloc=323.7MB, time=3856.42
memory used=5566.3MB, alloc=323.7MB, time=3856.68
memory used=5601.3MB, alloc=323.7MB, time=3856.95
memory used=5636.1MB, alloc=323.7MB, time=3857.22
memory used=5670.9MB, alloc=323.7MB, time=3857.49
memory used=5705.8MB, alloc=323.7MB, time=3857.77
memory used=5741.3MB, alloc=323.7MB, time=3858.04
memory used=5777.7MB, alloc=323.7MB, time=3858.32
memory used=5813.3MB, alloc=323.7MB, time=3858.60
memory used=5848.8MB, alloc=323.7MB, time=3858.87
memory used=5883.9MB, alloc=323.7MB, time=3859.14
memory used=5919.4MB, alloc=323.7MB, time=3859.41
memory used=5954.4MB, alloc=323.7MB, time=3859.69
memory used=5989.5MB, alloc=323.7MB, time=3859.96
memory used=6025.3MB, alloc=323.7MB, time=3860.23
memory used=6060.3MB, alloc=323.7MB, time=3860.50
memory used=6095.2MB, alloc=323.7MB, time=3860.77
memory used=6129.3MB, alloc=323.7MB, time=3861.04
memory used=6162.6MB, alloc=323.7MB, time=3861.30
memory used=6196.3MB, alloc=323.7MB, time=3861.57
memory used=6231.2MB, alloc=323.7MB, time=3861.84
memory used=6264.8MB, alloc=323.7MB, time=3862.11
memory used=6299.5MB, alloc=323.7MB, time=3862.38
memory used=6334.9MB, alloc=323.7MB, time=3862.64
memory used=6369.4MB, alloc=323.7MB, time=3862.92
memory used=6404.5MB, alloc=323.7MB, time=3863.19
memory used=6439.1MB, alloc=323.7MB, time=3863.46
memory used=6474.1MB, alloc=323.7MB, time=3863.73
memory used=6509.2MB, alloc=323.7MB, time=3864.01
memory used=6543.8MB, alloc=323.7MB, time=3864.29
memory used=6579.4MB, alloc=323.7MB, time=3864.56
memory used=6614.0MB, alloc=323.7MB, time=3864.84
memory used=6648.9MB, alloc=323.7MB, time=3865.12
memory used=6683.6MB, alloc=323.7MB, time=3865.39
memory used=6717.7MB, alloc=323.7MB, time=3865.66
memory used=6752.4MB, alloc=323.7MB, time=3865.94
memory used=6787.4MB, alloc=323.7MB, time=3866.22
memory used=6822.3MB, alloc=323.7MB, time=3866.49
memory used=6856.1MB, alloc=323.7MB, time=3866.76
memory used=6891.3MB, alloc=323.7MB, time=3867.04
memory used=6926.9MB, alloc=323.7MB, time=3867.32
memory used=6962.1MB, alloc=323.7MB, time=3867.60
memory used=6997.2MB, alloc=323.7MB, time=3867.87
memory used=7032.2MB, alloc=323.7MB, time=3868.14
memory used=7066.7MB, alloc=323.7MB, time=3868.41
memory used=7101.3MB, alloc=323.7MB, time=3868.68
memory used=7136.2MB, alloc=323.7MB, time=3868.96
memory used=7170.8MB, alloc=323.7MB, time=3869.24
memory used=7206.2MB, alloc=323.7MB, time=3869.52
memory used=7240.5MB, alloc=323.7MB, time=3869.79
memory used=7275.2MB, alloc=323.7MB, time=3870.07
memory used=7309.9MB, alloc=323.7MB, time=3870.33
memory used=7344.8MB, alloc=323.7MB, time=3870.61
memory used=7379.2MB, alloc=323.7MB, time=3870.88
memory used=7413.7MB, alloc=323.7MB, time=3871.15
memory used=7448.0MB, alloc=323.7MB, time=3871.43
memory used=7481.7MB, alloc=323.7MB, time=3871.70
memory used=7515.4MB, alloc=323.7MB, time=3871.97
memory used=7549.9MB, alloc=323.7MB, time=3872.25
memory used=7584.4MB, alloc=323.7MB, time=3872.52
memory used=7619.2MB, alloc=323.7MB, time=3872.79
memory used=7653.2MB, alloc=323.7MB, time=3873.07
memory used=7686.0MB, alloc=323.7MB, time=3873.33
memory used=7719.4MB, alloc=323.7MB, time=3873.60
memory used=7753.7MB, alloc=323.7MB, time=3873.88
memory used=7787.8MB, alloc=323.7MB, time=3874.16
memory used=7822.3MB, alloc=323.7MB, time=3874.43
memory used=7856.7MB, alloc=323.7MB, time=3874.70
memory used=7890.9MB, alloc=323.7MB, time=3874.97
memory used=7925.4MB, alloc=323.7MB, time=3875.25
memory used=7960.4MB, alloc=323.7MB, time=3875.53
memory used=7995.5MB, alloc=323.7MB, time=3875.81
memory used=8029.8MB, alloc=323.7MB, time=3876.08
memory used=8064.3MB, alloc=323.7MB, time=3876.36
memory used=8097.4MB, alloc=323.7MB, time=3876.63
memory used=8132.1MB, alloc=323.7MB, time=3876.91
memory used=8166.2MB, alloc=323.7MB, time=3877.18
memory used=8200.4MB, alloc=323.7MB, time=3877.45
memory used=8234.7MB, alloc=323.7MB, time=3877.73
memory used=8268.4MB, alloc=323.7MB, time=3878.00
memory used=8302.7MB, alloc=323.7MB, time=3878.28
memory used=8337.3MB, alloc=323.7MB, time=3878.56
memory used=8371.2MB, alloc=323.7MB, time=3878.83
memory used=8405.1MB, alloc=323.7MB, time=3879.10
memory used=8438.8MB, alloc=323.7MB, time=3879.38
memory used=8473.9MB, alloc=323.7MB, time=3879.65
memory used=8508.2MB, alloc=323.7MB, time=3879.93
memory used=8542.8MB, alloc=323.7MB, time=3880.21
memory used=8577.0MB, alloc=323.7MB, time=3880.49
memory used=8611.3MB, alloc=323.7MB, time=3880.76
memory used=8646.0MB, alloc=323.7MB, time=3881.04
memory used=8680.6MB, alloc=323.7MB, time=3881.32
memory used=8714.9MB, alloc=323.7MB, time=3881.60
memory used=8749.5MB, alloc=323.7MB, time=3881.87
memory used=8784.2MB, alloc=323.7MB, time=3882.15
memory used=8818.1MB, alloc=323.7MB, time=3882.43
memory used=8851.7MB, alloc=323.7MB, time=3882.70
memory used=8884.4MB, alloc=323.7MB, time=3882.97
memory used=8918.1MB, alloc=323.7MB, time=3883.24
memory used=8952.7MB, alloc=323.7MB, time=3883.52
memory used=8987.2MB, alloc=323.7MB, time=3883.80
memory used=9020.9MB, alloc=323.7MB, time=3884.08
memory used=9055.2MB, alloc=323.7MB, time=3884.35
memory used=9088.2MB, alloc=323.7MB, time=3884.62
memory used=9123.5MB, alloc=323.7MB, time=3884.90
memory used=9157.3MB, alloc=323.7MB, time=3885.18
memory used=9191.1MB, alloc=323.7MB, time=3885.46
memory used=9224.1MB, alloc=323.7MB, time=3885.73
memory used=9258.3MB, alloc=323.7MB, time=3886.00
memory used=9292.6MB, alloc=323.7MB, time=3886.28
memory used=9326.0MB, alloc=323.7MB, time=3886.56
memory used=9358.9MB, alloc=323.7MB, time=3886.83
memory used=9393.2MB, alloc=323.7MB, time=3887.11
memory used=9427.5MB, alloc=323.7MB, time=3887.39
memory used=9462.3MB, alloc=323.7MB, time=3887.67
memory used=9496.7MB, alloc=323.7MB, time=3887.95
memory used=9530.5MB, alloc=323.7MB, time=3888.22
memory used=9565.2MB, alloc=323.7MB, time=3888.50
memory used=9598.8MB, alloc=323.7MB, time=3888.78
memory used=9633.3MB, alloc=323.7MB, time=3889.05
memory used=9668.3MB, alloc=323.7MB, time=3889.33
memory used=9701.7MB, alloc=323.7MB, time=3889.61
memory used=9736.0MB, alloc=323.7MB, time=3889.89
memory used=9770.1MB, alloc=323.7MB, time=3890.17
memory used=9803.5MB, alloc=323.7MB, time=3890.44
memory used=9836.6MB, alloc=323.7MB, time=3890.72
memory used=9869.3MB, alloc=323.7MB, time=3890.99
memory used=9903.5MB, alloc=323.7MB, time=3891.27
memory used=9936.7MB, alloc=323.7MB, time=3891.55
memory used=9970.0MB, alloc=323.7MB, time=3891.82
memory used=10003.2MB, alloc=323.7MB, time=3892.09
memory used=10036.9MB, alloc=323.7MB, time=3892.37
memory used=10071.5MB, alloc=323.7MB, time=3892.65
memory used=10105.4MB, alloc=323.7MB, time=3892.92
memory used=10139.2MB, alloc=323.7MB, time=3893.20
memory used=10172.3MB, alloc=323.7MB, time=3893.47
memory used=10206.5MB, alloc=323.7MB, time=3893.75
memory used=10240.5MB, alloc=323.7MB, time=3894.03
memory used=10274.6MB, alloc=323.7MB, time=3894.31
memory used=10308.3MB, alloc=323.7MB, time=3894.59
memory used=10341.6MB, alloc=323.7MB, time=3894.86
memory used=10376.0MB, alloc=323.7MB, time=3895.14
memory used=10409.9MB, alloc=323.7MB, time=3895.42
memory used=10444.0MB, alloc=323.7MB, time=3895.71
memory used=10477.6MB, alloc=323.7MB, time=3895.98
memory used=10511.1MB, alloc=323.7MB, time=3896.26
memory used=10544.3MB, alloc=323.7MB, time=3896.54
memory used=10576.4MB, alloc=323.7MB, time=3896.81
memory used=10609.1MB, alloc=323.7MB, time=3897.08
memory used=10643.5MB, alloc=323.7MB, time=3897.36
memory used=10677.9MB, alloc=323.7MB, time=3897.64
memory used=10711.7MB, alloc=323.7MB, time=3897.92
memory used=10744.5MB, alloc=323.7MB, time=3898.20
memory used=10778.7MB, alloc=323.7MB, time=3898.48
memory used=10813.2MB, alloc=323.7MB, time=3898.76
memory used=10847.1MB, alloc=323.7MB, time=3899.04
memory used=10880.1MB, alloc=323.7MB, time=3899.31
memory used=10909.1MB, alloc=323.8MB, time=3899.56
memory used=10933.1MB, alloc=323.8MB, time=3899.77
memory used=10952.7MB, alloc=323.8MB, time=3899.96
memory used=10968.5MB, alloc=323.8MB, time=3900.11
memory used=10986.0MB, alloc=323.8MB, time=3900.28
memory used=10999.1MB, alloc=323.8MB, time=3900.42
memory used=11012.6MB, alloc=323.8MB, time=3900.57
memory used=11026.1MB, alloc=323.8MB, time=3900.71
memory used=11040.2MB, alloc=323.8MB, time=3900.86
memory used=11050.0MB, alloc=323.8MB, time=3900.98
memory used=11057.0MB, alloc=323.8MB, time=3901.07
memory used=11063.1MB, alloc=323.8MB, time=3901.17
memory used=11066.7MB, alloc=323.8MB, time=3901.24
memory used=11069.9MB, alloc=323.8MB, time=3901.30
memory used=11073.1MB, alloc=323.8MB, time=3901.37
memory used=11076.0MB, alloc=323.8MB, time=3901.44
memory used=11079.0MB, alloc=323.8MB, time=3901.51
memory used=11079.3MB, alloc=579.8MB, time=3901.56
memory used=11111.1MB, alloc=579.8MB, time=3901.82
memory used=11143.4MB, alloc=579.8MB, time=3902.09
memory used=11176.2MB, alloc=579.8MB, time=3902.37
memory used=11209.6MB, alloc=579.8MB, time=3902.65
memory used=11242.3MB, alloc=579.8MB, time=3902.92
memory used=11275.0MB, alloc=579.8MB, time=3903.20
memory used=11307.2MB, alloc=579.8MB, time=3903.47
memory used=11341.1MB, alloc=579.8MB, time=3903.75
memory used=11374.1MB, alloc=579.8MB, time=3904.03
memory used=11407.0MB, alloc=579.8MB, time=3904.31
memory used=11440.4MB, alloc=579.8MB, time=3904.59
memory used=11473.7MB, alloc=579.8MB, time=3904.87
memory used=11506.2MB, alloc=579.8MB, time=3905.15
memory used=11538.8MB, alloc=579.8MB, time=3905.42
memory used=11570.9MB, alloc=579.8MB, time=3905.70
memory used=11603.1MB, alloc=579.8MB, time=3905.97
memory used=11636.2MB, alloc=579.8MB, time=3906.25
memory used=11669.4MB, alloc=579.8MB, time=3906.53
memory used=11702.1MB, alloc=579.8MB, time=3906.81
memory used=11735.0MB, alloc=579.8MB, time=3907.09
memory used=11767.9MB, alloc=579.8MB, time=3907.43
memory used=11800.0MB, alloc=579.8MB, time=3907.72
memory used=11833.0MB, alloc=579.8MB, time=3908.02
memory used=11865.2MB, alloc=579.8MB, time=3908.37
memory used=11899.0MB, alloc=579.8MB, time=3908.66
memory used=11931.8MB, alloc=579.8MB, time=3908.95
memory used=11964.6MB, alloc=579.8MB, time=3909.24
memory used=11996.9MB, alloc=579.8MB, time=3909.52
memory used=12029.9MB, alloc=579.8MB, time=3909.80
memory used=12062.3MB, alloc=579.8MB, time=3910.07
memory used=12094.7MB, alloc=579.8MB, time=3910.34
memory used=12126.6MB, alloc=579.8MB, time=3910.61
memory used=12158.4MB, alloc=579.8MB, time=3910.89
memory used=12191.2MB, alloc=579.8MB, time=3911.17
memory used=12223.2MB, alloc=579.8MB, time=3911.44
memory used=12255.6MB, alloc=579.8MB, time=3911.72
memory used=12288.0MB, alloc=579.8MB, time=3912.00
memory used=12319.4MB, alloc=579.8MB, time=3912.27
memory used=12351.4MB, alloc=579.8MB, time=3912.54
memory used=12384.0MB, alloc=579.8MB, time=3912.82
memory used=12416.5MB, alloc=579.8MB, time=3913.09
memory used=12448.9MB, alloc=579.8MB, time=3913.36
memory used=12481.7MB, alloc=579.8MB, time=3913.64
memory used=12513.5MB, alloc=579.8MB, time=3913.91
memory used=12546.0MB, alloc=579.8MB, time=3914.19
memory used=12577.6MB, alloc=579.8MB, time=3914.47
memory used=12609.7MB, alloc=579.8MB, time=3914.74
memory used=12641.8MB, alloc=579.8MB, time=3915.02
memory used=12674.5MB, alloc=579.8MB, time=3915.30
memory used=12706.7MB, alloc=579.8MB, time=3915.58
memory used=12739.3MB, alloc=579.8MB, time=3915.85
memory used=12771.0MB, alloc=579.8MB, time=3916.12
memory used=12802.8MB, alloc=579.8MB, time=3916.40
memory used=12835.8MB, alloc=579.8MB, time=3916.68
memory used=12868.8MB, alloc=579.8MB, time=3916.96
memory used=12900.1MB, alloc=579.8MB, time=3917.23
memory used=12932.5MB, alloc=579.8MB, time=3917.51
memory used=12964.5MB, alloc=579.8MB, time=3917.79
memory used=12997.6MB, alloc=579.8MB, time=3918.08
memory used=13029.2MB, alloc=579.8MB, time=3918.35
memory used=13060.0MB, alloc=579.8MB, time=3918.62
memory used=13090.6MB, alloc=579.8MB, time=3918.89
memory used=13121.5MB, alloc=579.8MB, time=3919.15
memory used=13153.0MB, alloc=579.8MB, time=3919.43
memory used=13185.9MB, alloc=579.8MB, time=3919.78
memory used=13216.9MB, alloc=579.8MB, time=3920.12
memory used=13250.6MB, alloc=579.8MB, time=3920.42
memory used=13282.9MB, alloc=579.8MB, time=3920.72
memory used=13315.9MB, alloc=579.8MB, time=3921.01
memory used=13348.7MB, alloc=579.8MB, time=3921.30
memory used=13380.6MB, alloc=579.8MB, time=3921.58
memory used=13414.2MB, alloc=579.8MB, time=3921.88
memory used=13447.8MB, alloc=579.8MB, time=3922.17
memory used=13479.7MB, alloc=579.8MB, time=3922.45
memory used=13513.8MB, alloc=579.8MB, time=3922.74
memory used=13546.3MB, alloc=579.8MB, time=3923.04
memory used=13578.3MB, alloc=579.8MB, time=3923.38
memory used=13610.9MB, alloc=579.8MB, time=3923.68
memory used=13644.8MB, alloc=579.8MB, time=3923.99
memory used=13677.4MB, alloc=611.8MB, time=3924.34
memory used=13750.5MB, alloc=611.8MB, time=3924.93
memory used=13824.6MB, alloc=611.8MB, time=3925.53
memory used=13897.6MB, alloc=611.8MB, time=3926.10
memory used=13969.0MB, alloc=611.8MB, time=3926.67
memory used=14042.3MB, alloc=611.8MB, time=3927.24
memory used=14114.7MB, alloc=611.8MB, time=3927.82
memory used=14184.8MB, alloc=611.8MB, time=3928.38
memory used=14254.4MB, alloc=611.8MB, time=3928.94
memory used=14323.2MB, alloc=611.8MB, time=3929.49
memory used=14392.5MB, alloc=611.8MB, time=3930.07
memory used=14462.6MB, alloc=611.8MB, time=3930.65

#fgbrs:-fgb_gbasis(kat12a,vkat12a,[],65521,"verb"=1): printf("\n"):
> done
memory used=14513.6MB, alloc=611.8MB, time=3931.03
