
Welcome to AbstractAlgebra version 0.0.10

AbstractAlgebra comes with absolutely no warranty whatsoever


Welcome to Nemo version 0.8.6

Nemo comes with absolutely no warranty whatsoever


GB comes with absolutely no warranty whatsoever

(R, I) = GB.jason_210(32003) = (Singular Polynomial Ring (ZZ/32003),(x1,x2,x3,x4,x5,x6,x7,x8),(dp(8),C), Singular Ideal over Singular Polynomial Ring (ZZ/32003),(x1,x2,x3,x4,x5,x6,x7,x8),(dp(8),C) with generators (x1^2*x3^4+x2^2*x4^4+x1*x2*x3^2*x5^2+x1*x2*x4^2*x6^2+x1*x2*x3*x4*x5*x7+x1*x2*x3*x4*x6*x8, x2^6, x1^6))
  3.271659 seconds (131.55 k allocations: 16.899 MiB, 0.36% gc time)
  3.108628 seconds (1.96 k allocations: 10.032 MiB)
  1.645710 seconds (113.03 k allocations: 5.937 MiB)
(R, I) = GB.gametwo_7(32003) = (Singular Polynomial Ring (ZZ/32003),(p1,p2,p3,p4,p5,p6,p7),(dp(7),C), Singular Ideal over Singular Polynomial Ring (ZZ/32003),(p1,p2,p3,p4,p5,p6,p7),(dp(7),C) with generators (3821*p2*p3*p4*p5*p6*p7-7730*p2*p3*p4*p5*p6-164*p2*p3*p4*p5*p7-2536*p2*p3*p4*p6*p7-4321*p2*p3*p5*p6*p7-2161*p2*p4*p5*p6*p7-2188*p3*p4*p5*p6*p7-486*p2*p3*p4*p5+3491*p2*p3*p4*p6+4247*p2*p3*p5*p6+3528*p2*p4*p5*p6+2616*p3*p4*p5*p6-101*p2*p3*p4*p7+1765*p2*p3*p5*p7+258*p2*p4*p5*p7-378*p3*p4*p5*p7+1246*p2*p3*p6*p7+2320*p2*p4*p6*p7+1776*p3*p4*p6*p7+1715*p2*p5*p6*p7+728*p3*p5*p6*p7+842*p4*p5*p6*p7+69*p2*p3*p4-1660*p2*p3*p5+1863*p2*p4*p5+1520*p3*p4*p5-245*p2*p3*p6-804*p2*p4*p6-2552*p3*p4*p6-3152*p2*p5*p6+40*p3*p5*p6-1213*p4*p5*p6+270*p2*p3*p7-851*p2*p4*p7+327*p3*p4*p7-1151*p2*p5*p7+1035*p3*p5*p7-161*p4*p5*p7-230*p2*p6*p7-294*p3*p6*p7-973*p4*p6*p7-264*p5*p6*p7+874*p2*p3-2212*p2*p4+168*p3*p4+511*p2*p5-918*p3*p5-2017*p4*p5-76*p2*p6+465*p3*p6+1629*p4*p6+856*p5*p6-54*p2*p7-1355*p3*p7+227*p4*p7+77*p5*p7-220*p6*p7-696*p2+458*p3+486*p4+661*p5-650*p6+671*p7-439, -6157*p1*p3*p4*p5*p6*p7+13318*p1*p3*p4*p5*p6+5928*p1*p3*p4*p5*p7+1904*p1*p3*p4*p6*p7+2109*p1*p3*p5*p6*p7+8475*p1*p4*p5*p6*p7+2878*p3*p4*p5*p6*p7-8339*p1*p3*p4*p5-2800*p1*p3*p4*p6-9649*p1*p3*p5*p6-10964*p1*p4*p5*p6-4481*p3*p4*p5*p6+251*p1*p3*p4*p7-4245*p1*p3*p5*p7-7707*p1*p4*p5*p7-2448*p3*p4*p5*p7+1057*p1*p3*p6*p7-3605*p1*p4*p6*p7+546*p3*p4*p6*p7-3633*p1*p5*p6*p7-699*p3*p5*p6*p7-4126*p4*p5*p6*p7-730*p1*p3*p4+5519*p1*p3*p5+8168*p1*p4*p5+4366*p3*p4*p5+2847*p1*p3*p6+2058*p1*p4*p6-1416*p3*p4*p6+8004*p1*p5*p6+4740*p3*p5*p6+5361*p4*p5*p6-677*p1*p3*p7+1755*p1*p4*p7-760*p3*p4*p7+3384*p1*p5*p7+2038*p3*p5*p7+4119*p4*p5*p7+812*p1*p6*p7+11*p3*p6*p7+2022*p4*p6*p7+2642*p5*p6*p7+1276*p1*p3-1723*p1*p4+121*p3*p4-6456*p1*p5-3710*p3*p5-4525*p4*p5-2187*p1*p6-1559*p3*p6-848*p4*p6-4041*p5*p6-83*p1*p7-12*p3*p7-1180*p4*p7-2747*p5*p7-1970*p6*p7+2575*p1-161*p3+2149*p4+4294*p5+1687*p6+958*p7-1950, 182*p1*p2*p4*p5*p6*p7-2824*p1*p2*p4*p5*p6-3513*p1*p2*p4*p5*p7-3386*p1*p2*p4*p6*p7-2330*p1*p2*p5*p6*p7-2838*p1*p4*p5*p6*p7+1294*p2*p4*p5*p6*p7+4764*p1*p2*p4*p5+1647*p1*p2*p4*p6+4221*p1*p2*p5*p6+814*p1*p4*p5*p6+2738*p2*p4*p5*p6+4057*p1*p2*p4*p7+2403*p1*p2*p5*p7+2552*p1*p4*p5*p7+471*p2*p4*p5*p7+448*p1*p2*p6*p7+2336*p1*p4*p6*p7+1617*p2*p4*p6*p7+2220*p1*p5*p6*p7-1543*p2*p5*p6*p7+402*p4*p5*p6*p7-5184*p1*p2*p4-3983*p1*p2*p5+44*p1*p4*p5-1327*p2*p4*p5-581*p1*p2*p6-389*p1*p4*p6-2722*p2*p4*p6+443*p1*p5*p6-2893*p2*p5*p6-154*p4*p5*p6-1277*p1*p2*p7-2018*p1*p4*p7-509*p2*p4*p7-1254*p1*p5*p7+602*p2*p5*p7-464*p4*p5*p7-647*p1*p6*p7+922*p2*p6*p7-1463*p4*p6*p7+729*p5*p6*p7+2665*p1*p2+591*p1*p4+981*p2*p4-444*p1*p5+1818*p2*p5-1985*p4*p5-1818*p1*p6+197*p2*p6+1038*p4*p6+340*p5*p6+399*p1*p7-835*p2*p7+787*p4*p7-753*p5*p7-221*p6*p7+481*p1+260*p2+1713*p4+1219*p5+794*p6+762*p7-1231, 2923*p1*p2*p3*p5*p6*p7-4328*p1*p2*p3*p5*p6-3674*p1*p2*p3*p5*p7-3291*p1*p2*p3*p6*p7-4955*p1*p2*p5*p6*p7-8*p1*p3*p5*p6*p7-135*p2*p3*p5*p6*p7+7784*p1*p2*p3*p5+3471*p1*p2*p3*p6+1544*p1*p2*p5*p6+1607*p1*p3*p5*p6+1710*p2*p3*p5*p6+2434*p1*p2*p3*p7+1408*p1*p2*p5*p7-215*p1*p3*p5*p7+507*p2*p3*p5*p7+2208*p1*p2*p6*p7+1920*p1*p3*p6*p7-389*p2*p3*p6*p7+1304*p1*p5*p6*p7+2480*p2*p5*p6*p7+102*p3*p5*p6*p7-2683*p1*p2*p3-3508*p1*p2*p5-3505*p1*p3*p5-2400*p2*p3*p5-2236*p1*p2*p6-1727*p1*p3*p6-1354*p2*p3*p6-1022*p1*p5*p6-2099*p2*p5*p6-918*p3*p5*p6-495*p1*p2*p7-109*p1*p3*p7+474*p2*p3*p7+268*p1*p5*p7+1084*p2*p5*p7-190*p3*p5*p7-666*p1*p6*p7-497*p2*p6*p7+615*p3*p6*p7-912*p5*p6*p7+473*p1*p2+742*p1*p3+186*p2*p3+1021*p1*p5+2556*p2*p5+2312*p3*p5+1075*p1*p6+920*p2*p6+164*p3*p6+80*p5*p6-199*p1*p7-1270*p2*p7-1050*p3*p7-724*p5*p7+136*p6*p7+740*p1-474*p2+37*p3-1056*p5+303*p6+833*p7+736, 4990*p1*p2*p3*p4*p6*p7-3067*p1*p2*p3*p4*p6-1661*p1*p2*p3*p4*p7-4064*p1*p2*p3*p6*p7-223*p1*p2*p4*p6*p7-5229*p1*p3*p4*p6*p7-4636*p2*p3*p4*p6*p7+5720*p1*p2*p3*p4+4872*p1*p2*p3*p6+1643*p1*p2*p4*p6+4536*p1*p3*p4*p6+2451*p2*p3*p4*p6+1264*p1*p2*p3*p7+70*p1*p2*p4*p7+2213*p1*p3*p4*p7+1734*p2*p3*p4*p7+1698*p1*p2*p6*p7+3799*p1*p3*p6*p7+1622*p2*p3*p6*p7+901*p1*p4*p6*p7-496*p2*p4*p6*p7+3782*p3*p4*p6*p7-5591*p1*p2*p3-1303*p1*p2*p4-6383*p1*p3*p4-2332*p2*p3*p4-3179*p1*p2*p6-6257*p1*p3*p6-3654*p2*p3*p6-1830*p1*p4*p6-1473*p2*p4*p6-3278*p3*p4*p6-1462*p1*p2*p7-1495*p1*p3*p7-468*p2*p3*p7-400*p1*p4*p7+431*p2*p4*p7-1907*p3*p4*p7-1547*p1*p6*p7-214*p2*p6*p7-1423*p3*p6*p7-1625*p4*p6*p7+5708*p1*p2+3809*p1*p3+2053*p2*p3+2824*p1*p4+1122*p2*p4+3653*p3*p4+3658*p1*p6+3001*p2*p6+3890*p3*p6+2371*p4*p6+602*p1*p7+185*p2*p7+899*p3*p7+963*p4*p7+560*p6*p7-4557*p1-3536*p2-1635*p3-2552*p4-2595*p6-207*p7+2740, -1407*p1*p2*p3*p4*p5*p7+4444*p1*p2*p3*p4*p5+2350*p1*p2*p3*p4*p7+5424*p1*p2*p3*p5*p7-2524*p1*p2*p4*p5*p7-985*p1*p3*p4*p5*p7-431*p2*p3*p4*p5*p7-2662*p1*p2*p3*p4-5342*p1*p2*p3*p5-39*p1*p2*p4*p5-2525*p1*p3*p4*p5-2650*p2*p3*p4*p5-3553*p1*p2*p3*p7-71*p1*p2*p4*p7-3268*p1*p3*p4*p7-1140*p2*p3*p4*p7-702*p1*p2*p5*p7-924*p1*p3*p5*p7-2198*p2*p3*p5*p7+4087*p1*p4*p5*p7+2709*p2*p4*p5*p7+587*p3*p4*p5*p7+968*p1*p2*p3-150*p1*p2*p4+909*p1*p3*p4+4587*p2*p3*p4+929*p1*p2*p5+1804*p1*p3*p5+2226*p2*p3*p5-916*p1*p4*p5+906*p2*p4*p5+2735*p3*p4*p5+1894*p1*p2*p7+2998*p1*p3*p7+1611*p2*p3*p7+304*p1*p4*p7-1601*p2*p4*p7+2066*p3*p4*p7-1971*p1*p5*p7-480*p2*p5*p7-500*p3*p5*p7-2617*p4*p5*p7-532*p1*p2+2016*p1*p3-2574*p2*p3+529*p1*p4-1251*p2*p4-2082*p3*p4+280*p1*p5-852*p2*p5-476*p3*p5-340*p4*p5-924*p1*p7+253*p2*p7-1090*p3*p7+170*p4*p7+1204*p5*p7-869*p1+1394*p2-264*p3+719*p4+219*p5-128*p7+506, -901*p1*p2*p3*p4*p5*p6+1805*p1*p2*p3*p4*p5-1103*p1*p2*p3*p4*p6-1746*p1*p2*p3*p5*p6-1968*p1*p2*p4*p5*p6+3957*p1*p3*p4*p5*p6+1293*p2*p3*p4*p5*p6-523*p1*p2*p3*p4-2498*p1*p2*p3*p5+693*p1*p2*p4*p5-2805*p1*p3*p4*p5-722*p2*p3*p4*p5-770*p1*p2*p3*p6+1088*p1*p2*p4*p6-232*p1*p3*p4*p6+2657*p2*p3*p4*p6+3281*p1*p2*p5*p6-1066*p1*p3*p5*p6+240*p2*p3*p5*p6-1174*p1*p4*p5*p6+1304*p2*p4*p5*p6-2070*p3*p4*p5*p6+2571*p1*p2*p3+115*p1*p2*p4+3899*p1*p3*p4-4641*p2*p3*p4-752*p1*p2*p5+1531*p1*p3*p5+1178*p2*p3*p5+11*p1*p4*p5-1144*p2*p4*p5-1701*p3*p4*p5+592*p1*p2*p6+1140*p1*p3*p6+130*p2*p3*p6+304*p1*p4*p6-2273*p2*p4*p6-1224*p3*p4*p6-2*p1*p5*p6-1090*p2*p5*p6+585*p3*p5*p6+670*p4*p5*p6-1867*p1*p2-4780*p1*p3+1079*p2*p3-2435*p1*p4+2901*p2*p4+2073*p3*p4+499*p1*p5+908*p2*p5+323*p3*p5+1631*p4*p5-966*p1*p6-315*p2*p6-481*p3*p6+759*p4*p6-595*p5*p6+3233*p1-1978*p2+729*p3-1184*p4-40*p5+446*p6+282))
  5.671580 seconds (10.76 k allocations: 81.533 MiB, 0.54% gc time)
 16.850468 seconds (10.75 k allocations: 81.533 MiB, 0.42% gc time)
448.183983 seconds (11 allocations: 368 bytes)
(R, I) = GB.yang_1(32003) = (Singular Polynomial Ring (ZZ/32003),(x1,x2,x3,x4,x5,x6,x7,x8,x9,x10,x11,x12,x13,x14,x15,x16,x17,x18,x19,x20,x21,x22,x23,x24,x25,x26,x27,x28,x29,x30,x31,x32,x33,x34,x35,x36,x37,x38,x39,x40,x41,x42,x43,x44,x45,x46,x47,x48),(dp(48),C), Singular Ideal over Singular Polynomial Ring (ZZ/32003),(x1,x2,x3,x4,x5,x6,x7,x8,x9,x10,x11,x12,x13,x14,x15,x16,x17,x18,x19,x20,x21,x22,x23,x24,x25,x26,x27,x28,x29,x30,x31,x32,x33,x34,x35,x36,x37,x38,x39,x40,x41,x42,x43,x44,x45,x46,x47,x48),(dp(48),C) with generators (x21*x45+x22*x46+x23*x47+x24*x48, x17*x45+x18*x46+x19*x47+x20*x48, x13*x45+x14*x46+x15*x47+x16*x48, x9*x45+x10*x46+x11*x47+x12*x48, x5*x45+x6*x46+x7*x47+x8*x48, x1*x45+x2*x46+x3*x47+x4*x48, x21*x41+x22*x42+x23*x43+x24*x44, x17*x41+x18*x42+x19*x43+x20*x44, x13*x41+x14*x42+x15*x43+x16*x44, x9*x41+x10*x42+x11*x43+x12*x44, x5*x41+x6*x42+x7*x43+x8*x44, x1*x41+x2*x42+x3*x43+x4*x44, x21*x37+x22*x38+x23*x39+x24*x40, x17*x37+x18*x38+x19*x39+x20*x40, x13*x37+x14*x38+x15*x39+x16*x40, x9*x37+x10*x38+x11*x39+x12*x40, x5*x37+x6*x38+x7*x39+x8*x40, x1*x37+x2*x38+x3*x39+x4*x40, x21*x33+x22*x34+x23*x35+x24*x36, x17*x33+x18*x34+x19*x35+x20*x36, x13*x33+x14*x34+x15*x35+x16*x36, x9*x33+x10*x34+x11*x35+x12*x36, x5*x33+x6*x34+x7*x35+x8*x36, x1*x33+x2*x34+x3*x35+x4*x36, x21*x29+x22*x30+x23*x31+x24*x32, x17*x29+x18*x30+x19*x31+x20*x32, x13*x29+x14*x30+x15*x31+x16*x32, x9*x29+x10*x30+x11*x31+x12*x32, x5*x29+x6*x30+x7*x31+x8*x32, x1*x29+x2*x30+x3*x31+x4*x32, x21*x25+x22*x26+x23*x27+x24*x28, x17*x25+x18*x26+x19*x27+x20*x28, x13*x25+x14*x26+x15*x27+x16*x28, x9*x25+x10*x26+x11*x27+x12*x28, x5*x25+x6*x26+x7*x27+x8*x28, x1*x25+x2*x26+x3*x27+x4*x28, x36*x39*x42*x45-x35*x40*x42*x45-x36*x38*x43*x45+x34*x40*x43*x45+x35*x38*x44*x45-x34*x39*x44*x45-x36*x39*x41*x46+x35*x40*x41*x46+x36*x37*x43*x46-x33*x40*x43*x46-x35*x37*x44*x46+x33*x39*x44*x46+x36*x38*x41*x47-x34*x40*x41*x47-x36*x37*x42*x47+x33*x40*x42*x47+x34*x37*x44*x47-x33*x38*x44*x47-x35*x38*x41*x48+x34*x39*x41*x48+x35*x37*x42*x48-x33*x39*x42*x48-x34*x37*x43*x48+x33*x38*x43*x48, x32*x39*x42*x45-x31*x40*x42*x45-x32*x38*x43*x45+x30*x40*x43*x45+x31*x38*x44*x45-x30*x39*x44*x45-x32*x39*x41*x46+x31*x40*x41*x46+x32*x37*x43*x46-x29*x40*x43*x46-x31*x37*x44*x46+x29*x39*x44*x46+x32*x38*x41*x47-x30*x40*x41*x47-x32*x37*x42*x47+x29*x40*x42*x47+x30*x37*x44*x47-x29*x38*x44*x47-x31*x38*x41*x48+x30*x39*x41*x48+x31*x37*x42*x48-x29*x39*x42*x48-x30*x37*x43*x48+x29*x38*x43*x48, x28*x39*x42*x45-x27*x40*x42*x45-x28*x38*x43*x45+x26*x40*x43*x45+x27*x38*x44*x45-x26*x39*x44*x45-x28*x39*x41*x46+x27*x40*x41*x46+x28*x37*x43*x46-x25*x40*x43*x46-x27*x37*x44*x46+x25*x39*x44*x46+x28*x38*x41*x47-x26*x40*x41*x47-x28*x37*x42*x47+x25*x40*x42*x47+x26*x37*x44*x47-x25*x38*x44*x47-x27*x38*x41*x48+x26*x39*x41*x48+x27*x37*x42*x48-x25*x39*x42*x48-x26*x37*x43*x48+x25*x38*x43*x48, x32*x35*x42*x45-x31*x36*x42*x45-x32*x34*x43*x45+x30*x36*x43*x45+x31*x34*x44*x45-x30*x35*x44*x45-x32*x35*x41*x46+x31*x36*x41*x46+x32*x33*x43*x46-x29*x36*x43*x46-x31*x33*x44*x46+x29*x35*x44*x46+x32*x34*x41*x47-x30*x36*x41*x47-x32*x33*x42*x47+x29*x36*x42*x47+x30*x33*x44*x47-x29*x34*x44*x47-x31*x34*x41*x48+x30*x35*x41*x48+x31*x33*x42*x48-x29*x35*x42*x48-x30*x33*x43*x48+x29*x34*x43*x48, x28*x35*x42*x45-x27*x36*x42*x45-x28*x34*x43*x45+x26*x36*x43*x45+x27*x34*x44*x45-x26*x35*x44*x45-x28*x35*x41*x46+x27*x36*x41*x46+x28*x33*x43*x46-x25*x36*x43*x46-x27*x33*x44*x46+x25*x35*x44*x46+x28*x34*x41*x47-x26*x36*x41*x47-x28*x33*x42*x47+x25*x36*x42*x47+x26*x33*x44*x47-x25*x34*x44*x47-x27*x34*x41*x48+x26*x35*x41*x48+x27*x33*x42*x48-x25*x35*x42*x48-x26*x33*x43*x48+x25*x34*x43*x48, x28*x31*x42*x45-x27*x32*x42*x45-x28*x30*x43*x45+x26*x32*x43*x45+x27*x30*x44*x45-x26*x31*x44*x45-x28*x31*x41*x46+x27*x32*x41*x46+x28*x29*x43*x46-x25*x32*x43*x46-x27*x29*x44*x46+x25*x31*x44*x46+x28*x30*x41*x47-x26*x32*x41*x47-x28*x29*x42*x47+x25*x32*x42*x47+x26*x29*x44*x47-x25*x30*x44*x47-x27*x30*x41*x48+x26*x31*x41*x48+x27*x29*x42*x48-x25*x31*x42*x48-x26*x29*x43*x48+x25*x30*x43*x48, x32*x35*x38*x45-x31*x36*x38*x45-x32*x34*x39*x45+x30*x36*x39*x45+x31*x34*x40*x45-x30*x35*x40*x45-x32*x35*x37*x46+x31*x36*x37*x46+x32*x33*x39*x46-x29*x36*x39*x46-x31*x33*x40*x46+x29*x35*x40*x46+x32*x34*x37*x47-x30*x36*x37*x47-x32*x33*x38*x47+x29*x36*x38*x47+x30*x33*x40*x47-x29*x34*x40*x47-x31*x34*x37*x48+x30*x35*x37*x48+x31*x33*x38*x48-x29*x35*x38*x48-x30*x33*x39*x48+x29*x34*x39*x48, x28*x35*x38*x45-x27*x36*x38*x45-x28*x34*x39*x45+x26*x36*x39*x45+x27*x34*x40*x45-x26*x35*x40*x45-x28*x35*x37*x46+x27*x36*x37*x46+x28*x33*x39*x46-x25*x36*x39*x46-x27*x33*x40*x46+x25*x35*x40*x46+x28*x34*x37*x47-x26*x36*x37*x47-x28*x33*x38*x47+x25*x36*x38*x47+x26*x33*x40*x47-x25*x34*x40*x47-x27*x34*x37*x48+x26*x35*x37*x48+x27*x33*x38*x48-x25*x35*x38*x48-x26*x33*x39*x48+x25*x34*x39*x48, x28*x31*x38*x45-x27*x32*x38*x45-x28*x30*x39*x45+x26*x32*x39*x45+x27*x30*x40*x45-x26*x31*x40*x45-x28*x31*x37*x46+x27*x32*x37*x46+x28*x29*x39*x46-x25*x32*x39*x46-x27*x29*x40*x46+x25*x31*x40*x46+x28*x30*x37*x47-x26*x32*x37*x47-x28*x29*x38*x47+x25*x32*x38*x47+x26*x29*x40*x47-x25*x30*x40*x47-x27*x30*x37*x48+x26*x31*x37*x48+x27*x29*x38*x48-x25*x31*x38*x48-x26*x29*x39*x48+x25*x30*x39*x48, x28*x31*x34*x45-x27*x32*x34*x45-x28*x30*x35*x45+x26*x32*x35*x45+x27*x30*x36*x45-x26*x31*x36*x45-x28*x31*x33*x46+x27*x32*x33*x46+x28*x29*x35*x46-x25*x32*x35*x46-x27*x29*x36*x46+x25*x31*x36*x46+x28*x30*x33*x47-x26*x32*x33*x47-x28*x29*x34*x47+x25*x32*x34*x47+x26*x29*x36*x47-x25*x30*x36*x47-x27*x30*x33*x48+x26*x31*x33*x48+x27*x29*x34*x48-x25*x31*x34*x48-x26*x29*x35*x48+x25*x30*x35*x48, x32*x35*x38*x41-x31*x36*x38*x41-x32*x34*x39*x41+x30*x36*x39*x41+x31*x34*x40*x41-x30*x35*x40*x41-x32*x35*x37*x42+x31*x36*x37*x42+x32*x33*x39*x42-x29*x36*x39*x42-x31*x33*x40*x42+x29*x35*x40*x42+x32*x34*x37*x43-x30*x36*x37*x43-x32*x33*x38*x43+x29*x36*x38*x43+x30*x33*x40*x43-x29*x34*x40*x43-x31*x34*x37*x44+x30*x35*x37*x44+x31*x33*x38*x44-x29*x35*x38*x44-x30*x33*x39*x44+x29*x34*x39*x44, x28*x35*x38*x41-x27*x36*x38*x41-x28*x34*x39*x41+x26*x36*x39*x41+x27*x34*x40*x41-x26*x35*x40*x41-x28*x35*x37*x42+x27*x36*x37*x42+x28*x33*x39*x42-x25*x36*x39*x42-x27*x33*x40*x42+x25*x35*x40*x42+x28*x34*x37*x43-x26*x36*x37*x43-x28*x33*x38*x43+x25*x36*x38*x43+x26*x33*x40*x43-x25*x34*x40*x43-x27*x34*x37*x44+x26*x35*x37*x44+x27*x33*x38*x44-x25*x35*x38*x44-x26*x33*x39*x44+x25*x34*x39*x44, x28*x31*x38*x41-x27*x32*x38*x41-x28*x30*x39*x41+x26*x32*x39*x41+x27*x30*x40*x41-x26*x31*x40*x41-x28*x31*x37*x42+x27*x32*x37*x42+x28*x29*x39*x42-x25*x32*x39*x42-x27*x29*x40*x42+x25*x31*x40*x42+x28*x30*x37*x43-x26*x32*x37*x43-x28*x29*x38*x43+x25*x32*x38*x43+x26*x29*x40*x43-x25*x30*x40*x43-x27*x30*x37*x44+x26*x31*x37*x44+x27*x29*x38*x44-x25*x31*x38*x44-x26*x29*x39*x44+x25*x30*x39*x44, x28*x31*x34*x41-x27*x32*x34*x41-x28*x30*x35*x41+x26*x32*x35*x41+x27*x30*x36*x41-x26*x31*x36*x41-x28*x31*x33*x42+x27*x32*x33*x42+x28*x29*x35*x42-x25*x32*x35*x42-x27*x29*x36*x42+x25*x31*x36*x42+x28*x30*x33*x43-x26*x32*x33*x43-x28*x29*x34*x43+x25*x32*x34*x43+x26*x29*x36*x43-x25*x30*x36*x43-x27*x30*x33*x44+x26*x31*x33*x44+x27*x29*x34*x44-x25*x31*x34*x44-x26*x29*x35*x44+x25*x30*x35*x44, x28*x31*x34*x37-x27*x32*x34*x37-x28*x30*x35*x37+x26*x32*x35*x37+x27*x30*x36*x37-x26*x31*x36*x37-x28*x31*x33*x38+x27*x32*x33*x38+x28*x29*x35*x38-x25*x32*x35*x38-x27*x29*x36*x38+x25*x31*x36*x38+x28*x30*x33*x39-x26*x32*x33*x39-x28*x29*x34*x39+x25*x32*x34*x39+x26*x29*x36*x39-x25*x30*x36*x39-x27*x30*x33*x40+x26*x31*x33*x40+x27*x29*x34*x40-x25*x31*x34*x40-x26*x29*x35*x40+x25*x30*x35*x40, x12*x15*x18*x21-x11*x16*x18*x21-x12*x14*x19*x21+x10*x16*x19*x21+x11*x14*x20*x21-x10*x15*x20*x21-x12*x15*x17*x22+x11*x16*x17*x22+x12*x13*x19*x22-x9*x16*x19*x22-x11*x13*x20*x22+x9*x15*x20*x22+x12*x14*x17*x23-x10*x16*x17*x23-x12*x13*x18*x23+x9*x16*x18*x23+x10*x13*x20*x23-x9*x14*x20*x23-x11*x14*x17*x24+x10*x15*x17*x24+x11*x13*x18*x24-x9*x15*x18*x24-x10*x13*x19*x24+x9*x14*x19*x24, x8*x15*x18*x21-x7*x16*x18*x21-x8*x14*x19*x21+x6*x16*x19*x21+x7*x14*x20*x21-x6*x15*x20*x21-x8*x15*x17*x22+x7*x16*x17*x22+x8*x13*x19*x22-x5*x16*x19*x22-x7*x13*x20*x22+x5*x15*x20*x22+x8*x14*x17*x23-x6*x16*x17*x23-x8*x13*x18*x23+x5*x16*x18*x23+x6*x13*x20*x23-x5*x14*x20*x23-x7*x14*x17*x24+x6*x15*x17*x24+x7*x13*x18*x24-x5*x15*x18*x24-x6*x13*x19*x24+x5*x14*x19*x24, x4*x15*x18*x21-x3*x16*x18*x21-x4*x14*x19*x21+x2*x16*x19*x21+x3*x14*x20*x21-x2*x15*x20*x21-x4*x15*x17*x22+x3*x16*x17*x22+x4*x13*x19*x22-x1*x16*x19*x22-x3*x13*x20*x22+x1*x15*x20*x22+x4*x14*x17*x23-x2*x16*x17*x23-x4*x13*x18*x23+x1*x16*x18*x23+x2*x13*x20*x23-x1*x14*x20*x23-x3*x14*x17*x24+x2*x15*x17*x24+x3*x13*x18*x24-x1*x15*x18*x24-x2*x13*x19*x24+x1*x14*x19*x24, x8*x11*x18*x21-x7*x12*x18*x21-x8*x10*x19*x21+x6*x12*x19*x21+x7*x10*x20*x21-x6*x11*x20*x21-x8*x11*x17*x22+x7*x12*x17*x22+x8*x9*x19*x22-x5*x12*x19*x22-x7*x9*x20*x22+x5*x11*x20*x22+x8*x10*x17*x23-x6*x12*x17*x23-x8*x9*x18*x23+x5*x12*x18*x23+x6*x9*x20*x23-x5*x10*x20*x23-x7*x10*x17*x24+x6*x11*x17*x24+x7*x9*x18*x24-x5*x11*x18*x24-x6*x9*x19*x24+x5*x10*x19*x24, x4*x11*x18*x21-x3*x12*x18*x21-x4*x10*x19*x21+x2*x12*x19*x21+x3*x10*x20*x21-x2*x11*x20*x21-x4*x11*x17*x22+x3*x12*x17*x22+x4*x9*x19*x22-x1*x12*x19*x22-x3*x9*x20*x22+x1*x11*x20*x22+x4*x10*x17*x23-x2*x12*x17*x23-x4*x9*x18*x23+x1*x12*x18*x23+x2*x9*x20*x23-x1*x10*x20*x23-x3*x10*x17*x24+x2*x11*x17*x24+x3*x9*x18*x24-x1*x11*x18*x24-x2*x9*x19*x24+x1*x10*x19*x24, x4*x7*x18*x21-x3*x8*x18*x21-x4*x6*x19*x21+x2*x8*x19*x21+x3*x6*x20*x21-x2*x7*x20*x21-x4*x7*x17*x22+x3*x8*x17*x22+x4*x5*x19*x22-x1*x8*x19*x22-x3*x5*x20*x22+x1*x7*x20*x22+x4*x6*x17*x23-x2*x8*x17*x23-x4*x5*x18*x23+x1*x8*x18*x23+x2*x5*x20*x23-x1*x6*x20*x23-x3*x6*x17*x24+x2*x7*x17*x24+x3*x5*x18*x24-x1*x7*x18*x24-x2*x5*x19*x24+x1*x6*x19*x24, x8*x11*x14*x21-x7*x12*x14*x21-x8*x10*x15*x21+x6*x12*x15*x21+x7*x10*x16*x21-x6*x11*x16*x21-x8*x11*x13*x22+x7*x12*x13*x22+x8*x9*x15*x22-x5*x12*x15*x22-x7*x9*x16*x22+x5*x11*x16*x22+x8*x10*x13*x23-x6*x12*x13*x23-x8*x9*x14*x23+x5*x12*x14*x23+x6*x9*x16*x23-x5*x10*x16*x23-x7*x10*x13*x24+x6*x11*x13*x24+x7*x9*x14*x24-x5*x11*x14*x24-x6*x9*x15*x24+x5*x10*x15*x24, x4*x11*x14*x21-x3*x12*x14*x21-x4*x10*x15*x21+x2*x12*x15*x21+x3*x10*x16*x21-x2*x11*x16*x21-x4*x11*x13*x22+x3*x12*x13*x22+x4*x9*x15*x22-x1*x12*x15*x22-x3*x9*x16*x22+x1*x11*x16*x22+x4*x10*x13*x23-x2*x12*x13*x23-x4*x9*x14*x23+x1*x12*x14*x23+x2*x9*x16*x23-x1*x10*x16*x23-x3*x10*x13*x24+x2*x11*x13*x24+x3*x9*x14*x24-x1*x11*x14*x24-x2*x9*x15*x24+x1*x10*x15*x24, x4*x7*x14*x21-x3*x8*x14*x21-x4*x6*x15*x21+x2*x8*x15*x21+x3*x6*x16*x21-x2*x7*x16*x21-x4*x7*x13*x22+x3*x8*x13*x22+x4*x5*x15*x22-x1*x8*x15*x22-x3*x5*x16*x22+x1*x7*x16*x22+x4*x6*x13*x23-x2*x8*x13*x23-x4*x5*x14*x23+x1*x8*x14*x23+x2*x5*x16*x23-x1*x6*x16*x23-x3*x6*x13*x24+x2*x7*x13*x24+x3*x5*x14*x24-x1*x7*x14*x24-x2*x5*x15*x24+x1*x6*x15*x24, x4*x7*x10*x21-x3*x8*x10*x21-x4*x6*x11*x21+x2*x8*x11*x21+x3*x6*x12*x21-x2*x7*x12*x21-x4*x7*x9*x22+x3*x8*x9*x22+x4*x5*x11*x22-x1*x8*x11*x22-x3*x5*x12*x22+x1*x7*x12*x22+x4*x6*x9*x23-x2*x8*x9*x23-x4*x5*x10*x23+x1*x8*x10*x23+x2*x5*x12*x23-x1*x6*x12*x23-x3*x6*x9*x24+x2*x7*x9*x24+x3*x5*x10*x24-x1*x7*x10*x24-x2*x5*x11*x24+x1*x6*x11*x24, x8*x11*x14*x17-x7*x12*x14*x17-x8*x10*x15*x17+x6*x12*x15*x17+x7*x10*x16*x17-x6*x11*x16*x17-x8*x11*x13*x18+x7*x12*x13*x18+x8*x9*x15*x18-x5*x12*x15*x18-x7*x9*x16*x18+x5*x11*x16*x18+x8*x10*x13*x19-x6*x12*x13*x19-x8*x9*x14*x19+x5*x12*x14*x19+x6*x9*x16*x19-x5*x10*x16*x19-x7*x10*x13*x20+x6*x11*x13*x20+x7*x9*x14*x20-x5*x11*x14*x20-x6*x9*x15*x20+x5*x10*x15*x20, x4*x11*x14*x17-x3*x12*x14*x17-x4*x10*x15*x17+x2*x12*x15*x17+x3*x10*x16*x17-x2*x11*x16*x17-x4*x11*x13*x18+x3*x12*x13*x18+x4*x9*x15*x18-x1*x12*x15*x18-x3*x9*x16*x18+x1*x11*x16*x18+x4*x10*x13*x19-x2*x12*x13*x19-x4*x9*x14*x19+x1*x12*x14*x19+x2*x9*x16*x19-x1*x10*x16*x19-x3*x10*x13*x20+x2*x11*x13*x20+x3*x9*x14*x20-x1*x11*x14*x20-x2*x9*x15*x20+x1*x10*x15*x20, x4*x7*x14*x17-x3*x8*x14*x17-x4*x6*x15*x17+x2*x8*x15*x17+x3*x6*x16*x17-x2*x7*x16*x17-x4*x7*x13*x18+x3*x8*x13*x18+x4*x5*x15*x18-x1*x8*x15*x18-x3*x5*x16*x18+x1*x7*x16*x18+x4*x6*x13*x19-x2*x8*x13*x19-x4*x5*x14*x19+x1*x8*x14*x19+x2*x5*x16*x19-x1*x6*x16*x19-x3*x6*x13*x20+x2*x7*x13*x20+x3*x5*x14*x20-x1*x7*x14*x20-x2*x5*x15*x20+x1*x6*x15*x20, x4*x7*x10*x17-x3*x8*x10*x17-x4*x6*x11*x17+x2*x8*x11*x17+x3*x6*x12*x17-x2*x7*x12*x17-x4*x7*x9*x18+x3*x8*x9*x18+x4*x5*x11*x18-x1*x8*x11*x18-x3*x5*x12*x18+x1*x7*x12*x18+x4*x6*x9*x19-x2*x8*x9*x19-x4*x5*x10*x19+x1*x8*x10*x19+x2*x5*x12*x19-x1*x6*x12*x19-x3*x6*x9*x20+x2*x7*x9*x20+x3*x5*x10*x20-x1*x7*x10*x20-x2*x5*x11*x20+x1*x6*x11*x20, x4*x7*x10*x13-x3*x8*x10*x13-x4*x6*x11*x13+x2*x8*x11*x13+x3*x6*x12*x13-x2*x7*x12*x13-x4*x7*x9*x14+x3*x8*x9*x14+x4*x5*x11*x14-x1*x8*x11*x14-x3*x5*x12*x14+x1*x7*x12*x14+x4*x6*x9*x15-x2*x8*x9*x15-x4*x5*x10*x15+x1*x8*x10*x15+x2*x5*x12*x15-x1*x6*x12*x15-x3*x6*x9*x16+x2*x7*x9*x16+x3*x5*x10*x16-x1*x7*x10*x16-x2*x5*x11*x16+x1*x6*x11*x16))
 12.759913 seconds (60.95 k allocations: 11.578 MiB)
 75.390530 seconds (60.95 k allocations: 11.578 MiB, 0.01% gc time)
 46.785803 seconds (11 allocations: 368 bytes)
(R, I) = GB.zhang_xxz_11_5(32003) = (Singular Polynomial Ring (ZZ/32003),(x1,x2,x3,x4,x5,x6,x7,x8,x9,x10,x11,x12,x13,x14,x15,x16,x17,x18,x19),(dp(19),C), Singular Ideal over Singular Polynomial Ring (ZZ/32003),(x1,x2,x3,x4,x5,x6,x7,x8,x9,x10,x11,x12,x13,x14,x15,x16,x17,x18,x19),(dp(19),C) with generators (2*x3*x15+5*x15, 32*x4*x15+32*x3*x16-880*x15+1025*x16, 512*x5*x15+512*x4*x16+512*x3*x17+4779*x15-13757*x16+6121*x17, 8192*x6*x15+8192*x5*x16+8192*x4*x17+8192*x3*x18+4059*x15+6295*x16-13960*x17-1426*x18, 3060*x7*x15+3060*x6*x16+3060*x5*x17+3060*x4*x18+3060*x3*x19+12173*x15-14133*x16+10355*x17-1922*x18-13278*x19, -15046*x8*x15-15046*x7*x16-15046*x6*x17-15046*x5*x18-15046*x4*x19-15046*x3+15222*x15-2306*x16+1153*x17-6384*x18+7518*x19-7105, 12240*x9*x15+12240*x8*x16+12240*x7*x17+12240*x6*x18+12240*x5*x19+12240*x4+2866*x15+4105*x16-14948*x17+7657*x18+4951*x19+874, 3060*x10*x15+3060*x9*x16+3060*x8*x17+3060*x7*x18+3060*x6*x19+3060*x5+8575*x15+4241*x16-13970*x17-1876*x18+3173*x19+5779, 765*x11*x15+765*x10*x16+765*x9*x17+765*x8*x18+765*x7*x19+765*x6+9239*x15-15403*x16+15351*x17-15351*x18+15403*x19-9239, 3060*x12*x15+3060*x11*x16+3060*x10*x17+3060*x9*x18+3060*x8*x19+3060*x7-5779*x15-3173*x16+1876*x17+13970*x18-4241*x19-8575, 12240*x13*x15+12240*x12*x16+12240*x11*x17+12240*x10*x18+12240*x9*x19+12240*x8-874*x15-4951*x16-7657*x17+14948*x18-4105*x19-2866, 2*x14-5, -15046*x14*x15-15046*x13*x16-15046*x12*x17-15046*x11*x18-15046*x10*x19-15046*x9+7105*x15-7518*x16+6384*x17-1153*x18+2306*x19-15222, 3060*x14*x16+3060*x13*x17+3060*x12*x18+3060*x11*x19+3060*x10+13278*x16+1922*x17-10355*x18+14133*x19-12173, 8192*x14*x17+8192*x13*x18+8192*x12*x19+8192*x11+1426*x17+13960*x18-6295*x19-4059, 512*x14*x18+512*x13*x19+512*x12-6121*x18+13757*x19-4779, 32*x14*x19+32*x13-1025*x19+880, 1024*x1*x15^2+4352*x1*x15*x16+1024*x1*x16^2-15555*x1*x15*x17+4352*x1*x16*x17+1024*x1*x17^2+1546*x1*x15*x18-15555*x1*x16*x18+4352*x1*x17*x18+1024*x1*x18^2+6124*x1*x15*x19+1546*x1*x16*x19-15555*x1*x17*x19+4352*x1*x18*x19+1024*x1*x19^2-7522*x1*x15+6124*x1*x16+1546*x1*x17-15555*x1*x18+4352*x1*x19+1024*x1-1024, x2*x15-1))
  1.773727 seconds (6.21 k allocations: 17.059 MiB)
  5.036036 seconds (6.72 k allocations: 17.085 MiB, 1.43% gc time)
