\beamer@endinputifotherversion {3.07pt}
\headcommand {\slideentry {0}{0}{1}{1/1}{}{0}}
\headcommand {\beamer@framepages {1}{1}}
\headcommand {\sectionentry {1}{Gr\"obner bases}{2}{Gr\"obner bases}{0}}
\headcommand {\beamer@sectionpages {1}{1}}
\headcommand {\beamer@subsectionpages {1}{1}}
\headcommand {\slideentry {1}{0}{2}{2/2}{}{0}}
\headcommand {\beamer@framepages {2}{2}}
\headcommand {\beamer@subsectionentry {0}{1}{1}{3}{The problem of zero reductions}}\headcommand {\beamer@subsectionpages {2}{2}}
\headcommand {\slideentry {1}{1}{1}{3/8}{The problem of zero reductions}{0}}
\headcommand {\beamer@framepages {3}{8}}
\headcommand {\sectionentry {2}{Signature-based algorithms}{9}{Signature-based algorithms}{0}}
\headcommand {\beamer@sectionpages {2}{8}}
\headcommand {\beamer@subsectionpages {3}{8}}
\headcommand {\slideentry {2}{0}{2}{9/9}{}{0}}
\headcommand {\beamer@framepages {9}{9}}
\headcommand {\beamer@subsectionentry {0}{2}{1}{10}{The basic idea}}\headcommand {\beamer@subsectionpages {9}{9}}
\headcommand {\slideentry {2}{1}{1}{10/15}{The basic idea}{0}}
\headcommand {\beamer@framepages {10}{15}}
\headcommand {\slideentry {2}{1}{2}{16/16}{The basic idea}{0}}
\headcommand {\beamer@framepages {16}{16}}
\headcommand {\beamer@subsectionentry {0}{2}{2}{17}{Computing Gr\"obner bases using signatures}}\headcommand {\beamer@subsectionpages {10}{16}}
\headcommand {\slideentry {2}{2}{1}{17/25}{Computing Gr\"obner bases using signatures}{0}}
\headcommand {\beamer@framepages {17}{25}}
\headcommand {\slideentry {2}{2}{2}{26/27}{Computing Gr\"obner bases using signatures}{0}}
\headcommand {\beamer@framepages {26}{27}}
\headcommand {\slideentry {2}{2}{3}{28/29}{Computing Gr\"obner bases using signatures}{0}}
\headcommand {\beamer@framepages {28}{29}}
\headcommand {\beamer@subsectionentry {0}{2}{3}{30}{How to reject useless pairs?}}\headcommand {\beamer@subsectionpages {17}{29}}
\headcommand {\slideentry {2}{3}{1}{30/31}{How to reject useless pairs?}{0}}
\headcommand {\beamer@framepages {30}{31}}
\headcommand {\slideentry {2}{3}{2}{32/33}{How to reject useless pairs?}{0}}
\headcommand {\beamer@framepages {32}{33}}
\headcommand {\sectionentry {3}{G2V and F5 -- Differences and similarities}{34}{G2V and F5 -- Differences and similarities}{0}}
\headcommand {\beamer@sectionpages {9}{33}}
\headcommand {\beamer@subsectionpages {30}{33}}
\headcommand {\slideentry {3}{0}{3}{34/34}{}{0}}
\headcommand {\beamer@framepages {34}{34}}
\headcommand {\beamer@subsectionentry {0}{3}{1}{35}{Implementations of the criteria}}\headcommand {\beamer@subsectionpages {34}{34}}
\headcommand {\slideentry {3}{1}{1}{35/37}{Implementations of the criteria}{0}}
\headcommand {\beamer@framepages {35}{37}}
\headcommand {\slideentry {3}{1}{2}{38/38}{Implementations of the criteria}{0}}
\headcommand {\beamer@framepages {38}{38}}
\headcommand {\beamer@subsectionentry {0}{3}{2}{39}{F5E -- Combine the ideas}}\headcommand {\beamer@subsectionpages {35}{38}}
\headcommand {\slideentry {3}{2}{1}{39/39}{F5E -- Combine the ideas}{0}}
\headcommand {\beamer@framepages {39}{39}}
\headcommand {\beamer@subsectionentry {0}{3}{3}{40}{Implementations of the sig-safe reductions}}\headcommand {\beamer@subsectionpages {39}{39}}
\headcommand {\slideentry {3}{3}{1}{40/40}{Implementations of the sig-safe reductions}{0}}
\headcommand {\beamer@framepages {40}{40}}
\headcommand {\sectionentry {4}{Experimental results}{41}{Experimental results}{0}}
\headcommand {\beamer@sectionpages {34}{40}}
\headcommand {\beamer@subsectionpages {40}{40}}
\headcommand {\slideentry {4}{0}{2}{41/41}{}{0}}
\headcommand {\beamer@framepages {41}{41}}
\headcommand {\beamer@subsectionentry {0}{4}{1}{42}{Experimental results}}\headcommand {\beamer@subsectionpages {41}{41}}
\headcommand {\slideentry {4}{1}{1}{42/42}{Experimental results}{0}}
\headcommand {\beamer@framepages {42}{42}}
\headcommand {\sectionentry {5}{Outlook}{43}{Outlook}{0}}
\headcommand {\beamer@sectionpages {41}{42}}
\headcommand {\beamer@subsectionpages {42}{42}}
\headcommand {\slideentry {5}{0}{2}{43/43}{}{0}}
\headcommand {\beamer@framepages {43}{43}}
\headcommand {\slideentry {5}{0}{3}{44/44}{}{0}}
\headcommand {\beamer@framepages {44}{44}}
\headcommand {\slideentry {5}{0}{4}{45/45}{}{0}}
\headcommand {\beamer@framepages {45}{45}}
\headcommand {\beamer@partpages {1}{45}}
\headcommand {\beamer@subsectionpages {43}{45}}
\headcommand {\beamer@sectionpages {43}{45}}
\headcommand {\beamer@documentpages {45}}
\headcommand {\def \inserttotalframenumber {21}}
