\relax 
\ifx\hyper@anchor\@undefined
\global \let \oldcontentsline\contentsline
\gdef \contentsline#1#2#3#4{\oldcontentsline{#1}{#2}{#3}}
\global \let \oldnewlabel\newlabel
\gdef \newlabel#1#2{\newlabelxx{#1}#2}
\gdef \newlabelxx#1#2#3#4#5#6{\oldnewlabel{#1}{{#2}{#3}}}
\AtEndDocument{\let \contentsline\oldcontentsline
\let \newlabel\oldnewlabel}
\else
\global \let \hyper@last\relax 
\fi

\@writefile{toc}{\beamer@endinputifotherversion {3.07pt}}
\@writefile{nav}{\beamer@endinputifotherversion {3.07pt}}
\@writefile{nav}{\headcommand {\slideentry {0}{0}{1}{1/1}{}{0}}}
\@writefile{nav}{\headcommand {\beamer@framepages {1}{1}}}
\@writefile{toc}{\beamer@sectionintoc {1}{Gr\"obner bases}{2}{0}{1}}
\@writefile{nav}{\headcommand {\sectionentry {1}{Gr\"obner bases}{2}{Gr\"obner bases}{0}}}
\@writefile{nav}{\headcommand {\beamer@sectionpages {1}{1}}}
\@writefile{nav}{\headcommand {\beamer@subsectionpages {1}{1}}}
\@writefile{nav}{\headcommand {\slideentry {1}{0}{2}{2/2}{}{0}}}
\@writefile{nav}{\headcommand {\beamer@framepages {2}{2}}}
\@writefile{toc}{\beamer@subsectionintoc {1}{1}{The problem of zero reductions}{3}{0}{1}}
\@writefile{nav}{\headcommand {\beamer@subsectionentry {0}{1}{1}{3}{The problem of zero reductions}}\headcommand {\beamer@subsectionpages {2}{2}}}
\@writefile{nav}{\headcommand {\slideentry {1}{1}{1}{3/8}{The problem of zero reductions}{0}}}
\@writefile{nav}{\headcommand {\beamer@framepages {3}{8}}}
\@writefile{toc}{\beamer@sectionintoc {2}{Signature-based algorithms}{9}{0}{2}}
\@writefile{nav}{\headcommand {\sectionentry {2}{Signature-based algorithms}{9}{Signature-based algorithms}{0}}}
\@writefile{nav}{\headcommand {\beamer@sectionpages {2}{8}}}
\@writefile{nav}{\headcommand {\beamer@subsectionpages {3}{8}}}
\@writefile{nav}{\headcommand {\slideentry {2}{0}{2}{9/9}{}{0}}}
\@writefile{nav}{\headcommand {\beamer@framepages {9}{9}}}
\@writefile{toc}{\beamer@subsectionintoc {2}{1}{The basic idea}{10}{0}{2}}
\@writefile{nav}{\headcommand {\beamer@subsectionentry {0}{2}{1}{10}{The basic idea}}\headcommand {\beamer@subsectionpages {9}{9}}}
\@writefile{nav}{\headcommand {\slideentry {2}{1}{1}{10/15}{The basic idea}{0}}}
\@writefile{nav}{\headcommand {\beamer@framepages {10}{15}}}
\@writefile{nav}{\headcommand {\slideentry {2}{1}{2}{16/16}{The basic idea}{0}}}
\@writefile{nav}{\headcommand {\beamer@framepages {16}{16}}}
\@writefile{toc}{\beamer@subsectionintoc {2}{2}{Computing Gr\"obner bases using signatures}{17}{0}{2}}
\@writefile{nav}{\headcommand {\beamer@subsectionentry {0}{2}{2}{17}{Computing Gr\"obner bases using signatures}}\headcommand {\beamer@subsectionpages {10}{16}}}
\@writefile{nav}{\headcommand {\slideentry {2}{2}{1}{17/25}{Computing Gr\"obner bases using signatures}{0}}}
\@writefile{nav}{\headcommand {\beamer@framepages {17}{25}}}
\@writefile{nav}{\headcommand {\slideentry {2}{2}{2}{26/27}{Computing Gr\"obner bases using signatures}{0}}}
\@writefile{nav}{\headcommand {\beamer@framepages {26}{27}}}
\@writefile{nav}{\headcommand {\slideentry {2}{2}{3}{28/29}{Computing Gr\"obner bases using signatures}{0}}}
\@writefile{nav}{\headcommand {\beamer@framepages {28}{29}}}
\@writefile{toc}{\beamer@subsectionintoc {2}{3}{How to reject useless pairs?}{30}{0}{2}}
\@writefile{nav}{\headcommand {\beamer@subsectionentry {0}{2}{3}{30}{How to reject useless pairs?}}\headcommand {\beamer@subsectionpages {17}{29}}}
\@writefile{nav}{\headcommand {\slideentry {2}{3}{1}{30/31}{How to reject useless pairs?}{0}}}
\@writefile{nav}{\headcommand {\beamer@framepages {30}{31}}}
\@writefile{nav}{\headcommand {\slideentry {2}{3}{2}{32/33}{How to reject useless pairs?}{0}}}
\@writefile{nav}{\headcommand {\beamer@framepages {32}{33}}}
\@writefile{toc}{\beamer@sectionintoc {3}{G2V and F5 -- Differences and similarities}{34}{0}{3}}
\@writefile{nav}{\headcommand {\sectionentry {3}{G2V and F5 -- Differences and similarities}{34}{G2V and F5 -- Differences and similarities}{0}}}
\@writefile{nav}{\headcommand {\beamer@sectionpages {9}{33}}}
\@writefile{nav}{\headcommand {\beamer@subsectionpages {30}{33}}}
\@writefile{nav}{\headcommand {\slideentry {3}{0}{3}{34/34}{}{0}}}
\@writefile{nav}{\headcommand {\beamer@framepages {34}{34}}}
\@writefile{toc}{\beamer@subsectionintoc {3}{1}{Implementations of the criteria}{35}{0}{3}}
\@writefile{nav}{\headcommand {\beamer@subsectionentry {0}{3}{1}{35}{Implementations of the criteria}}\headcommand {\beamer@subsectionpages {34}{34}}}
\@writefile{nav}{\headcommand {\slideentry {3}{1}{1}{35/37}{Implementations of the criteria}{0}}}
\@writefile{nav}{\headcommand {\beamer@framepages {35}{37}}}
\@writefile{nav}{\headcommand {\slideentry {3}{1}{2}{38/38}{Implementations of the criteria}{0}}}
\@writefile{nav}{\headcommand {\beamer@framepages {38}{38}}}
\@writefile{toc}{\beamer@subsectionintoc {3}{2}{F5E -- Combine the ideas}{39}{0}{3}}
\@writefile{nav}{\headcommand {\beamer@subsectionentry {0}{3}{2}{39}{F5E -- Combine the ideas}}\headcommand {\beamer@subsectionpages {35}{38}}}
\@writefile{nav}{\headcommand {\slideentry {3}{2}{1}{39/39}{F5E -- Combine the ideas}{0}}}
\@writefile{nav}{\headcommand {\beamer@framepages {39}{39}}}
\@writefile{toc}{\beamer@subsectionintoc {3}{3}{Implementations of the sig-safe reductions}{40}{0}{3}}
\@writefile{nav}{\headcommand {\beamer@subsectionentry {0}{3}{3}{40}{Implementations of the sig-safe reductions}}\headcommand {\beamer@subsectionpages {39}{39}}}
\@writefile{nav}{\headcommand {\slideentry {3}{3}{1}{40/40}{Implementations of the sig-safe reductions}{0}}}
\@writefile{nav}{\headcommand {\beamer@framepages {40}{40}}}
\@writefile{toc}{\beamer@sectionintoc {4}{Experimental results}{41}{0}{4}}
\@writefile{nav}{\headcommand {\sectionentry {4}{Experimental results}{41}{Experimental results}{0}}}
\@writefile{nav}{\headcommand {\beamer@sectionpages {34}{40}}}
\@writefile{nav}{\headcommand {\beamer@subsectionpages {40}{40}}}
\@writefile{nav}{\headcommand {\slideentry {4}{0}{2}{41/41}{}{0}}}
\@writefile{nav}{\headcommand {\beamer@framepages {41}{41}}}
\@writefile{toc}{\beamer@subsectionintoc {4}{1}{Experimental results}{42}{0}{4}}
\@writefile{nav}{\headcommand {\beamer@subsectionentry {0}{4}{1}{42}{Experimental results}}\headcommand {\beamer@subsectionpages {41}{41}}}
\@writefile{nav}{\headcommand {\slideentry {4}{1}{1}{42/42}{Experimental results}{0}}}
\@writefile{nav}{\headcommand {\beamer@framepages {42}{42}}}
\@writefile{toc}{\beamer@sectionintoc {5}{Outlook}{43}{0}{5}}
\@writefile{nav}{\headcommand {\sectionentry {5}{Outlook}{43}{Outlook}{0}}}
\@writefile{nav}{\headcommand {\beamer@sectionpages {41}{42}}}
\@writefile{nav}{\headcommand {\beamer@subsectionpages {42}{42}}}
\@writefile{nav}{\headcommand {\slideentry {5}{0}{2}{43/43}{}{0}}}
\@writefile{nav}{\headcommand {\beamer@framepages {43}{43}}}
\@writefile{nav}{\headcommand {\slideentry {5}{0}{3}{44/44}{}{0}}}
\@writefile{nav}{\headcommand {\beamer@framepages {44}{44}}}
\bibcite{arshashemi}{\hyperlink {beamerbibarshashemi}{AH09}}
\bibcite{f5c}{\hyperlink {beamerbibf5c}{EP10}}
\bibcite{f5r}{\hyperlink {beamerbibf5r}{EGP11}}
\bibcite{f5e}{\hyperlink {beamerbibf5e}{EP11}}
\bibcite{f5}{\hyperlink {beamerbibf5}{Fa02}}
\bibcite{ggv}{\hyperlink {beamerbibggv}{GGV10}}
\bibcite{gvw}{\hyperlink {beamerbibgvw}{GVW11}}
\bibcite{singular}{\hyperlink {beamerbibsingular}{SIN11}}
\bibcite{sunwang1}{\hyperlink {beamerbibsunwang1}{SW10}}
\bibcite{sunwang2}{\hyperlink {beamerbibsunwang2}{SW11}}
\@writefile{nav}{\headcommand {\slideentry {5}{0}{4}{45/45}{}{0}}}
\@writefile{nav}{\headcommand {\beamer@framepages {45}{45}}}
\@writefile{nav}{\headcommand {\beamer@partpages {1}{45}}}
\@writefile{nav}{\headcommand {\beamer@subsectionpages {43}{45}}}
\@writefile{nav}{\headcommand {\beamer@sectionpages {43}{45}}}
\@writefile{nav}{\headcommand {\beamer@documentpages {45}}}
\@writefile{nav}{\headcommand {\def \inserttotalframenumber {21}}}
