\beamer@endinputifotherversion {3.07pt}
\headcommand {\slideentry {0}{0}{1}{1/1}{}{0}}
\headcommand {\beamer@framepages {1}{1}}
\headcommand {\sectionentry {1}{What is this talk about?}{2}{What is this talk about?}{0}}
\headcommand {\beamer@sectionpages {1}{1}}
\headcommand {\beamer@subsectionpages {1}{1}}
\headcommand {\slideentry {1}{0}{2}{2/2}{}{0}}
\headcommand {\beamer@framepages {2}{2}}
\headcommand {\sectionentry {2}{Introducing Gr\"obner bases}{3}{Introducing Gr\"obner bases}{0}}
\headcommand {\beamer@sectionpages {2}{2}}
\headcommand {\beamer@subsectionpages {2}{2}}
\headcommand {\slideentry {2}{0}{3}{3/3}{}{0}}
\headcommand {\beamer@framepages {3}{3}}
\headcommand {\beamer@subsectionentry {0}{2}{1}{4}{Gr\"obner basics}}\headcommand {\beamer@subsectionpages {3}{3}}
\headcommand {\slideentry {2}{1}{1}{4/4}{Gr\"obner basics}{0}}
\headcommand {\beamer@framepages {4}{4}}
\headcommand {\slideentry {2}{1}{2}{5/6}{Gr\"obner basics}{0}}
\headcommand {\beamer@framepages {5}{6}}
\headcommand {\slideentry {2}{1}{3}{7/7}{Gr\"obner basics}{0}}
\headcommand {\beamer@framepages {7}{7}}
\headcommand {\beamer@subsectionentry {0}{2}{2}{8}{Computation of Gr\"obner bases}}\headcommand {\beamer@subsectionpages {4}{7}}
\headcommand {\slideentry {2}{2}{1}{8/13}{Computation of Gr\"obner bases}{0}}
\headcommand {\beamer@framepages {8}{13}}
\headcommand {\slideentry {2}{2}{2}{14/18}{Computation of Gr\"obner bases}{0}}
\headcommand {\beamer@framepages {14}{18}}
\headcommand {\beamer@subsectionentry {0}{2}{3}{19}{Problem of zero reduction}}\headcommand {\beamer@subsectionpages {8}{18}}
\headcommand {\slideentry {2}{3}{1}{19/22}{Problem of zero reduction}{0}}
\headcommand {\beamer@framepages {19}{22}}
\headcommand {\slideentry {2}{3}{2}{23/28}{Problem of zero reduction}{0}}
\headcommand {\beamer@framepages {23}{28}}
\headcommand {\slideentry {2}{3}{3}{29/29}{Problem of zero reduction}{0}}
\headcommand {\beamer@framepages {29}{29}}
\headcommand {\sectionentry {3}{Signature-based algorithms}{30}{Signature-based algorithms}{0}}
\headcommand {\beamer@sectionpages {3}{29}}
\headcommand {\beamer@subsectionpages {19}{29}}
\headcommand {\slideentry {3}{0}{4}{30/30}{}{0}}
\headcommand {\beamer@framepages {30}{30}}
\headcommand {\beamer@subsectionentry {0}{3}{1}{31}{The basic idea}}\headcommand {\beamer@subsectionpages {30}{30}}
\headcommand {\slideentry {3}{1}{1}{31/36}{The basic idea}{0}}
\headcommand {\beamer@framepages {31}{36}}
\headcommand {\slideentry {3}{1}{2}{37/37}{The basic idea}{0}}
\headcommand {\beamer@framepages {37}{37}}
\headcommand {\slideentry {3}{1}{3}{38/39}{The basic idea}{0}}
\headcommand {\beamer@framepages {38}{39}}
\headcommand {\slideentry {3}{1}{4}{40/40}{The basic idea}{0}}
\headcommand {\beamer@framepages {40}{40}}
\headcommand {\slideentry {3}{1}{5}{41/44}{The basic idea}{0}}
\headcommand {\beamer@framepages {41}{44}}
\headcommand {\slideentry {3}{1}{6}{45/47}{The basic idea}{0}}
\headcommand {\beamer@framepages {45}{47}}
\headcommand {\beamer@subsectionentry {0}{3}{2}{48}{Computing Gr\"obner bases using signatures}}\headcommand {\beamer@subsectionpages {31}{47}}
\headcommand {\slideentry {3}{2}{1}{48/56}{Computing Gr\"obner bases using signatures}{0}}
\headcommand {\beamer@framepages {48}{56}}
\headcommand {\slideentry {3}{2}{2}{57/63}{Computing Gr\"obner bases using signatures}{0}}
\headcommand {\beamer@framepages {57}{63}}
\headcommand {\slideentry {3}{2}{3}{64/65}{Computing Gr\"obner bases using signatures}{0}}
\headcommand {\beamer@framepages {64}{65}}
\headcommand {\beamer@subsectionentry {0}{3}{3}{66}{How to reject useless pairs?}}\headcommand {\beamer@subsectionpages {48}{65}}
\headcommand {\slideentry {3}{3}{1}{66/67}{How to reject useless pairs?}{0}}
\headcommand {\beamer@framepages {66}{67}}
\headcommand {\slideentry {3}{3}{2}{68/69}{How to reject useless pairs?}{0}}
\headcommand {\beamer@framepages {68}{69}}
\headcommand {\sectionentry {4}{GGV and F5 -- Differences and similarities}{70}{GGV and F5 -- Differences and similarities}{0}}
\headcommand {\beamer@sectionpages {30}{69}}
\headcommand {\beamer@subsectionpages {66}{69}}
\headcommand {\slideentry {4}{0}{3}{70/70}{}{0}}
\headcommand {\beamer@framepages {70}{70}}
\headcommand {\beamer@subsectionentry {0}{4}{1}{71}{What are the differences?}}\headcommand {\beamer@subsectionpages {70}{70}}
\headcommand {\slideentry {4}{1}{1}{71/74}{What are the differences?}{0}}
\headcommand {\beamer@framepages {71}{74}}
\headcommand {\beamer@subsectionentry {0}{4}{2}{75}{F5}}\headcommand {\beamer@subsectionpages {71}{74}}
\headcommand {\slideentry {4}{2}{1}{75/75}{F5}{0}}
\headcommand {\beamer@framepages {75}{75}}
\headcommand {\slideentry {4}{2}{2}{76/77}{F5}{0}}
\headcommand {\beamer@framepages {76}{77}}
\headcommand {\beamer@subsectionentry {0}{4}{3}{78}{GGV}}\headcommand {\beamer@subsectionpages {75}{77}}
\headcommand {\slideentry {4}{3}{1}{78/81}{GGV}{0}}
\headcommand {\beamer@framepages {78}{81}}
\headcommand {\slideentry {4}{3}{2}{82/83}{GGV}{0}}
\headcommand {\beamer@framepages {82}{83}}
\headcommand {\beamer@subsectionentry {0}{4}{4}{84}{F5E -- Combine the ideas}}\headcommand {\beamer@subsectionpages {78}{83}}
\headcommand {\slideentry {4}{4}{1}{84/85}{F5E -- Combine the ideas}{0}}
\headcommand {\beamer@framepages {84}{85}}
\headcommand {\sectionentry {5}{Experimental results}{86}{Experimental results}{0}}
\headcommand {\beamer@sectionpages {70}{85}}
\headcommand {\beamer@subsectionpages {84}{85}}
\headcommand {\slideentry {5}{0}{2}{86/86}{}{0}}
\headcommand {\beamer@framepages {86}{86}}
\headcommand {\beamer@subsectionentry {0}{5}{1}{87}{Preliminaries}}\headcommand {\beamer@subsectionpages {86}{86}}
\headcommand {\slideentry {5}{1}{1}{87/89}{Preliminaries}{0}}
\headcommand {\beamer@framepages {87}{89}}
\headcommand {\beamer@subsectionentry {0}{5}{2}{90}{Critical pairs \& zero reductions}}\headcommand {\beamer@subsectionpages {87}{89}}
\headcommand {\slideentry {5}{2}{1}{90/91}{Critical pairs \& zero reductions}{0}}
\headcommand {\beamer@framepages {90}{91}}
\headcommand {\beamer@subsectionentry {0}{5}{3}{92}{Timings}}\headcommand {\beamer@subsectionpages {90}{91}}
\headcommand {\slideentry {5}{3}{1}{92/92}{Timings}{0}}
\headcommand {\beamer@framepages {92}{92}}
\headcommand {\sectionentry {6}{Outlook}{93}{Outlook}{0}}
\headcommand {\beamer@sectionpages {86}{92}}
\headcommand {\beamer@subsectionpages {92}{92}}
\headcommand {\slideentry {6}{0}{2}{93/93}{}{0}}
\headcommand {\beamer@framepages {93}{93}}
\headcommand {\slideentry {6}{0}{3}{94/99}{}{0}}
\headcommand {\beamer@framepages {94}{99}}
\headcommand {\slideentry {6}{0}{4}{100/100}{}{0}}
\headcommand {\beamer@framepages {100}{100}}
\headcommand {\beamer@partpages {1}{100}}
\headcommand {\beamer@subsectionpages {93}{100}}
\headcommand {\beamer@sectionpages {93}{100}}
\headcommand {\beamer@documentpages {100}}
\headcommand {\def \inserttotalframenumber {37}}
