\relax 
\ifx\hyper@anchor\@undefined
\global \let \oldcontentsline\contentsline
\gdef \contentsline#1#2#3#4{\oldcontentsline{#1}{#2}{#3}}
\global \let \oldnewlabel\newlabel
\gdef \newlabel#1#2{\newlabelxx{#1}#2}
\gdef \newlabelxx#1#2#3#4#5#6{\oldnewlabel{#1}{{#2}{#3}}}
\AtEndDocument{\let \contentsline\oldcontentsline
\let \newlabel\oldnewlabel}
\else
\global \let \hyper@last\relax 
\fi

\@writefile{toc}{\beamer@endinputifotherversion {3.07pt}}
\@writefile{nav}{\beamer@endinputifotherversion {3.07pt}}
\@writefile{nav}{\headcommand {\slideentry {0}{0}{1}{1/1}{}{0}}}
\@writefile{nav}{\headcommand {\beamer@framepages {1}{1}}}
\@writefile{nav}{\headcommand {\sectionentry {1}{What is this talk about?}{2}{What is this talk about?}{0}}}
\@writefile{nav}{\headcommand {\beamer@sectionpages {1}{1}}}
\@writefile{nav}{\headcommand {\beamer@subsectionpages {1}{1}}}
\@writefile{nav}{\headcommand {\slideentry {1}{0}{2}{2/2}{}{0}}}
\@writefile{nav}{\headcommand {\beamer@framepages {2}{2}}}
\@writefile{toc}{\beamer@sectionintoc {2}{Introducing Gr\"obner bases}{3}{0}{1}}
\@writefile{nav}{\headcommand {\sectionentry {2}{Introducing Gr\"obner bases}{3}{Introducing Gr\"obner bases}{0}}}
\@writefile{nav}{\headcommand {\beamer@sectionpages {2}{2}}}
\@writefile{nav}{\headcommand {\beamer@subsectionpages {2}{2}}}
\@writefile{nav}{\headcommand {\slideentry {2}{0}{3}{3/3}{}{0}}}
\@writefile{nav}{\headcommand {\beamer@framepages {3}{3}}}
\@writefile{toc}{\beamer@subsectionintoc {2}{1}{Gr\"obner basics}{4}{0}{1}}
\@writefile{nav}{\headcommand {\beamer@subsectionentry {0}{2}{1}{4}{Gr\"obner basics}}\headcommand {\beamer@subsectionpages {3}{3}}}
\@writefile{nav}{\headcommand {\slideentry {2}{1}{1}{4/4}{Gr\"obner basics}{0}}}
\@writefile{nav}{\headcommand {\beamer@framepages {4}{4}}}
\@writefile{nav}{\headcommand {\slideentry {2}{1}{2}{5/6}{Gr\"obner basics}{0}}}
\@writefile{nav}{\headcommand {\beamer@framepages {5}{6}}}
\@writefile{nav}{\headcommand {\slideentry {2}{1}{3}{7/7}{Gr\"obner basics}{0}}}
\@writefile{nav}{\headcommand {\beamer@framepages {7}{7}}}
\@writefile{toc}{\beamer@subsectionintoc {2}{2}{Computation of Gr\"obner bases}{8}{0}{1}}
\@writefile{nav}{\headcommand {\beamer@subsectionentry {0}{2}{2}{8}{Computation of Gr\"obner bases}}\headcommand {\beamer@subsectionpages {4}{7}}}
\@writefile{nav}{\headcommand {\slideentry {2}{2}{1}{8/13}{Computation of Gr\"obner bases}{0}}}
\@writefile{nav}{\headcommand {\beamer@framepages {8}{13}}}
\@writefile{nav}{\headcommand {\slideentry {2}{2}{2}{14/18}{Computation of Gr\"obner bases}{0}}}
\@writefile{nav}{\headcommand {\beamer@framepages {14}{18}}}
\@writefile{toc}{\beamer@subsectionintoc {2}{3}{Problem of zero reduction}{19}{0}{1}}
\@writefile{nav}{\headcommand {\beamer@subsectionentry {0}{2}{3}{19}{Problem of zero reduction}}\headcommand {\beamer@subsectionpages {8}{18}}}
\@writefile{nav}{\headcommand {\slideentry {2}{3}{1}{19/22}{Problem of zero reduction}{0}}}
\@writefile{nav}{\headcommand {\beamer@framepages {19}{22}}}
\@writefile{nav}{\headcommand {\slideentry {2}{3}{2}{23/28}{Problem of zero reduction}{0}}}
\@writefile{nav}{\headcommand {\beamer@framepages {23}{28}}}
\@writefile{nav}{\headcommand {\slideentry {2}{3}{3}{29/29}{Problem of zero reduction}{0}}}
\@writefile{nav}{\headcommand {\beamer@framepages {29}{29}}}
\@writefile{toc}{\beamer@sectionintoc {3}{Signature-based algorithms}{30}{0}{2}}
\@writefile{nav}{\headcommand {\sectionentry {3}{Signature-based algorithms}{30}{Signature-based algorithms}{0}}}
\@writefile{nav}{\headcommand {\beamer@sectionpages {3}{29}}}
\@writefile{nav}{\headcommand {\beamer@subsectionpages {19}{29}}}
\@writefile{nav}{\headcommand {\slideentry {3}{0}{4}{30/30}{}{0}}}
\@writefile{nav}{\headcommand {\beamer@framepages {30}{30}}}
\@writefile{toc}{\beamer@subsectionintoc {3}{1}{The basic idea}{31}{0}{2}}
\@writefile{nav}{\headcommand {\beamer@subsectionentry {0}{3}{1}{31}{The basic idea}}\headcommand {\beamer@subsectionpages {30}{30}}}
\@writefile{nav}{\headcommand {\slideentry {3}{1}{1}{31/36}{The basic idea}{0}}}
\@writefile{nav}{\headcommand {\beamer@framepages {31}{36}}}
\citation{f5}
\citation{arshashemi}
\citation{gvw}
\citation{sunwang1}
\citation{sunwang2}
\@writefile{nav}{\headcommand {\slideentry {3}{1}{2}{37/37}{The basic idea}{0}}}
\@writefile{nav}{\headcommand {\beamer@framepages {37}{37}}}
\@writefile{nav}{\headcommand {\slideentry {3}{1}{3}{38/39}{The basic idea}{0}}}
\@writefile{nav}{\headcommand {\beamer@framepages {38}{39}}}
\@writefile{nav}{\headcommand {\slideentry {3}{1}{4}{40/40}{The basic idea}{0}}}
\@writefile{nav}{\headcommand {\beamer@framepages {40}{40}}}
\@writefile{nav}{\headcommand {\slideentry {3}{1}{5}{41/44}{The basic idea}{0}}}
\@writefile{nav}{\headcommand {\beamer@framepages {41}{44}}}
\@writefile{nav}{\headcommand {\slideentry {3}{1}{6}{45/47}{The basic idea}{0}}}
\@writefile{nav}{\headcommand {\beamer@framepages {45}{47}}}
\@writefile{toc}{\beamer@subsectionintoc {3}{2}{Computing Gr\"obner bases using signatures}{48}{0}{2}}
\@writefile{nav}{\headcommand {\beamer@subsectionentry {0}{3}{2}{48}{Computing Gr\"obner bases using signatures}}\headcommand {\beamer@subsectionpages {31}{47}}}
\@writefile{nav}{\headcommand {\slideentry {3}{2}{1}{48/56}{Computing Gr\"obner bases using signatures}{0}}}
\@writefile{nav}{\headcommand {\beamer@framepages {48}{56}}}
\@writefile{nav}{\headcommand {\slideentry {3}{2}{2}{57/63}{Computing Gr\"obner bases using signatures}{0}}}
\@writefile{nav}{\headcommand {\beamer@framepages {57}{63}}}
\@writefile{nav}{\headcommand {\slideentry {3}{2}{3}{64/65}{Computing Gr\"obner bases using signatures}{0}}}
\@writefile{nav}{\headcommand {\beamer@framepages {64}{65}}}
\@writefile{toc}{\beamer@subsectionintoc {3}{3}{How to reject useless pairs?}{66}{0}{2}}
\@writefile{nav}{\headcommand {\beamer@subsectionentry {0}{3}{3}{66}{How to reject useless pairs?}}\headcommand {\beamer@subsectionpages {48}{65}}}
\@writefile{nav}{\headcommand {\slideentry {3}{3}{1}{66/67}{How to reject useless pairs?}{0}}}
\@writefile{nav}{\headcommand {\beamer@framepages {66}{67}}}
\@writefile{nav}{\headcommand {\slideentry {3}{3}{2}{68/69}{How to reject useless pairs?}{0}}}
\@writefile{nav}{\headcommand {\beamer@framepages {68}{69}}}
\@writefile{toc}{\beamer@sectionintoc {4}{GGV and F5 -- Differences and similarities}{70}{0}{3}}
\@writefile{nav}{\headcommand {\sectionentry {4}{GGV and F5 -- Differences and similarities}{70}{GGV and F5 -- Differences and similarities}{0}}}
\@writefile{nav}{\headcommand {\beamer@sectionpages {30}{69}}}
\@writefile{nav}{\headcommand {\beamer@subsectionpages {66}{69}}}
\@writefile{nav}{\headcommand {\slideentry {4}{0}{3}{70/70}{}{0}}}
\@writefile{nav}{\headcommand {\beamer@framepages {70}{70}}}
\@writefile{toc}{\beamer@subsectionintoc {4}{1}{What are the differences?}{71}{0}{3}}
\@writefile{nav}{\headcommand {\beamer@subsectionentry {0}{4}{1}{71}{What are the differences?}}\headcommand {\beamer@subsectionpages {70}{70}}}
\@writefile{nav}{\headcommand {\slideentry {4}{1}{1}{71/74}{What are the differences?}{0}}}
\@writefile{nav}{\headcommand {\beamer@framepages {71}{74}}}
\@writefile{toc}{\beamer@subsectionintoc {4}{2}{F5}{75}{0}{3}}
\@writefile{nav}{\headcommand {\beamer@subsectionentry {0}{4}{2}{75}{F5}}\headcommand {\beamer@subsectionpages {71}{74}}}
\@writefile{nav}{\headcommand {\slideentry {4}{2}{1}{75/75}{F5}{0}}}
\@writefile{nav}{\headcommand {\beamer@framepages {75}{75}}}
\@writefile{nav}{\headcommand {\slideentry {4}{2}{2}{76/77}{F5}{0}}}
\@writefile{nav}{\headcommand {\beamer@framepages {76}{77}}}
\@writefile{toc}{\beamer@subsectionintoc {4}{3}{GGV}{78}{0}{3}}
\@writefile{nav}{\headcommand {\beamer@subsectionentry {0}{4}{3}{78}{GGV}}\headcommand {\beamer@subsectionpages {75}{77}}}
\@writefile{nav}{\headcommand {\slideentry {4}{3}{1}{78/81}{GGV}{0}}}
\@writefile{nav}{\headcommand {\beamer@framepages {78}{81}}}
\@writefile{nav}{\headcommand {\slideentry {4}{3}{2}{82/83}{GGV}{0}}}
\@writefile{nav}{\headcommand {\beamer@framepages {82}{83}}}
\@writefile{toc}{\beamer@subsectionintoc {4}{4}{F5E -- Combine the ideas}{84}{0}{3}}
\@writefile{nav}{\headcommand {\beamer@subsectionentry {0}{4}{4}{84}{F5E -- Combine the ideas}}\headcommand {\beamer@subsectionpages {78}{83}}}
\@writefile{nav}{\headcommand {\slideentry {4}{4}{1}{84/85}{F5E -- Combine the ideas}{0}}}
\@writefile{nav}{\headcommand {\beamer@framepages {84}{85}}}
\@writefile{toc}{\beamer@sectionintoc {5}{Experimental results}{86}{0}{4}}
\@writefile{nav}{\headcommand {\sectionentry {5}{Experimental results}{86}{Experimental results}{0}}}
\@writefile{nav}{\headcommand {\beamer@sectionpages {70}{85}}}
\@writefile{nav}{\headcommand {\beamer@subsectionpages {84}{85}}}
\@writefile{nav}{\headcommand {\slideentry {5}{0}{2}{86/86}{}{0}}}
\@writefile{nav}{\headcommand {\beamer@framepages {86}{86}}}
\@writefile{toc}{\beamer@subsectionintoc {5}{1}{Preliminaries}{87}{0}{4}}
\@writefile{nav}{\headcommand {\beamer@subsectionentry {0}{5}{1}{87}{Preliminaries}}\headcommand {\beamer@subsectionpages {86}{86}}}
\@writefile{nav}{\headcommand {\slideentry {5}{1}{1}{87/89}{Preliminaries}{0}}}
\@writefile{nav}{\headcommand {\beamer@framepages {87}{89}}}
\@writefile{toc}{\beamer@subsectionintoc {5}{2}{Critical pairs \& zero reductions}{90}{0}{4}}
\@writefile{nav}{\headcommand {\beamer@subsectionentry {0}{5}{2}{90}{Critical pairs \& zero reductions}}\headcommand {\beamer@subsectionpages {87}{89}}}
\@writefile{nav}{\headcommand {\slideentry {5}{2}{1}{90/91}{Critical pairs \& zero reductions}{0}}}
\@writefile{nav}{\headcommand {\beamer@framepages {90}{91}}}
\@writefile{toc}{\beamer@subsectionintoc {5}{3}{Timings}{92}{0}{4}}
\@writefile{nav}{\headcommand {\beamer@subsectionentry {0}{5}{3}{92}{Timings}}\headcommand {\beamer@subsectionpages {90}{91}}}
\@writefile{nav}{\headcommand {\slideentry {5}{3}{1}{92/92}{Timings}{0}}}
\@writefile{nav}{\headcommand {\beamer@framepages {92}{92}}}
\@writefile{toc}{\beamer@sectionintoc {6}{Outlook}{93}{0}{5}}
\@writefile{nav}{\headcommand {\sectionentry {6}{Outlook}{93}{Outlook}{0}}}
\@writefile{nav}{\headcommand {\beamer@sectionpages {86}{92}}}
\@writefile{nav}{\headcommand {\beamer@subsectionpages {92}{92}}}
\@writefile{nav}{\headcommand {\slideentry {6}{0}{2}{93/93}{}{0}}}
\@writefile{nav}{\headcommand {\beamer@framepages {93}{93}}}
\@writefile{nav}{\headcommand {\slideentry {6}{0}{3}{94/99}{}{0}}}
\@writefile{nav}{\headcommand {\beamer@framepages {94}{99}}}
\bibcite{arshashemi}{\hyperlink {beamerbibarshashemi}{AH09}}
\bibcite{f5c}{\hyperlink {beamerbibf5c}{EP10}}
\bibcite{f5r}{\hyperlink {beamerbibf5r}{EGP11}}
\bibcite{f5e}{\hyperlink {beamerbibf5e}{EP11}}
\bibcite{f5}{\hyperlink {beamerbibf5}{Fa02}}
\bibcite{ggv}{\hyperlink {beamerbibggv}{GGV10}}
\bibcite{gvw}{\hyperlink {beamerbibgvw}{GVW11}}
\bibcite{singular}{\hyperlink {beamerbibsingular}{SIN11}}
\bibcite{sunwang1}{\hyperlink {beamerbibsunwang1}{SW10}}
\bibcite{sunwang2}{\hyperlink {beamerbibsunwang2}{SW11}}
\@writefile{nav}{\headcommand {\slideentry {6}{0}{4}{100/100}{}{0}}}
\@writefile{nav}{\headcommand {\beamer@framepages {100}{100}}}
\@writefile{nav}{\headcommand {\beamer@partpages {1}{100}}}
\@writefile{nav}{\headcommand {\beamer@subsectionpages {93}{100}}}
\@writefile{nav}{\headcommand {\beamer@sectionpages {93}{100}}}
\@writefile{nav}{\headcommand {\beamer@documentpages {100}}}
\@writefile{nav}{\headcommand {\def \inserttotalframenumber {37}}}
